
create table test (id integer check(abs(id)<3));
insert into test values(1),(2);
insert into test values(3); -- ERR_CHECK_CONSTRAINT_VIOLATION
select * from test;
drop function abs(integer); -- ERR_CANNOT_DROP_FUNCTION
CREATE TABLE
INSERT 0 2
[ERROR]: ERR_CHECK_CONSTRAINT_VIOLATION: New row for table test violates CHECK constraint test_id_CHECK : Failing row contains (3)
id
1
2
(2 rows)
[ERROR]: ERR_DROP_FUNCTION_DEPENDS: Cannot DROP function abs(INTEGER) because other objects (constraint "test_id_CHECK" on table "test") depend on it
