
-- TC048 : OCTO595 : Creation of multiple tables of the same name in sequence with IF NOT EXISTS is skipped with a warning

CREATE TABLE IF NOT EXISTS Customers (CustomerID INTEGER PRIMARY KEY);
CREATE TABLE IF NOT EXISTS Customers (CustomerID INTEGER PRIMARY KEY);
[ INFO] PATH:LINENUM DATE TIME: INFO_RECORDING_ENV_VARS: # Recording pertinent ydb_* env var values at process startup
[ INFO] PATH:LINENUM DATE TIME: INFO_PARSING_DONE: Parsing done for SQL command [CREATE TABLE IF NOT EXISTS Customers (CustomerID INTEGER PRIMARY KEY);]
[ INFO] PATH:LINENUM DATE TIME: INFO_CURSOR: Generating SQL for CURSOR_NUM
[ INFO] PATH:LINENUM DATE TIME: INFO_TEXT_REPRESENTATION: CREATE TABLE `customers` (`customerid` INTEGER CONSTRAINT "customers_PKEY" PRIMARY KEY) GLOBAL "^%ydboctoDKhs5bkHdaBe593ZzzG9N22(keys(""customerid""))" DELIM "|" READWRITE;
CREATE TABLE
[ INFO] PATH:LINENUM DATE TIME: INFO_EXECUTION_DONE: SQL query/command execution complete
[ INFO] PATH:LINENUM DATE TIME: INFO_PARSING_DONE: Parsing done for SQL command [CREATE TABLE IF NOT EXISTS Customers (CustomerID INTEGER PRIMARY KEY);]
[ INFO] PATH:LINENUM DATE TIME: INFO_CURSOR: Generating SQL for CURSOR_NUM
[ INFO] PATH:LINENUM DATE TIME: INFO_TABLE_ALREADY_EXISTS: Table "customers" already exists, skipping
CREATE TABLE
[ INFO] PATH:LINENUM DATE TIME: INFO_PARSING_DONE: Parsing done for SQL command []
Exit Status: 0
