
create table test1 (id int generated by default as identity, name text);
create table test2 (name text, id int generated always as identity);
create table test3 (name text, id int generated by default as identity check (id<3));
create table test4 (name text, id int generated always as identity constraint constr_name check (id<3));
update test4 set id = default; -- This query is used to verify that DEFAULT is seen in Octo log
insert into test3 overriding user value values('first',1); -- Do not expect to see OVERRIDING USER VALUE in insert logical plan
insert into test4(name) overriding system value values('first'); -- Do not expect to see OVERRIDING SYSTEM VALUE in insert logical plan
[ INFO] PATH:LINENUM DATE TIME: INFO_RECORDING_ENV_VARS: # Recording pertinent ydb_* env var values at process startup
[ INFO] PATH:LINENUM DATE TIME: INFO_PARSING_DONE: Parsing done for SQL command [create table test1 (id int generated by default as identity, name text);]
[ INFO] PATH:LINENUM DATE TIME: INFO_CURSOR: Generating SQL for CURSOR_NUM
[ INFO] PATH:LINENUM DATE TIME: INFO_TEXT_REPRESENTATION: CREATE TABLE `test1` (`id` INTEGER GENERATED BY DEFAULT AS IDENTITY PIECE 1, `name` VARCHAR PIECE 2) GLOBAL "^%ydboctoD9v6rOxeGFomfLyCC1YKW0B(keys(""%yo_keycol""))" DELIM "|" READWRITE;
CREATE TABLE
[ INFO] PATH:LINENUM DATE TIME: INFO_EXECUTION_DONE: SQL query/command execution complete
[ INFO] PATH:LINENUM DATE TIME: INFO_PARSING_DONE: Parsing done for SQL command [create table test2 (name text, id int generated always as identity);]
[ INFO] PATH:LINENUM DATE TIME: INFO_CURSOR: Generating SQL for CURSOR_NUM
[ INFO] PATH:LINENUM DATE TIME: INFO_TEXT_REPRESENTATION: CREATE TABLE `test2` (`name` VARCHAR PIECE 1, `id` INTEGER GENERATED ALWAYS AS IDENTITY PIECE 2) GLOBAL "^%ydboctoDcla72jOvnrtk7JpEVVD0LI(keys(""%yo_keycol""))" DELIM "|" READWRITE;
CREATE TABLE
[ INFO] PATH:LINENUM DATE TIME: INFO_EXECUTION_DONE: SQL query/command execution complete
[ INFO] PATH:LINENUM DATE TIME: INFO_PARSING_DONE: Parsing done for SQL command [create table test3 (name text, id int generated by default as identity check (id<3));]
[ INFO] PATH:LINENUM DATE TIME: INFO_CURSOR: Generating SQL for CURSOR_NUM
[ INFO] PATH:LINENUM DATE TIME: INFO_TEXT_REPRESENTATION: CREATE TABLE `test3` (`name` VARCHAR PIECE 1, `id` INTEGER GENERATED BY DEFAULT AS IDENTITY CONSTRAINT "test3_id_CHECK" CHECK ((id < 3)) PIECE 2) GLOBAL "^%ydboctoDy6Yp0P7yClDaOSoBksGUEL(keys(""%yo_keycol""))" DELIM "|" READWRITE;
CREATE TABLE
[ INFO] PATH:LINENUM DATE TIME: INFO_EXECUTION_DONE: SQL query/command execution complete
[ INFO] PATH:LINENUM DATE TIME: INFO_PARSING_DONE: Parsing done for SQL command [create table test4 (name text, id int generated always as identity constraint constr_name check (id<3));]
[ INFO] PATH:LINENUM DATE TIME: INFO_CURSOR: Generating SQL for CURSOR_NUM
[ INFO] PATH:LINENUM DATE TIME: INFO_TEXT_REPRESENTATION: CREATE TABLE `test4` (`name` VARCHAR PIECE 1, `id` INTEGER GENERATED ALWAYS AS IDENTITY CONSTRAINT "constr_name" CHECK ((id < 3)) PIECE 2) GLOBAL "^%ydboctoDoiLlL5Eg0iNiIIexr2DYEH(keys(""%yo_keycol""))" DELIM "|" READWRITE;
CREATE TABLE
[ INFO] PATH:LINENUM DATE TIME: INFO_EXECUTION_DONE: SQL query/command execution complete
[ INFO] PATH:LINENUM DATE TIME: INFO_PARSING_DONE: Parsing done for SQL command [update test4 set id = default;]
[ INFO] PATH:LINENUM DATE TIME: INFO_CURSOR: Generating SQL for CURSOR_NUM
[ INFO] PATH:LINENUM DATE TIME: INFO_M_PLAN: Generating M file [$PWD/_ydboctoP*.m] (to execute SQL query)
[DEBUG] PATH:LINENUM DATE TIME: INFO_CURPLAN: LOGICAL_PLAN BEFORE optimize_logical_plan() follows 
LP_UPDATE: 
  LP_PROJECT: 
    LP_SELECT: 
      LP_TABLE_JOIN: 
        LP_TABLE: test4(1)
      LP_CRITERIA: 
        LP_KEYS: 
        LP_SELECT_OPTIONS: 
          LP_WHERE: 
          LP_SELECT_MORE_OPTIONS: 
            LP_KEYWORDS: 
  LP_UPDATE_OPTIONS: 
    LP_COLUMN_LIST: 
      LP_UPD_COL_VALUE: 
        LP_COLUMN: id
        LP_KEYWORDS:  DEFAULT;
    LP_CONSTRAINT: 
      LP_CHECK_CONSTRAINT: constr_name
        LP_WHERE: 
          LP_BOOLEAN_LESS_THAN: 
            LP_UPDATE_COL: test4(1).id
            LP_VALUE: '3'

[DEBUG] PATH:LINENUM DATE TIME: INFO_CURPLAN: LOGICAL_PLAN AFTER optimize_logical_plan() follows 
LP_UPDATE: 
  LP_PROJECT: 
    LP_SELECT: 
      LP_TABLE_JOIN: 
        LP_TABLE: test4(1)
      LP_CRITERIA: 
        LP_KEYS: 
          LP_KEY: 
          - table_name: test4
          - column_name: %yo_keycol
          - unique_id: 1
          - method: LP_KEY_ADVANCE
          - xref_key: false
          - uses_xref_key: false
        LP_SELECT_OPTIONS: 
          LP_WHERE: 
          LP_SELECT_MORE_OPTIONS: 
            LP_KEYWORDS: 
  LP_UPDATE_OPTIONS: 
    LP_COLUMN_LIST: 
      LP_UPD_COL_VALUE: 
        LP_COLUMN: id
        LP_KEYWORDS:  DEFAULT;
    LP_CONSTRAINT: 
      LP_CHECK_CONSTRAINT: constr_name
        LP_WHERE: 
          LP_BOOLEAN_LESS_THAN: 
            LP_UPDATE_COL: test4(1).id
            LP_VALUE: '3'

[ INFO] PATH:LINENUM DATE TIME: INFO_ENTERING_FUNCTION: Entering print_temporary_table
UPDATE 0
[ INFO] PATH:LINENUM DATE TIME: INFO_EXECUTION_DONE: SQL query/command execution complete
[ INFO] PATH:LINENUM DATE TIME: INFO_PARSING_DONE: Parsing done for SQL command [-- This query is used to verify that DEFAULT is seen in Octo log
insert into test3 overriding user value values('first',1);]
[ INFO] PATH:LINENUM DATE TIME: INFO_CURSOR: Generating SQL for CURSOR_NUM
[ INFO] PATH:LINENUM DATE TIME: INFO_M_PLAN: Generating M file [$PWD/_ydboctoP*.m] (to execute SQL query)
[DEBUG] PATH:LINENUM DATE TIME: INFO_CURPLAN: LOGICAL_PLAN BEFORE optimize_logical_plan() follows 
LP_INSERT_INTO: 
  LP_TABLE: test3(2)
  LP_INSERT_INTO_OPTIONS: 
    LP_INSERT_INTO_MORE_OPTIONS: 
      LP_TABLE_VALUE: 
        LP_TABLE_DATA: 
          LP_COLUMN_LIST: 
            LP_WHERE: 
              LP_COLUMN_ALIAS: (1).column1
              LP_COLUMN_LIST_ALIAS: 
              - type: STRING_LITERAL
              - alias: column1
            LP_WHERE: 
              LP_COLUMN_ALIAS: (1).column2
              LP_COLUMN_LIST_ALIAS: 
              - type: INTEGER_LITERAL
              - alias: column2
          LP_ROW_VALUE: 
            LP_COLUMN_LIST: 
              LP_VALUE: 'first'
              LP_VALUE: '1'
        LP_OUTPUT: 
          LP_KEY: 
          - table_name: 
          - column_name: 
          - unique_id: 1
          - method: LP_KEY_ADVANCE
          - xref_key: false
          - uses_xref_key: false
      LP_CONSTRAINT: 
        LP_CHECK_CONSTRAINT: test3_id_CHECK
          LP_WHERE: 
            LP_BOOLEAN_LESS_THAN: 
              LP_INSERT_INTO_COL: test3(2).id
              LP_VALUE: '3'

[DEBUG] PATH:LINENUM DATE TIME: INFO_CURPLAN: LOGICAL_PLAN AFTER optimize_logical_plan() follows 
LP_INSERT_INTO: 
  LP_TABLE: test3(2)
  LP_INSERT_INTO_OPTIONS: 
    LP_INSERT_INTO_MORE_OPTIONS: 
      LP_TABLE_VALUE: 
        LP_TABLE_DATA: 
          LP_COLUMN_LIST: 
            LP_WHERE: 
              LP_COLUMN_ALIAS: (1).column1
              LP_COLUMN_LIST_ALIAS: 
              - type: STRING_LITERAL
              - alias: column1
            LP_WHERE: 
              LP_COLUMN_ALIAS: (1).column2
              LP_COLUMN_LIST_ALIAS: 
              - type: INTEGER_LITERAL
              - alias: column2
          LP_ROW_VALUE: 
            LP_COLUMN_LIST: 
              LP_VALUE: 'first'
              LP_VALUE: '1'
        LP_OUTPUT: 
          LP_KEY: 
          - table_name: 
          - column_name: 
          - unique_id: 1
          - method: LP_KEY_ADVANCE
          - xref_key: false
          - uses_xref_key: false
      LP_CONSTRAINT: 
        LP_CHECK_CONSTRAINT: test3_id_CHECK
          LP_WHERE: 
            LP_BOOLEAN_LESS_THAN: 
              LP_INSERT_INTO_COL: test3(2).id
              LP_VALUE: '3'

[ INFO] PATH:LINENUM DATE TIME: INFO_ENTERING_FUNCTION: Entering print_temporary_table
INSERT 0 1
[ INFO] PATH:LINENUM DATE TIME: INFO_EXECUTION_DONE: SQL query/command execution complete
[ INFO] PATH:LINENUM DATE TIME: INFO_PARSING_DONE: Parsing done for SQL command [-- Do not expect to see OVERRIDING USER VALUE in insert logical plan
insert into test4(name) overriding system value values('first');]
[ INFO] PATH:LINENUM DATE TIME: INFO_CURSOR: Generating SQL for CURSOR_NUM
[ INFO] PATH:LINENUM DATE TIME: INFO_M_PLAN: Generating M file [$PWD/_ydboctoP*.m] (to execute SQL query)
[DEBUG] PATH:LINENUM DATE TIME: INFO_CURPLAN: LOGICAL_PLAN BEFORE optimize_logical_plan() follows 
LP_INSERT_INTO: 
  LP_TABLE: test4(2)
  LP_INSERT_INTO_OPTIONS: 
    LP_COLUMN_LIST: 
      LP_COLUMN: name
    LP_INSERT_INTO_MORE_OPTIONS: 
      LP_TABLE_VALUE: 
        LP_TABLE_DATA: 
          LP_COLUMN_LIST: 
            LP_WHERE: 
              LP_COLUMN_ALIAS: (1).column1
              LP_COLUMN_LIST_ALIAS: 
              - type: STRING_LITERAL
              - alias: column1
          LP_ROW_VALUE: 
            LP_COLUMN_LIST: 
              LP_VALUE: 'first'
        LP_OUTPUT: 
          LP_KEY: 
          - table_name: 
          - column_name: 
          - unique_id: 1
          - method: LP_KEY_ADVANCE
          - xref_key: false
          - uses_xref_key: false
      LP_CONSTRAINT: 
        LP_CHECK_CONSTRAINT: constr_name
          LP_WHERE: 
            LP_BOOLEAN_LESS_THAN: 
              LP_INSERT_INTO_COL: test4(2).id
              LP_VALUE: '3'

[DEBUG] PATH:LINENUM DATE TIME: INFO_CURPLAN: LOGICAL_PLAN AFTER optimize_logical_plan() follows 
LP_INSERT_INTO: 
  LP_TABLE: test4(2)
  LP_INSERT_INTO_OPTIONS: 
    LP_COLUMN_LIST: 
      LP_COLUMN: name
    LP_INSERT_INTO_MORE_OPTIONS: 
      LP_TABLE_VALUE: 
        LP_TABLE_DATA: 
          LP_COLUMN_LIST: 
            LP_WHERE: 
              LP_COLUMN_ALIAS: (1).column1
              LP_COLUMN_LIST_ALIAS: 
              - type: STRING_LITERAL
              - alias: column1
          LP_ROW_VALUE: 
            LP_COLUMN_LIST: 
              LP_VALUE: 'first'
        LP_OUTPUT: 
          LP_KEY: 
          - table_name: 
          - column_name: 
          - unique_id: 1
          - method: LP_KEY_ADVANCE
          - xref_key: false
          - uses_xref_key: false
      LP_CONSTRAINT: 
        LP_CHECK_CONSTRAINT: constr_name
          LP_WHERE: 
            LP_BOOLEAN_LESS_THAN: 
              LP_INSERT_INTO_COL: test4(2).id
              LP_VALUE: '3'

[ INFO] PATH:LINENUM DATE TIME: INFO_ENTERING_FUNCTION: Entering print_temporary_table
INSERT 0 1
[ INFO] PATH:LINENUM DATE TIME: INFO_EXECUTION_DONE: SQL query/command execution complete
[ INFO] PATH:LINENUM DATE TIME: INFO_PARSING_DONE: Parsing done for SQL command [-- Do not expect to see OVERRIDING SYSTEM VALUE in insert logical plan]
