
-- TCF029 : OCTO288 : Correct handling of maximum extrinsic function name length

CREATE FUNCTION functoolong() RETURNS INTEGER AS $$^%ydboctoabcdefghijklmnopqrstuvw;
SELECT functoolong();
CREATE FUNCTION
functoolong
1
(1 row)
