
-- TCF004 : OCTO345 : M intrinsic functions supported by CREATE FUNCTION

CREATE FUNCTION DOLLARZWRITE(VARCHAR) RETURNS VARCHAR AS $ZWRITE;
select DOLLARZWRITE(firstname) from names;
-- Intrinsic functions using abbreviated syntax supported
CREATE FUNCTION DOLLARLENGTH(VARCHAR) RETURNS VARCHAR AS $L;
select DOLLARLENGTH(firstname) from names;
CREATE FUNCTION
dollarzwrite
"Zero"
"Acid"
"Cereal"
"Lord"
"Joey"
"Zero"
(6 rows)
CREATE FUNCTION
dollarlength
4
4
6
4
4
4
(6 rows)
