
-- TCF020 : OCTO345 : Nested functions work as expected

SELECT ABS(-ABS(-id)) from names;
SELECT ABS(ABS(-ABS(-id)-3)) from names;
SELECT * from names where id = ABS(ABS(-1)+2);
SELECT * from names where id = ABS(ABS(ABS(-1)+2)-1);
abs
0
1
2
3
4
5
(6 rows)
abs
3
4
5
6
7
8
(6 rows)
id|firstname|lastname
3|Lord|Nikon
(1 row)
id|firstname|lastname
2|Cereal|Killer
(1 row)
