# Verify key fixing optimization by looking at generated M code
octoPlan0(cursorId,wrapInTp)
    DO octoPlan1(cursorId)
octoPlan1(cursorId)
    . SET %ydboctoexpr=$GET(%ydboctocursor(cursorId,"parameters",1))
    SET %ydboctocursor(cursorId,"keys",2,"names","id")=%ydboctoexpr IF '$ZYISSQLNULL(%ydboctocursor(cursorId,"keys",2,"names","id")) IF $DATA(^names(%ydboctocursor(cursorId,"keys",2,"names","id"))) DO
    . SET %ydboctoexpr=%ydboctocursor(cursorId,"keys",2,"names","id")
    . SET %ydboctocursor(cursorId,"keys",1,"names","id")=%ydboctoexpr IF '$ZYISSQLNULL(%ydboctocursor(cursorId,"keys",1,"names","id")) IF $DATA(^names(%ydboctocursor(cursorId,"keys",1,"names","id"))) DO
    . . SET %ydboctoexpr=1
    . . . SET:1&$INCREMENT(%ydboctocursor(cursorId,"keys",4,"","")) %ydboctoz=42
    . . . SET %ydboctoexpr=%ydboctocursor(cursorId,"keys",1,"names","id")
    . . . SET %ydboctoexpr=$$str2mval^%ydboctoplanhelpers(%ydboctoexpr)
    . . . SET %ydboctoexpr(0)=%ydboctoexpr
    . . . SET %ydboctoexpr=$PIECE($GET(^names(%ydboctocursor(cursorId,"keys",1,"names","id"))),"|",1) SET:(""=%ydboctoexpr) %ydboctoexpr=$ZYSQLNULL
    . . . SET %ydboctoexpr=$$str2mval^%ydboctoplanhelpers(%ydboctoexpr)
    . . . SET %ydboctoexpr=%ydboctoexpr(0)_%ydboctoexpr
    . . . SET %ydboctoexpr(0)=%ydboctoexpr
    . . . SET %ydboctoexpr=$PIECE($GET(^names(%ydboctocursor(cursorId,"keys",1,"names","id"))),"|",2) SET:(""=%ydboctoexpr) %ydboctoexpr=$ZYSQLNULL
    . . . SET %ydboctoexpr=$$str2mval^%ydboctoplanhelpers(%ydboctoexpr)
    . . . SET %ydboctoexpr=%ydboctoexpr(0)_%ydboctoexpr
    . . . SET %ydboctoexpr(0)=%ydboctoexpr
    . . . SET %ydboctoexpr=%ydboctocursor(cursorId,"keys",2,"names","id")
    . . . SET %ydboctoexpr=$$str2mval^%ydboctoplanhelpers(%ydboctoexpr)
    . . . SET %ydboctoexpr=%ydboctoexpr(0)_%ydboctoexpr
    . . . SET %ydboctoexpr(0)=%ydboctoexpr
    . . . SET %ydboctoexpr=$PIECE($GET(^names(%ydboctocursor(cursorId,"keys",2,"names","id"))),"|",1) SET:(""=%ydboctoexpr) %ydboctoexpr=$ZYSQLNULL
    . . . SET %ydboctoexpr=$$str2mval^%ydboctoplanhelpers(%ydboctoexpr)
    . . . SET %ydboctoexpr=%ydboctoexpr(0)_%ydboctoexpr
    . . . SET %ydboctoexpr(0)=%ydboctoexpr
    . . . SET %ydboctoexpr=$PIECE($GET(^names(%ydboctocursor(cursorId,"keys",2,"names","id"))),"|",2) SET:(""=%ydboctoexpr) %ydboctoexpr=$ZYSQLNULL
    . . . SET %ydboctoexpr=$$str2mval^%ydboctoplanhelpers(%ydboctoexpr)
    . . . SET %ydboctoexpr=%ydboctoexpr(0)_%ydboctoexpr
    . . . SET %ydboctocursor(cursorId,"keys",4,"","",%ydboctocursor(cursorId,"keys",4,"",""))=%ydboctoexpr
