
create view v1 as select CONCAT(firstname, ABS(id-10)::varchar) from names;
drop function concat(varchar,varchar);
drop function abs(integer);
CREATE VIEW
[ERROR]: ERR_DROP_FUNCTION_DEPENDS_ON_VIEW: Cannot DROP function concat(VARCHAR, VARCHAR) because view "v1" depends on it
[ERROR]: ERR_DROP_FUNCTION_DEPENDS_ON_VIEW: Cannot DROP function abs(INTEGER) because view "v1" depends on it
