# Run SELECT query that generates xref plan and creates AIM triggers
id|firstname|lastname
0|Zero|Cool
5|Zero|Cool
(2 rows)
# Remove generated xref plans
# Run INSERT INTO and DELETE FROM queries that will need the triggers

-- TDFT07 : OCTO54 : Test DELETE FROM and INSERT INTO after xref plan files get deleted issues ZLINKFILE error

INSERT INTO names SELECT id+2 FROM names ORDER BY id DESC LIMIT 2;

-- Since all of the below queries are expected to issue ZLINKFILE error, take this opportunity to
-- run couple of DELETE FROM queries, the latter of which exposed an incorrectly coded assert in
-- qualify_column_name.c (which has since been fixed).
DELETE FROM names n1 WHERE n1.id IN (SELECT n2.id FROM names n2 ORDER BY n2.id DESC LIMIT 2);
DELETE FROM names WHERE id IN (SELECT id FROM names ORDER BY id DESC LIMIT 2);

INSERT 0 2
DELETE 2
DELETE 2
