-- The following query is just to check that the \d command works fine between regular queries
select n1.firstname from names n1 limit 2;

--Test \d command with semicolon works fine
\d;

--Test \d command with semicolon works fine
\d names;

-- The following query is just to check that the \d command works fine between regular queries
select n1.firstname from names n1 limit 2;

--Test that the \d tablename without semicolon works fine
\d names;

-- Test that the \d command without semicolon issues error which is evident when the keyword 'select'
-- from the following query ("select 1;") gets treated as the table name and gets a confused parse output.
\d

select 1;

-- Having the below query as the last query in this file used to fail with the below assert in an interim version of the
-- code and hence is added to this test.
--      octo: YDBOcto/src/run_query.c:235: run_query: Assertion `table_alias_STATEMENT == result->type' failed.
\d
firstname
Zero
Acid
(2 rows)
Schema|Name|Type|Owner
public|information_schema.tables|table|octo
public|names|table|octo
public|nameswithages|table|octo
public|octoonerowtable|table|octo
public|pg_aggregate|table|octo
public|pg_am|table|octo
public|pg_attrdef|table|octo
public|pg_attribute|table|octo
public|pg_catalog.pg_aggregate|table|octo
public|pg_catalog.pg_am|table|octo
public|pg_catalog.pg_attrdef|table|octo
public|pg_catalog.pg_attribute|table|octo
public|pg_catalog.pg_class|table|octo
public|pg_catalog.pg_constraint|table|octo
public|pg_catalog.pg_conversion|table|octo
public|pg_catalog.pg_database|table|octo
public|pg_catalog.pg_depend|table|octo
public|pg_catalog.pg_description|table|octo
public|pg_catalog.pg_enum|table|octo
public|pg_catalog.pg_index|table|octo
public|pg_catalog.pg_inherits|table|octo
public|pg_catalog.pg_language|table|octo
public|pg_catalog.pg_namespace|table|octo
public|pg_catalog.pg_policies|table|octo
public|pg_catalog.pg_proc|table|octo
public|pg_catalog.pg_range|table|octo
public|pg_catalog.pg_rewrite|table|octo
public|pg_catalog.pg_roles|table|octo
public|pg_catalog.pg_settings|table|octo
public|pg_catalog.pg_shdescription|table|octo
public|pg_catalog.pg_tablespace|table|octo
public|pg_catalog.pg_trigger|table|octo
public|pg_catalog.pg_type|table|octo
public|pg_catalog.pg_user|table|octo
public|pg_class|table|octo
public|pg_constraint|table|octo
public|pg_conversion|table|octo
public|pg_database|table|octo
public|pg_depend|table|octo
public|pg_description|table|octo
public|pg_enum|table|octo
public|pg_index|table|octo
public|pg_inherits|table|octo
public|pg_language|table|octo
public|pg_namespace|table|octo
public|pg_policies|table|octo
public|pg_proc|table|octo
public|pg_range|table|octo
public|pg_rewrite|table|octo
public|pg_roles|table|octo
public|pg_settings|table|octo
public|pg_shdescription|table|octo
public|pg_tablespace|table|octo
public|pg_trigger|table|octo
public|pg_type|table|octo
public|pg_user|table|octo
(56 rows)
Table "names" stored in Global: ^names(id) : Type = READWRITE
Column|Type|Collation|Nullable|Default
id|INTEGER||NOT NULL|
firstname|VARCHAR(30)|||
lastname|VARCHAR(30)|||
Indexes:
    "names_PKEY" PRIMARY KEY CONSTRAINT, Column(s) (id), Global: ^names(id)
firstname
Zero
Acid
(2 rows)
Table "names" stored in Global: ^names(id) : Type = READWRITE
Column|Type|Collation|Nullable|Default
id|INTEGER||NOT NULL|
firstname|VARCHAR(30)|||
lastname|VARCHAR(30)|||
Indexes:
    "names_PKEY" PRIMARY KEY CONSTRAINT, Column(s) (id), Global: ^names(id)
Schema|Name|Type|Owner
public|information_schema.tables|table|octo
public|names|table|octo
public|nameswithages|table|octo
public|octoonerowtable|table|octo
public|pg_aggregate|table|octo
public|pg_am|table|octo
public|pg_attrdef|table|octo
public|pg_attribute|table|octo
public|pg_catalog.pg_aggregate|table|octo
public|pg_catalog.pg_am|table|octo
public|pg_catalog.pg_attrdef|table|octo
public|pg_catalog.pg_attribute|table|octo
public|pg_catalog.pg_class|table|octo
public|pg_catalog.pg_constraint|table|octo
public|pg_catalog.pg_conversion|table|octo
public|pg_catalog.pg_database|table|octo
public|pg_catalog.pg_depend|table|octo
public|pg_catalog.pg_description|table|octo
public|pg_catalog.pg_enum|table|octo
public|pg_catalog.pg_index|table|octo
public|pg_catalog.pg_inherits|table|octo
public|pg_catalog.pg_language|table|octo
public|pg_catalog.pg_namespace|table|octo
public|pg_catalog.pg_policies|table|octo
public|pg_catalog.pg_proc|table|octo
public|pg_catalog.pg_range|table|octo
public|pg_catalog.pg_rewrite|table|octo
public|pg_catalog.pg_roles|table|octo
public|pg_catalog.pg_settings|table|octo
public|pg_catalog.pg_shdescription|table|octo
public|pg_catalog.pg_tablespace|table|octo
public|pg_catalog.pg_trigger|table|octo
public|pg_catalog.pg_type|table|octo
public|pg_catalog.pg_user|table|octo
public|pg_class|table|octo
public|pg_constraint|table|octo
public|pg_conversion|table|octo
public|pg_database|table|octo
public|pg_depend|table|octo
public|pg_description|table|octo
public|pg_enum|table|octo
public|pg_index|table|octo
public|pg_inherits|table|octo
public|pg_language|table|octo
public|pg_namespace|table|octo
public|pg_policies|table|octo
public|pg_proc|table|octo
public|pg_range|table|octo
public|pg_rewrite|table|octo
public|pg_roles|table|octo
public|pg_settings|table|octo
public|pg_shdescription|table|octo
public|pg_tablespace|table|octo
public|pg_trigger|table|octo
public|pg_type|table|octo
public|pg_user|table|octo
(56 rows)
LINE 16:1: 1;
            ^
syntax error, unexpected LITERAL
Schema|Name|Type|Owner
public|information_schema.tables|table|octo
public|names|table|octo
public|nameswithages|table|octo
public|octoonerowtable|table|octo
public|pg_aggregate|table|octo
public|pg_am|table|octo
public|pg_attrdef|table|octo
public|pg_attribute|table|octo
public|pg_catalog.pg_aggregate|table|octo
public|pg_catalog.pg_am|table|octo
public|pg_catalog.pg_attrdef|table|octo
public|pg_catalog.pg_attribute|table|octo
public|pg_catalog.pg_class|table|octo
public|pg_catalog.pg_constraint|table|octo
public|pg_catalog.pg_conversion|table|octo
public|pg_catalog.pg_database|table|octo
public|pg_catalog.pg_depend|table|octo
public|pg_catalog.pg_description|table|octo
public|pg_catalog.pg_enum|table|octo
public|pg_catalog.pg_index|table|octo
public|pg_catalog.pg_inherits|table|octo
public|pg_catalog.pg_language|table|octo
public|pg_catalog.pg_namespace|table|octo
public|pg_catalog.pg_policies|table|octo
public|pg_catalog.pg_proc|table|octo
public|pg_catalog.pg_range|table|octo
public|pg_catalog.pg_rewrite|table|octo
public|pg_catalog.pg_roles|table|octo
public|pg_catalog.pg_settings|table|octo
public|pg_catalog.pg_shdescription|table|octo
public|pg_catalog.pg_tablespace|table|octo
public|pg_catalog.pg_trigger|table|octo
public|pg_catalog.pg_type|table|octo
public|pg_catalog.pg_user|table|octo
public|pg_class|table|octo
public|pg_constraint|table|octo
public|pg_conversion|table|octo
public|pg_database|table|octo
public|pg_depend|table|octo
public|pg_description|table|octo
public|pg_enum|table|octo
public|pg_index|table|octo
public|pg_inherits|table|octo
public|pg_language|table|octo
public|pg_namespace|table|octo
public|pg_policies|table|octo
public|pg_proc|table|octo
public|pg_range|table|octo
public|pg_rewrite|table|octo
public|pg_roles|table|octo
public|pg_settings|table|octo
public|pg_shdescription|table|octo
public|pg_tablespace|table|octo
public|pg_trigger|table|octo
public|pg_type|table|octo
public|pg_user|table|octo
(56 rows)
