
-- TERR033 : OCTO597 : Error scenarios in SET/SHOW statements

-- SET statement for invalid run-time parameter issues error
SET nonexistent_parameter = 'invalid';

-- SHOW statement for invalid run-time parameter issues error
SHOW nonexistent_parameter;

[ERROR]: ERR_INVALID_RUNTIME_PARAMETER: Unrecognized runtime configuration parameter "nonexistent_parameter"
[ERROR]: ERR_INVALID_RUNTIME_PARAMETER: Unrecognized runtime configuration parameter "nonexistent_parameter"
