
-- TPBI001 : PowerBI : Startup queries

select
	n.nspname,
	c.relname,
	a.attname,
	a.atttypid,
	t.typname,
	a.attnum,
	a.attlen,
	a.atttypmod,
	a.attnotnull,
	c.relhasrules,
	c.relkind,
	c.oid,
	pg_get_expr(d.adbin, d.adrelid),
	case t.typtype when 'd' then t.typbasetype else 0 end,
	t.typtypmod,
	c.relhasoids,
	'',
	c.relhassubclass
from (((pg_catalog.pg_class c inner join pg_catalog.pg_namespace n on n.oid = c.relnamespace and c.relname like 'NAMES' and n.nspname like 'public')
		inner join pg_catalog.pg_attribute a on (not a.attisdropped) and a.attnum > 0 and a.attrelid = c.oid)
	inner join pg_catalog.pg_type t on t.oid = a.atttypid)
	left outer join pg_attrdef d on a.atthasdef and d.adrelid = a.attrelid and d.adnum = a.attnum
order by n.nspname, c.relname, attnum;

select
	relname,
	nspname,
	relkind
from
	pg_catalog.pg_class c,
	pg_catalog.pg_namespace n
where
	relkind in ('r', 'v', 'm', 'f', 'p') and
	nspname not in ('pg_catalog', 'information_schema', 'pg_toast', 'pg_temp_1') and
	n.oid = relnamespace
order by nspname, relname;

select
	ta.attname,
	ia.attnum,
	ic.relname,
	n.nspname,
	tc.relname
from
	pg_catalog.pg_attribute ta,
	pg_catalog.pg_attribute ia,
	pg_catalog.pg_class tc,
	pg_catalog.pg_index i,
	pg_catalog.pg_namespace n,
	pg_catalog.pg_class ic
where
	tc.relname = 'NAMES' AND
	n.nspname = 'public' AND
	tc.oid = i.indrelid AND
	n.oid = tc.relnamespace AND
	i.indisprimary = 't' AND
	ia.attrelid = i.indexrelid AND
	ta.attrelid = i.indrelid AND
	ta.attnum = i.indkey[ia.attnum-1] AND
	(NOT ta.attisdropped) AND
	(NOT ia.attisdropped) AND
	ic.oid = i.indexrelid
order by ia.attnum;

select	'octo'::name as "PKTABLE_CAT",
	n2.nspname as "PKTABLE_SCHEM",
	c2.relname as "PKTABLE_NAME",
	a2.attname as "PKCOLUMN_NAME",
	'octo'::name as "FKTABLE_CAT",
	n1.nspname as "FKTABLE_SCHEM",
	c1.relname as "FKTABLE_NAME",
	a1.attname as "FKCOLUMN_NAME",
	i::int2 as "KEY_SEQ",
	case ref.confupdtype
		when 'c' then 0::int2
		when 'n' then 2::int2
		when 'd' then 4::int2
		when 'r' then 1::int2
		else 3::int2
	end as "UPDATE_RULE",
	case ref.confdeltype
		when 'c' then 0::int2
		when 'n' then 2::int2
		when 'd' then 4::int2
		when 'r' then 1::int2
		else 3::int2
	end as "DELETE_RULE",
	ref.conname as "FK_NAME",
	cn.conname as "PK_NAME",
	case
		when ref.condeferrable then
			case
			when ref.condeferred then 5::int2
			else 6::int2
			end
		else 7::int2
	end as "DEFERRABILITY"
 from
 ((((((( (select cn.oid, conrelid, conkey, confrelid, confkey,
	 generate_series(array_lower(conkey, 1), array_upper(conkey, 1)) as i,
	 confupdtype, confdeltype, conname,
	 condeferrable, condeferred
  from pg_catalog.pg_constraint cn,
	pg_catalog.pg_class c,
	pg_catalog.pg_namespace n
  where contype = 'f'
   and  conrelid = c.oid
   and  relname = 'NAMES'
   and  n.oid = c.relnamespace
   and  n.nspname = 'public'
 ) ref
 inner join pg_catalog.pg_class c1
  on c1.oid = ref.conrelid)
 inner join pg_catalog.pg_namespace n1
  on  n1.oid = c1.relnamespace)
 inner join pg_catalog.pg_attribute a1
  on  a1.attrelid = c1.oid
  and  a1.attnum = conkey[i])
 inner join pg_catalog.pg_class c2
  on  c2.oid = ref.confrelid)
 inner join pg_catalog.pg_namespace n2
  on  n2.oid = c2.relnamespace)
 inner join pg_catalog.pg_attribute a2
  on  a2.attrelid = c2.oid
  and  a2.attnum = confkey[i])
 left outer join pg_catalog.pg_constraint cn
  on cn.conrelid = ref.confrelid
  and cn.contype = 'p')
  order by ref.oid, ref.i;

select "EMPLOYEEID",
    "LASTNAME",
    "FIRSTNAME",
    "BIRTHDATE",
    "PHOTO",
    "NOTES"
from "octo"."public"."EMPLOYEES";
nspname|relname|attname|atttypid|typname|attnum|attlen|atttypmod|attnotnull|relhasrules|relkind|oid|pg_get_expr|CASE|typtypmod|relhasoids|???|relhassubclass
(0 rows)
relname|nspname|relkind
categories|public|r
employees|public|r
information_schema.tables|public|r
names|public|r
nameswithages|public|r
nwcustomers|public|r
nworders|public|r
octoonerowtable|public|r
orderdetails|public|r
pg_aggregate|public|r
pg_am|public|r
pg_attrdef|public|r
pg_attribute|public|r
pg_catalog.pg_aggregate|public|r
pg_catalog.pg_am|public|r
pg_catalog.pg_attrdef|public|r
pg_catalog.pg_attribute|public|r
pg_catalog.pg_class|public|r
pg_catalog.pg_constraint|public|r
pg_catalog.pg_conversion|public|r
pg_catalog.pg_database|public|r
pg_catalog.pg_depend|public|r
pg_catalog.pg_description|public|r
pg_catalog.pg_enum|public|r
pg_catalog.pg_index|public|r
pg_catalog.pg_inherits|public|r
pg_catalog.pg_language|public|r
pg_catalog.pg_namespace|public|r
pg_catalog.pg_policies|public|r
pg_catalog.pg_proc|public|r
pg_catalog.pg_range|public|r
pg_catalog.pg_rewrite|public|r
pg_catalog.pg_roles|public|r
pg_catalog.pg_settings|public|r
pg_catalog.pg_shdescription|public|r
pg_catalog.pg_tablespace|public|r
pg_catalog.pg_trigger|public|r
pg_catalog.pg_type|public|r
pg_catalog.pg_user|public|r
pg_class|public|r
pg_constraint|public|r
pg_conversion|public|r
pg_database|public|r
pg_depend|public|r
pg_description|public|r
pg_enum|public|r
pg_index|public|r
pg_inherits|public|r
pg_language|public|r
pg_namespace|public|r
pg_policies|public|r
pg_proc|public|r
pg_range|public|r
pg_rewrite|public|r
pg_roles|public|r
pg_settings|public|r
pg_shdescription|public|r
pg_tablespace|public|r
pg_trigger|public|r
pg_type|public|r
pg_user|public|r
products|public|r
shippers|public|r
suppliers|public|r
(64 rows)
[ WARN]: ERR_FEATURE_NOT_IMPLEMENTED: Feature not implemented: arrays
attname|attnum|relname|nspname|relname
(0 rows)
[ WARN]: ERR_FEATURE_NOT_IMPLEMENTED: Feature not implemented: arrays
[ WARN]: ERR_FEATURE_NOT_IMPLEMENTED: Feature not implemented: arrays
PKTABLE_CAT|PKTABLE_SCHEM|PKTABLE_NAME|PKCOLUMN_NAME|FKTABLE_CAT|FKTABLE_SCHEM|FKTABLE_NAME|FKCOLUMN_NAME|KEY_SEQ|UPDATE_RULE|DELETE_RULE|FK_NAME|PK_NAME|DEFERRABILITY
(0 rows)
[ERROR]: ERR_UNKNOWN_TABLE: Unknown table: octo.public.EMPLOYEES
LINE 140:7: from "octo"."public"."EMPLOYEES";
                 ^^^^^^^^^^^^^^^^^^^^^^^^^^^
