# Run TPP01.sql that generates M xref plan and stores corresponding xref plan related gvn in database
id|firstname|lastname
3|Lord|Nikon
(1 row)
# KILL ^%ydbAIMOctoCache but keep _ydboctoX*.{m,o} intact to create out-of-sync situation
# Run TPP01.sql again. Should return correct results and automatically reconstitute ^%ydbAIMOctoCache
id|firstname|lastname
3|Lord|Nikon
(1 row)
# Verify ^%ydbAIMOctoCache was correctly rebuilt : Running [ZWRITE ^%ydbAIMOctoCache]. Output below
^%ydbAIMOctoCache("names","lastname","completed?")=1
^%ydbAIMOctoCache("names","lastname","location")="^%ydbAIMDXtoXI8zgdGIqUuCoYeqwF6(2)"
