
select n.nspname, c.relname, a.attname, a.atttypid, t.typname, a.attnum, a.attlen, a.atttypmod, a.attnotnull, c.relhasrules, c.relkind, c.oid, pg_get_expr(d.adbin, d.adrelid), case t.typtype when 'd' then t.typbasetype else 0 end, t.typtypmod, c.relhasoids, '', c.relhassubclass from (((pg_catalog.pg_class c inner join pg_catalog.pg_namespace n on n.oid = c.relnamespace and c.relname like 'PATIENT' and n.nspname like 'public') inner join pg_catalog.pg_attribute a on (not a.attisdropped) and a.attnum > 0 and a.attrelid = c.oid) inner join pg_catalog.pg_type t on t.oid = a.atttypid) left outer join pg_attrdef d on a.atthasdef and d.adrelid = a.attrelid and d.adnum = a.attnum order by n.nspname, c.relname, attnum
[ INFO] PATH:LINENUM DATE TIME: INFO_RECORDING_ENV_VARS: # Recording pertinent ydb_* env var values at process startup
[ INFO] PATH:LINENUM DATE TIME: INFO_PARSING_DONE: Parsing done for SQL command [select n.nspname, c.relname, a.attname, a.atttypid, t.typname, a.attnum, a.attlen, a.atttypmod, a.attnotnull, c.relhasrules, c.relkind, c.oid, pg_get_expr(d.adbin, d.adrelid), case t.typtype when 'd' then t.typbasetype else 0 end, t.typtypmod, c.relhasoids, '', c.relhassubclass from (((pg_catalog.pg_class c inner join pg_catalog.pg_namespace n on n.oid = c.relnamespace and c.relname like 'PATIENT' and n.nspname like 'public') inner join pg_catalog.pg_attribute a on (not a.attisdropped) and a.attnum > 0 and a.attrelid = c.oid) inner join pg_catalog.pg_type t on t.oid = a.atttypid) left outer join pg_attrdef d on a.atthasdef and d.adrelid = a.attrelid and d.adnum = a.attnum order by n.nspname, c.relname, attnum]
[ INFO] PATH:LINENUM DATE TIME: INFO_CURSOR: Generating SQL for CURSOR_NUM
[ INFO] PATH:LINENUM DATE TIME: INFO_M_PLAN: Generating M file [$PWD/_ydboctoP*.m] (to execute SQL query)
[DEBUG] PATH:LINENUM DATE TIME: INFO_CURPLAN: LOGICAL_PLAN BEFORE optimize_logical_plan() follows 
LP_SELECT_QUERY: 
  LP_PROJECT: 
    LP_COLUMN_LIST: 
      LP_WHERE: 
        LP_COLUMN_ALIAS: n(2).nspname
        LP_COLUMN_LIST_ALIAS: 
        - type: STRING_LITERAL
        - alias: nspname
      LP_WHERE: 
        LP_COLUMN_ALIAS: c(1).relname
        LP_COLUMN_LIST_ALIAS: 
        - type: STRING_LITERAL
        - alias: relname
      LP_WHERE: 
        LP_COLUMN_ALIAS: a(3).attname
        LP_COLUMN_LIST_ALIAS: 
        - type: STRING_LITERAL
        - alias: attname
      LP_WHERE: 
        LP_COLUMN_ALIAS: a(3).atttypid
        LP_COLUMN_LIST_ALIAS: 
        - type: INTEGER_LITERAL
        - alias: atttypid
      LP_WHERE: 
        LP_COLUMN_ALIAS: t(4).typname
        LP_COLUMN_LIST_ALIAS: 
        - type: STRING_LITERAL
        - alias: typname
      LP_WHERE: 
        LP_COLUMN_ALIAS: a(3).attnum
        LP_COLUMN_LIST_ALIAS: 
        - type: INTEGER_LITERAL
        - alias: attnum
      LP_WHERE: 
        LP_COLUMN_ALIAS: a(3).attlen
        LP_COLUMN_LIST_ALIAS: 
        - type: INTEGER_LITERAL
        - alias: attlen
      LP_WHERE: 
        LP_COLUMN_ALIAS: a(3).atttypmod
        LP_COLUMN_LIST_ALIAS: 
        - type: INTEGER_LITERAL
        - alias: atttypmod
      LP_WHERE: 
        LP_COLUMN_ALIAS: a(3).attnotnull
        LP_COLUMN_LIST_ALIAS: 
        - type: BOOLEAN_VALUE
        - alias: attnotnull
      LP_WHERE: 
        LP_COLUMN_ALIAS: c(1).relhasrules
        LP_COLUMN_LIST_ALIAS: 
        - type: BOOLEAN_VALUE
        - alias: relhasrules
      LP_WHERE: 
        LP_COLUMN_ALIAS: c(1).relkind
        LP_COLUMN_LIST_ALIAS: 
        - type: STRING_LITERAL
        - alias: relkind
      LP_WHERE: 
        LP_COLUMN_ALIAS: c(1).oid
        LP_COLUMN_LIST_ALIAS: 
        - type: INTEGER_LITERAL
        - alias: oid
      LP_WHERE: 
        LP_FUNCTION_CALL: 
          LP_VALUE: 'pg_get_expr'
          LP_COLUMN_LIST: 
            LP_VALUE: '%ydboctoFg9NtfgQK65FJVKgk5GrPK4'
            LP_VALUE: '$$pgGetExpr^%ydboctopgfunctions'
            LP_VALUE: 'VARCHAR'
            LP_COLUMN_ALIAS: d(5).adbin
            LP_COLUMN_ALIAS: d(5).adrelid
        LP_COLUMN_LIST_ALIAS: 
        - type: STRING_LITERAL
        - alias: pg_get_expr
      LP_WHERE: 
        LP_CASE: 
          LP_CASE_STATEMENT: 
            LP_COLUMN_ALIAS: t(4).typtype
            LP_VALUE: '0'
          LP_CASE_BRANCH: 
            LP_CASE_BRANCH_STATEMENT: 
              LP_VALUE: 'd'
              LP_COLUMN_ALIAS: t(4).typbasetype
        LP_COLUMN_LIST_ALIAS: 
        - type: INTEGER_LITERAL
        - alias: CASE
      LP_WHERE: 
        LP_COLUMN_ALIAS: t(4).typtypmod
        LP_COLUMN_LIST_ALIAS: 
        - type: INTEGER_LITERAL
        - alias: typtypmod
      LP_WHERE: 
        LP_COLUMN_ALIAS: c(1).relhasoids
        LP_COLUMN_LIST_ALIAS: 
        - type: BOOLEAN_VALUE
        - alias: relhasoids
      LP_WHERE: 
        LP_VALUE: ''
        LP_COLUMN_LIST_ALIAS: 
        - type: NULL
        - alias: ???
      LP_WHERE: 
        LP_COLUMN_ALIAS: c(1).relhassubclass
        LP_COLUMN_LIST_ALIAS: 
        - type: BOOLEAN_VALUE
        - alias: relhassubclass
    LP_SELECT: 
      LP_TABLE_JOIN: 
        LP_TABLE: c(1)
        LP_TABLE_JOIN: INNER_JOIN: 
          LP_WHERE: 
            LP_BOOLEAN_AND: 
              LP_BOOLEAN_AND: 
                LP_BOOLEAN_EQUALS: 
                  LP_COLUMN_ALIAS: n(2).oid
                  LP_COLUMN_ALIAS: c(1).relnamespace
                LP_BOOLEAN_EQUALS: 
                  LP_COLUMN_ALIAS: c(1).relname
                  LP_VALUE: 'PATIENT'
              LP_BOOLEAN_EQUALS: 
                LP_COLUMN_ALIAS: n(2).nspname
                LP_VALUE: 'public'
          LP_TABLE: n(2)
          LP_TABLE_JOIN: INNER_JOIN: 
            LP_WHERE: 
              LP_BOOLEAN_AND: 
                LP_BOOLEAN_AND: 
                  LP_BOOLEAN_NOT: 
                    LP_COLUMN_ALIAS: a(3).attisdropped
                  LP_BOOLEAN_GREATER_THAN: 
                    LP_COLUMN_ALIAS: a(3).attnum
                    LP_VALUE: '0'
                LP_BOOLEAN_EQUALS: 
                  LP_COLUMN_ALIAS: a(3).attrelid
                  LP_COLUMN_ALIAS: c(1).oid
            LP_TABLE: a(3)
            LP_TABLE_JOIN: INNER_JOIN: 
              LP_WHERE: 
                LP_BOOLEAN_EQUALS: 
                  LP_COLUMN_ALIAS: t(4).oid
                  LP_COLUMN_ALIAS: a(3).atttypid
              LP_TABLE: t(4)
              LP_TABLE_JOIN: LEFT_JOIN: 
                LP_WHERE: 
                  LP_BOOLEAN_AND: 
                    LP_BOOLEAN_AND: 
                      LP_COLUMN_ALIAS: a(3).atthasdef
                      LP_BOOLEAN_EQUALS: 
                        LP_COLUMN_ALIAS: d(5).adrelid
                        LP_COLUMN_ALIAS: a(3).attrelid
                    LP_BOOLEAN_EQUALS: 
                      LP_COLUMN_ALIAS: d(5).adnum
                      LP_COLUMN_ALIAS: a(3).attnum
                LP_TABLE: d(5)
      LP_CRITERIA: 
        LP_KEYS: 
        LP_SELECT_OPTIONS: 
          LP_WHERE: 
          LP_SELECT_MORE_OPTIONS: 
            LP_KEYWORDS: 
  LP_OUTPUT: 
    LP_KEY: 
    - table_name: 
    - column_name: 
    - unique_id: 7
    - method: LP_KEY_ADVANCE
    - xref_key: false
    - uses_xref_key: false
    LP_ORDER_BY: ORDER BY ASC: 
      LP_COLUMN_LIST: 
        LP_WHERE: 
          LP_COLUMN_ALIAS: n(2).nspname
          LP_COLUMN_LIST_ALIAS: 
          - type: STRING_LITERAL
      LP_ORDER_BY: ORDER BY ASC: 
        LP_COLUMN_LIST: 
          LP_WHERE: 
            LP_COLUMN_ALIAS: c(1).relname
            LP_COLUMN_LIST_ALIAS: 
            - type: STRING_LITERAL
        LP_ORDER_BY: ORDER BY ASC: 
          LP_COLUMN_LIST: 
            LP_WHERE: 
              LP_COLUMN_ALIAS: a(3).attnum
              LP_COLUMN_LIST_ALIAS: 
              - type: INTEGER_LITERAL
              - alias: attnum

[DEBUG] PATH:LINENUM DATE TIME: INFO_CURPLAN: LOGICAL_PLAN AFTER optimize_logical_plan() follows 
LP_SELECT_QUERY: 
  LP_PROJECT: 
    LP_COLUMN_LIST: 
      LP_WHERE: 
        LP_COLUMN_ALIAS: n(2).nspname
        LP_COLUMN_LIST_ALIAS: 
        - type: STRING_LITERAL
        - alias: nspname
      LP_WHERE: 
        LP_COLUMN_ALIAS: c(1).relname
        LP_COLUMN_LIST_ALIAS: 
        - type: STRING_LITERAL
        - alias: relname
      LP_WHERE: 
        LP_COLUMN_ALIAS: a(3).attname
        LP_COLUMN_LIST_ALIAS: 
        - type: STRING_LITERAL
        - alias: attname
      LP_WHERE: 
        LP_COLUMN_ALIAS: a(3).atttypid
        LP_COLUMN_LIST_ALIAS: 
        - type: INTEGER_LITERAL
        - alias: atttypid
      LP_WHERE: 
        LP_COLUMN_ALIAS: t(4).typname
        LP_COLUMN_LIST_ALIAS: 
        - type: STRING_LITERAL
        - alias: typname
      LP_WHERE: 
        LP_COLUMN_ALIAS: a(3).attnum
        LP_COLUMN_LIST_ALIAS: 
        - type: INTEGER_LITERAL
        - alias: attnum
      LP_WHERE: 
        LP_COLUMN_ALIAS: a(3).attlen
        LP_COLUMN_LIST_ALIAS: 
        - type: INTEGER_LITERAL
        - alias: attlen
      LP_WHERE: 
        LP_COLUMN_ALIAS: a(3).atttypmod
        LP_COLUMN_LIST_ALIAS: 
        - type: INTEGER_LITERAL
        - alias: atttypmod
      LP_WHERE: 
        LP_COLUMN_ALIAS: a(3).attnotnull
        LP_COLUMN_LIST_ALIAS: 
        - type: BOOLEAN_VALUE
        - alias: attnotnull
      LP_WHERE: 
        LP_COLUMN_ALIAS: c(1).relhasrules
        LP_COLUMN_LIST_ALIAS: 
        - type: BOOLEAN_VALUE
        - alias: relhasrules
      LP_WHERE: 
        LP_COLUMN_ALIAS: c(1).relkind
        LP_COLUMN_LIST_ALIAS: 
        - type: STRING_LITERAL
        - alias: relkind
      LP_WHERE: 
        LP_COLUMN_ALIAS: c(1).oid
        LP_COLUMN_LIST_ALIAS: 
        - type: INTEGER_LITERAL
        - alias: oid
      LP_WHERE: 
        LP_FUNCTION_CALL: 
          LP_VALUE: 'pg_get_expr'
          LP_COLUMN_LIST: 
            LP_VALUE: '%ydboctoFg9NtfgQK65FJVKgk5GrPK4'
            LP_VALUE: '$$pgGetExpr^%ydboctopgfunctions'
            LP_VALUE: 'VARCHAR'
            LP_COLUMN_ALIAS: d(5).adbin
            LP_COLUMN_ALIAS: d(5).adrelid
        LP_COLUMN_LIST_ALIAS: 
        - type: STRING_LITERAL
        - alias: pg_get_expr
      LP_WHERE: 
        LP_CASE: 
          LP_CASE_STATEMENT: 
            LP_COLUMN_ALIAS: t(4).typtype
            LP_VALUE: '0'
          LP_CASE_BRANCH: 
            LP_CASE_BRANCH_STATEMENT: 
              LP_VALUE: 'd'
              LP_COLUMN_ALIAS: t(4).typbasetype
        LP_COLUMN_LIST_ALIAS: 
        - type: INTEGER_LITERAL
        - alias: CASE
      LP_WHERE: 
        LP_COLUMN_ALIAS: t(4).typtypmod
        LP_COLUMN_LIST_ALIAS: 
        - type: INTEGER_LITERAL
        - alias: typtypmod
      LP_WHERE: 
        LP_COLUMN_ALIAS: c(1).relhasoids
        LP_COLUMN_LIST_ALIAS: 
        - type: BOOLEAN_VALUE
        - alias: relhasoids
      LP_WHERE: 
        LP_VALUE: ''
        LP_COLUMN_LIST_ALIAS: 
        - type: NULL
        - alias: ???
      LP_WHERE: 
        LP_COLUMN_ALIAS: c(1).relhassubclass
        LP_COLUMN_LIST_ALIAS: 
        - type: BOOLEAN_VALUE
        - alias: relhassubclass
    LP_SELECT: 
      LP_TABLE_JOIN: 
        LP_TABLE: c(1)
        LP_TABLE_JOIN: INNER_JOIN: 
          LP_WHERE: 
            LP_BOOLEAN_AND: 
              LP_BOOLEAN_EQUALS: 
                LP_COLUMN_ALIAS: c(1).relname
                LP_VALUE: 'PATIENT'
              LP_BOOLEAN_EQUALS: 
                LP_COLUMN_ALIAS: n(2).nspname
                LP_VALUE: 'public'
          LP_TABLE: n(2)
          LP_TABLE_JOIN: INNER_JOIN: 
            LP_WHERE: 
              LP_BOOLEAN_AND: 
                LP_BOOLEAN_NOT: 
                  LP_COLUMN_ALIAS: a(3).attisdropped
                LP_BOOLEAN_GREATER_THAN: 
                  LP_COLUMN_ALIAS: a(3).attnum
                  LP_VALUE: '0'
            LP_SELECT_QUERY: 
              LP_PROJECT: 
                LP_COLUMN_LIST: 
                  LP_WHERE: 
                    LP_COLUMN_ALIAS: pg_catalog.pg_attribute(8).attrelid
                  LP_WHERE: 
                    LP_COLUMN_ALIAS: pg_catalog.pg_attribute(8).oid
                LP_SELECT: 
                  LP_TABLE_JOIN: 
                    LP_TABLE: pg_catalog.pg_attribute(8)
                  LP_CRITERIA: 
                    LP_KEYS: 
                      LP_KEY: 
                      - table_name: pg_catalog.pg_attribute
                      - column_name: oid
                      - unique_id: 8
                      - method: LP_KEY_ADVANCE
                      - xref_key: false
                      - uses_xref_key: false
                    LP_SELECT_OPTIONS: 
                      LP_WHERE: 
                      LP_SELECT_MORE_OPTIONS: 
                        LP_KEYWORDS:  XREF_INDEX;
              LP_OUTPUT: 
                LP_KEY: 
                - table_name: pg_catalog.pg_attribute
                - column_name: attrelid
                - unique_id: 3
                - method: LP_INVALID_ACTION
                - xref_key: true
                - uses_xref_key: false
            LP_TABLE_JOIN: INNER_JOIN: 
              LP_WHERE: 
              LP_SELECT_QUERY: 
                LP_PROJECT: 
                  LP_COLUMN_LIST: 
                    LP_WHERE: 
                      LP_COLUMN_ALIAS: pg_catalog.pg_type(9).oid
                    LP_WHERE: 
                      LP_COLUMN_ALIAS: pg_catalog.pg_type(9).typname
                  LP_SELECT: 
                    LP_TABLE_JOIN: 
                      LP_TABLE: pg_catalog.pg_type(9)
                    LP_CRITERIA: 
                      LP_KEYS: 
                        LP_KEY: 
                        - table_name: pg_catalog.pg_type
                        - column_name: typname
                        - unique_id: 9
                        - method: LP_KEY_ADVANCE
                        - xref_key: false
                        - uses_xref_key: false
                      LP_SELECT_OPTIONS: 
                        LP_WHERE: 
                        LP_SELECT_MORE_OPTIONS: 
                          LP_KEYWORDS:  XREF_INDEX;
                LP_OUTPUT: 
                  LP_KEY: 
                  - table_name: pg_catalog.pg_type
                  - column_name: oid
                  - unique_id: 4
                  - method: LP_INVALID_ACTION
                  - xref_key: true
                  - uses_xref_key: false
              LP_TABLE_JOIN: LEFT_JOIN: 
                LP_WHERE: 
                  LP_BOOLEAN_AND: 
                    LP_COLUMN_ALIAS: a(3).atthasdef
                    LP_BOOLEAN_EQUALS: 
                      LP_COLUMN_ALIAS: d(5).adnum
                      LP_COLUMN_ALIAS: a(3).attnum
                LP_SELECT_QUERY: 
                  LP_PROJECT: 
                    LP_COLUMN_LIST: 
                      LP_WHERE: 
                        LP_COLUMN_ALIAS: pg_attrdef(10).adrelid
                      LP_WHERE: 
                        LP_COLUMN_ALIAS: pg_attrdef(10).oid
                    LP_SELECT: 
                      LP_TABLE_JOIN: 
                        LP_TABLE: pg_attrdef(10)
                      LP_CRITERIA: 
                        LP_KEYS: 
                          LP_KEY: 
                          - table_name: pg_attrdef
                          - column_name: oid
                          - unique_id: 10
                          - method: LP_KEY_ADVANCE
                          - xref_key: false
                          - uses_xref_key: false
                        LP_SELECT_OPTIONS: 
                          LP_WHERE: 
                          LP_SELECT_MORE_OPTIONS: 
                            LP_KEYWORDS:  XREF_INDEX;
                  LP_OUTPUT: 
                    LP_KEY: 
                    - table_name: pg_attrdef
                    - column_name: adrelid
                    - unique_id: 5
                    - method: LP_INVALID_ACTION
                    - xref_key: true
                    - uses_xref_key: false
      LP_CRITERIA: 
        LP_KEYS: 
          LP_KEY: 
          - table_name: pg_catalog.pg_class
          - column_name: oid
          - unique_id: 1
          - method: LP_KEY_ADVANCE
          - xref_key: false
          - uses_xref_key: false
          LP_KEYS: 
            LP_KEY: 
            - table_name: pg_catalog.pg_namespace
            - column_name: oid
            - unique_id: 2
            - method: LP_KEY_FIX
            - xref_key: false
            - uses_xref_key: false
            - value:
                LP_COLUMN_ALIAS: c(1).relnamespace
            LP_KEYS: 
              LP_KEY: 
              - table_name: pg_catalog.pg_attribute
              - column_name: attrelid
              - unique_id: 3
              - method: LP_KEY_FIX
              - xref_key: true
              - uses_xref_key: false
              - value:
                  LP_COLUMN_ALIAS: c(1).oid
              LP_KEYS: 
                LP_KEY: 
                - table_name: pg_catalog.pg_attribute
                - column_name: oid
                - unique_id: 3
                - method: LP_KEY_ADVANCE
                - xref_key: false
                - uses_xref_key: true
                LP_KEYS: 
                  LP_KEY: 
                  - table_name: pg_catalog.pg_type
                  - column_name: oid
                  - unique_id: 4
                  - method: LP_KEY_FIX
                  - xref_key: true
                  - uses_xref_key: false
                  - value:
                      LP_COLUMN_ALIAS: a(3).atttypid
                  LP_KEYS: 
                    LP_KEY: 
                    - table_name: pg_catalog.pg_type
                    - column_name: typname
                    - unique_id: 4
                    - method: LP_KEY_ADVANCE
                    - xref_key: false
                    - uses_xref_key: true
                    LP_KEYS: 
                      LP_KEY: 
                      - table_name: pg_attrdef
                      - column_name: adrelid
                      - unique_id: 5
                      - method: LP_KEY_FIX
                      - xref_key: true
                      - uses_xref_key: false
                      - value:
                          LP_COLUMN_ALIAS: a(3).attrelid
                      LP_KEYS: 
                        LP_KEY: 
                        - table_name: pg_attrdef
                        - column_name: oid
                        - unique_id: 5
                        - method: LP_KEY_ADVANCE
                        - xref_key: false
                        - uses_xref_key: true
        LP_SELECT_OPTIONS: 
          LP_WHERE: 
          LP_SELECT_MORE_OPTIONS: 
            LP_KEYWORDS: 
  LP_OUTPUT: 
    LP_KEY: 
    - table_name: 
    - column_name: 
    - unique_id: 7
    - method: LP_KEY_ADVANCE
    - xref_key: false
    - uses_xref_key: false
    LP_ORDER_BY: ORDER BY ASC: 
      LP_COLUMN_LIST: 
        LP_WHERE: 
          LP_COLUMN_ALIAS: n(2).nspname
          LP_COLUMN_LIST_ALIAS: 
          - type: STRING_LITERAL
      LP_ORDER_BY: ORDER BY ASC: 
        LP_COLUMN_LIST: 
          LP_WHERE: 
            LP_COLUMN_ALIAS: c(1).relname
            LP_COLUMN_LIST_ALIAS: 
            - type: STRING_LITERAL
        LP_ORDER_BY: ORDER BY ASC: 
          LP_COLUMN_LIST: 
            LP_WHERE: 
              LP_COLUMN_ALIAS: a(3).attnum
              LP_COLUMN_LIST_ALIAS: 
              - type: INTEGER_LITERAL
              - alias: attnum

[ INFO] PATH:LINENUM DATE TIME: INFO_GENERATING_XREF: Generating helper cross reference M file [$PWD/_ydboctoX*.m] for table [pg_attrdef] and column [adrelid]
[ INFO] PATH:LINENUM DATE TIME: INFO_GENERATING_XREF: Generating helper cross reference M file [$PWD/_ydboctoX*.m] for table [pg_catalog.pg_type] and column [oid]
[ INFO] PATH:LINENUM DATE TIME: INFO_GENERATING_XREF: Generating helper cross reference M file [$PWD/_ydboctoX*.m] for table [pg_catalog.pg_attribute] and column [attrelid]
[ INFO] PATH:LINENUM DATE TIME: INFO_ENTERING_FUNCTION: Entering print_temporary_table
nspname|relname|attname|atttypid|typname|attnum|attlen|atttypmod|attnotnull|relhasrules|relkind|oid|pg_get_expr|CASE|typtypmod|relhasoids|???|relhassubclass
(0 rows)
[ INFO] PATH:LINENUM DATE TIME: INFO_EXECUTION_DONE: SQL query/command execution complete
