
SELECT t.typname,t.oid
FROM pg_catalog.pg_type t
  JOIN pg_catalog.pg_namespace n
  ON (t.typnamespace = n.oid)
WHERE n.nspname  != 'pg_toast'
  AND (t.typrelid = 0 OR
    (SELECT c.relkind = 'c' FROM pg_catalog.pg_class c WHERE c.oid = t.typrelid));

[ INFO] PATH:LINENUM DATE TIME: INFO_RECORDING_ENV_VARS: # Recording pertinent ydb_* env var values at process startup
[ INFO] PATH:LINENUM DATE TIME: INFO_PARSING_DONE: Parsing done for SQL command [SELECT t.typname,t.oid
FROM pg_catalog.pg_type t
  JOIN pg_catalog.pg_namespace n
  ON (t.typnamespace = n.oid)
WHERE n.nspname  != 'pg_toast'
  AND (t.typrelid = 0 OR
    (SELECT c.relkind = 'c' FROM pg_catalog.pg_class c WHERE c.oid = t.typrelid));]
[ INFO] PATH:LINENUM DATE TIME: INFO_CURSOR: Generating SQL for CURSOR_NUM
[ INFO] PATH:LINENUM DATE TIME: INFO_M_PLAN: Generating M file [$PWD/_ydboctoP*.m] (to execute SQL query)
[DEBUG] PATH:LINENUM DATE TIME: INFO_CURPLAN: LOGICAL_PLAN BEFORE optimize_logical_plan() follows 
LP_SELECT_QUERY: 
  LP_PROJECT: 
    LP_COLUMN_LIST: 
      LP_WHERE: 
        LP_COLUMN_ALIAS: t(1).typname
        LP_COLUMN_LIST_ALIAS: 
        - type: STRING_LITERAL
        - alias: typname
      LP_WHERE: 
        LP_COLUMN_ALIAS: t(1).oid
        LP_COLUMN_LIST_ALIAS: 
        - type: INTEGER_LITERAL
        - alias: oid
    LP_SELECT: 
      LP_TABLE_JOIN: 
        LP_TABLE: t(1)
        LP_TABLE_JOIN: INNER_JOIN: 
          LP_WHERE: 
            LP_BOOLEAN_EQUALS: 
              LP_COLUMN_ALIAS: t(1).typnamespace
              LP_COLUMN_ALIAS: n(2).oid
          LP_TABLE: n(2)
      LP_CRITERIA: 
        LP_KEYS: 
        LP_SELECT_OPTIONS: 
          LP_WHERE: 
            LP_BOOLEAN_AND: 
              LP_BOOLEAN_NOT_EQUALS: 
                LP_COLUMN_ALIAS: n(2).nspname
                LP_VALUE: 'pg_toast'
              LP_BOOLEAN_OR: 
                LP_BOOLEAN_EQUALS: 
                  LP_COLUMN_ALIAS: t(1).typrelid
                  LP_VALUE: '0'
                LP_SELECT_QUERY: 
                  LP_PROJECT: 
                    LP_COLUMN_LIST: 
                      LP_WHERE: 
                        LP_BOOLEAN_EQUALS: 
                          LP_COLUMN_ALIAS: c(3).relkind
                          LP_VALUE: 'c'
                        LP_COLUMN_LIST_ALIAS: 
                        - type: BOOLEAN_VALUE
                        - alias: ???
                    LP_SELECT: 
                      LP_TABLE_JOIN: 
                        LP_TABLE: c(3)
                      LP_CRITERIA: 
                        LP_KEYS: 
                          LP_KEY: 
                          - table_name: pg_catalog.pg_class
                          - column_name: oid
                          - unique_id: 3
                          - method: LP_KEY_FIX
                          - xref_key: false
                          - uses_xref_key: false
                          - value:
                              LP_COLUMN_ALIAS: t(1).typrelid
                        LP_SELECT_OPTIONS: 
                          LP_WHERE: 
                            LP_BOOLEAN_EQUALS: 
                              LP_COLUMN_ALIAS: c(3).oid
                              LP_COLUMN_ALIAS: t(1).typrelid
                          LP_SELECT_MORE_OPTIONS: 
                            LP_KEYWORDS: 
                  LP_OUTPUT: 
                    LP_KEY: 
                    - table_name: 
                    - column_name: 
                    - unique_id: 6
                    - method: LP_KEY_ADVANCE
                    - xref_key: false
                    - uses_xref_key: false
          LP_SELECT_MORE_OPTIONS: 
            LP_KEYWORDS: 
  LP_OUTPUT: 
    LP_KEY: 
    - table_name: 
    - column_name: 
    - unique_id: 7
    - method: LP_KEY_ADVANCE
    - xref_key: false
    - uses_xref_key: false

[DEBUG] PATH:LINENUM DATE TIME: INFO_CURPLAN: LOGICAL_PLAN AFTER optimize_logical_plan() follows 
LP_SET_OPERATION: 
  LP_SET_OPTION: 
    LP_SET_DNF: 
  LP_PLANS: 
    LP_SELECT_QUERY: 
      LP_PROJECT: 
        LP_COLUMN_LIST: 
          LP_WHERE: 
            LP_COLUMN_ALIAS: t(1).typname
            LP_COLUMN_LIST_ALIAS: 
            - type: STRING_LITERAL
            - alias: typname
          LP_WHERE: 
            LP_COLUMN_ALIAS: t(1).oid
            LP_COLUMN_LIST_ALIAS: 
            - type: INTEGER_LITERAL
            - alias: oid
        LP_SELECT: 
          LP_TABLE_JOIN: 
            LP_SELECT_QUERY: 
              LP_PROJECT: 
                LP_COLUMN_LIST: 
                  LP_WHERE: 
                    LP_COLUMN_ALIAS: pg_catalog.pg_type(8).typrelid
                  LP_WHERE: 
                    LP_COLUMN_ALIAS: pg_catalog.pg_type(8).typname
                LP_SELECT: 
                  LP_TABLE_JOIN: 
                    LP_TABLE: pg_catalog.pg_type(8)
                  LP_CRITERIA: 
                    LP_KEYS: 
                      LP_KEY: 
                      - table_name: pg_catalog.pg_type
                      - column_name: typname
                      - unique_id: 8
                      - method: LP_KEY_ADVANCE
                      - xref_key: false
                      - uses_xref_key: false
                    LP_SELECT_OPTIONS: 
                      LP_WHERE: 
                      LP_SELECT_MORE_OPTIONS: 
                        LP_KEYWORDS:  XREF_INDEX;
              LP_OUTPUT: 
                LP_KEY: 
                - table_name: pg_catalog.pg_type
                - column_name: typrelid
                - unique_id: 1
                - method: LP_INVALID_ACTION
                - xref_key: true
                - uses_xref_key: false
            LP_TABLE_JOIN: INNER_JOIN: 
              LP_WHERE: 
              LP_TABLE: n(2)
          LP_CRITERIA: 
            LP_KEYS: 
              LP_KEY: 
              - table_name: pg_catalog.pg_type
              - column_name: typrelid
              - unique_id: 1
              - method: LP_KEY_FIX
              - xref_key: true
              - uses_xref_key: false
              - value:
                  LP_VALUE: '0'
              LP_KEYS: 
                LP_KEY: 
                - table_name: pg_catalog.pg_type
                - column_name: typname
                - unique_id: 1
                - method: LP_KEY_ADVANCE
                - xref_key: false
                - uses_xref_key: true
                LP_KEYS: 
                  LP_KEY: 
                  - table_name: pg_catalog.pg_namespace
                  - column_name: oid
                  - unique_id: 2
                  - method: LP_KEY_FIX
                  - xref_key: false
                  - uses_xref_key: false
                  - value:
                      LP_COLUMN_ALIAS: t(1).typnamespace
            LP_SELECT_OPTIONS: 
              LP_WHERE: 
                LP_BOOLEAN_NOT_EQUALS: 
                  LP_COLUMN_ALIAS: n(2).nspname
                  LP_VALUE: 'pg_toast'
              LP_SELECT_MORE_OPTIONS: 
                LP_KEYWORDS:  BOOLEAN_EXPANSION;
      LP_OUTPUT: 
        LP_KEY: 
        - table_name: 
        - column_name: 
        - unique_id: 7
        - method: LP_KEY_ADVANCE
        - xref_key: false
        - uses_xref_key: false
    LP_SELECT_QUERY: 
      LP_PROJECT: 
        LP_COLUMN_LIST: 
          LP_WHERE: 
            LP_COLUMN_ALIAS: t(1).typname
            LP_COLUMN_LIST_ALIAS: 
            - type: STRING_LITERAL
            - alias: typname
          LP_WHERE: 
            LP_COLUMN_ALIAS: t(1).oid
            LP_COLUMN_LIST_ALIAS: 
            - type: INTEGER_LITERAL
            - alias: oid
        LP_SELECT: 
          LP_TABLE_JOIN: 
            LP_TABLE: t(1)
            LP_TABLE_JOIN: INNER_JOIN: 
              LP_WHERE: 
              LP_TABLE: n(2)
          LP_CRITERIA: 
            LP_KEYS: 
              LP_KEY: 
              - table_name: pg_catalog.pg_type
              - column_name: typname
              - unique_id: 1
              - method: LP_KEY_ADVANCE
              - xref_key: false
              - uses_xref_key: false
              LP_KEYS: 
                LP_KEY: 
                - table_name: pg_catalog.pg_namespace
                - column_name: oid
                - unique_id: 2
                - method: LP_KEY_FIX
                - xref_key: false
                - uses_xref_key: false
                - value:
                    LP_COLUMN_ALIAS: t(1).typnamespace
            LP_SELECT_OPTIONS: 
              LP_WHERE: 
                LP_BOOLEAN_AND: 
                  LP_BOOLEAN_NOT_EQUALS: 
                    LP_COLUMN_ALIAS: n(2).nspname
                    LP_VALUE: 'pg_toast'
                  LP_SELECT_QUERY: 
                    LP_PROJECT: 
                      LP_COLUMN_LIST: 
                        LP_WHERE: 
                          LP_BOOLEAN_EQUALS: 
                            LP_COLUMN_ALIAS: c(3).relkind
                            LP_VALUE: 'c'
                          LP_COLUMN_LIST_ALIAS: 
                          - type: BOOLEAN_VALUE
                          - alias: ???
                      LP_SELECT: 
                        LP_TABLE_JOIN: 
                          LP_TABLE: c(3)
                        LP_CRITERIA: 
                          LP_KEYS: 
                            LP_KEY: 
                            - table_name: pg_catalog.pg_class
                            - column_name: oid
                            - unique_id: 3
                            - method: LP_KEY_FIX
                            - xref_key: false
                            - uses_xref_key: false
                            - value:
                                LP_COLUMN_ALIAS: t(1).typrelid
                          LP_SELECT_OPTIONS: 
                            LP_WHERE: 
                              LP_BOOLEAN_EQUALS: 
                                LP_COLUMN_ALIAS: c(3).oid
                                LP_COLUMN_ALIAS: t(1).typrelid
                            LP_SELECT_MORE_OPTIONS: 
                              LP_KEYWORDS: 
                    LP_OUTPUT: 
                      LP_KEY: 
                      - table_name: 
                      - column_name: 
                      - unique_id: 6
                      - method: LP_KEY_ADVANCE
                      - xref_key: false
                      - uses_xref_key: false
              LP_SELECT_MORE_OPTIONS: 
                LP_KEYWORDS:  BOOLEAN_EXPANSION;
      LP_OUTPUT: 
        LP_KEY: 
        - table_name: 
        - column_name: 
        - unique_id: 7
        - method: LP_KEY_ADVANCE
        - xref_key: false
        - uses_xref_key: false

[ INFO] PATH:LINENUM DATE TIME: INFO_GENERATING_XREF: Generating helper cross reference M file [$PWD/_ydboctoX*.m] for table [pg_catalog.pg_type] and column [typrelid]
[ INFO] PATH:LINENUM DATE TIME: INFO_ENTERING_FUNCTION: Entering print_temporary_table
typname|oid
bool|16
int4|23
name|19
numeric|1700
unknown|705
varchar|1043
(6 rows)
[ INFO] PATH:LINENUM DATE TIME: INFO_EXECUTION_DONE: SQL query/command execution complete
[ INFO] PATH:LINENUM DATE TIME: INFO_PARSING_DONE: Parsing done for SQL command []
