
-- TUT003 : OCTO579 : Test of simple UPDATE queries in composite database (multiple primary key columns)

-- Test UPDATE where 1 non primary key column is modified.

UPDATE composite SET name = 'Name11' where name = 'Name9';
SELECT * FROM composite;
UPDATE composite SET name = name || 'new1' where id1 > 1;
SELECT * FROM composite;
UPDATE composite SET name = name || 'new2' where id7 = 8;
SELECT * FROM composite;
UPDATE composite SET name = name || 'new3';
SELECT * FROM composite;

-- Test OR operator in WHERE clause works (tests DNF plan expansion logic)
-- Note: A similar query exists in "tests/fixtures/TUT010.sql". But it is here mostly to verify
-- that DNF plan expansion did happen whereas it is there in the TUT010.sql to verify correctness
-- of Octo output against Postgres.
UPDATE composite SET name = name || '?' where name = 'Name4' OR id4 = 5;
SELECT * FROM composite;

UPDATE 1
id0|id1|id2|id3|id4|id5|id6|id7|name
0|1|2|3|4|5|6|7|Name1
0|1|2|3|4|5|6|8|Name2
0|1|2|3|4|5|7|7|Name3
0|1|2|3|4|5|8|7|Name4
0|1|2|3|4|6|8|7|Name5
0|1|2|3|5|6|8|7|Name6
0|1|2|4|5|6|8|7|Name7
0|1|3|4|5|6|8|7|Name8
0|2|3|4|5|6|8|7|Name11
1|2|3|4|5|6|8|7|Name10
(10 rows)
UPDATE 2
id0|id1|id2|id3|id4|id5|id6|id7|name
0|1|2|3|4|5|6|7|Name1
0|1|2|3|4|5|6|8|Name2
0|1|2|3|4|5|7|7|Name3
0|1|2|3|4|5|8|7|Name4
0|1|2|3|4|6|8|7|Name5
0|1|2|3|5|6|8|7|Name6
0|1|2|4|5|6|8|7|Name7
0|1|3|4|5|6|8|7|Name8
0|2|3|4|5|6|8|7|Name11new1
1|2|3|4|5|6|8|7|Name10new1
(10 rows)
UPDATE 1
id0|id1|id2|id3|id4|id5|id6|id7|name
0|1|2|3|4|5|6|7|Name1
0|1|2|3|4|5|6|8|Name2new2
0|1|2|3|4|5|7|7|Name3
0|1|2|3|4|5|8|7|Name4
0|1|2|3|4|6|8|7|Name5
0|1|2|3|5|6|8|7|Name6
0|1|2|4|5|6|8|7|Name7
0|1|3|4|5|6|8|7|Name8
0|2|3|4|5|6|8|7|Name11new1
1|2|3|4|5|6|8|7|Name10new1
(10 rows)
UPDATE 10
id0|id1|id2|id3|id4|id5|id6|id7|name
0|1|2|3|4|5|6|7|Name1new3
0|1|2|3|4|5|6|8|Name2new2new3
0|1|2|3|4|5|7|7|Name3new3
0|1|2|3|4|5|8|7|Name4new3
0|1|2|3|4|6|8|7|Name5new3
0|1|2|3|5|6|8|7|Name6new3
0|1|2|4|5|6|8|7|Name7new3
0|1|3|4|5|6|8|7|Name8new3
0|2|3|4|5|6|8|7|Name11new1new3
1|2|3|4|5|6|8|7|Name10new1new3
(10 rows)
UPDATE 5
id0|id1|id2|id3|id4|id5|id6|id7|name
0|1|2|3|4|5|6|7|Name1new3
0|1|2|3|4|5|6|8|Name2new2new3
0|1|2|3|4|5|7|7|Name3new3
0|1|2|3|4|5|8|7|Name4new3
0|1|2|3|4|6|8|7|Name5new3
0|1|2|3|5|6|8|7|Name6new3?
0|1|2|4|5|6|8|7|Name7new3?
0|1|3|4|5|6|8|7|Name8new3?
0|2|3|4|5|6|8|7|Name11new1new3?
1|2|3|4|5|6|8|7|Name10new1new3?
(10 rows)
# Include key parts of generated M plans in reference file
_ydboctoP*.m:;; ---------------------------------------------------------
_ydboctoP*.m:;  UPDATE composite SET name = name || '?' where name = 'Name4' OR id4 = 5;
_ydboctoP*.m:;; ---------------------------------------------------------
_ydboctoP*.m:octoPlan0(cursorId,wrapInTp)
_ydboctoP*.m:octoPlan1(cursorId)
_ydboctoP*.m:    SET %ydboctocursor(cursorId,"RowCount")=0 ; Initialize count of updated records
_ydboctoP*.m:    SET %ydboctocursor(cursorId,"keys",1,"composite","name")=%ydboctoexpr IF '$ZYISSQLNULL(%ydboctocursor(cursorId,"keys",1,"composite","name")) IF $DATA(^%ydbAIMD81RGiDYaJwC0ntBPKi9H3H(0,%ydboctocursor(cursorId,"keys",1,"composite","name"))) DO
_ydboctoP*.m:    . SET %ydboctocursor(cursorId,"keys",1,"composite","id0")=""
_ydboctoP*.m:    . FOR  SET %ydboctocursor(cursorId,"keys",1,"composite","id0")=$ORDER(^%ydbAIMD81RGiDYaJwC0ntBPKi9H3H(0,%ydboctocursor(cursorId,"keys",1,"composite","name"),%ydboctocursor(cursorId,"keys",1,"composite","id0"))) QUIT:(%ydboctocursor(cursorId,"keys",1,"composite","id0")="")  DO
_ydboctoP*.m:    . . SET %ydboctocursor(cursorId,"keys",1,"composite","id1")=""
_ydboctoP*.m:    . . FOR  SET %ydboctocursor(cursorId,"keys",1,"composite","id1")=$ORDER(^%ydbAIMD81RGiDYaJwC0ntBPKi9H3H(0,%ydboctocursor(cursorId,"keys",1,"composite","name"),%ydboctocursor(cursorId,"keys",1,"composite","id0"),%ydboctocursor(cursorId,"keys",1,"composite","id1"))) QUIT:(%ydboctocursor(cursorId,"keys",1,"composite","id1")="")  DO
_ydboctoP*.m:    . . . SET %ydboctocursor(cursorId,"keys",1,"composite","id2")=""
_ydboctoP*.m:    . . . FOR  SET %ydboctocursor(cursorId,"keys",1,"composite","id2")=$ORDER(^%ydbAIMD81RGiDYaJwC0ntBPKi9H3H(0,%ydboctocursor(cursorId,"keys",1,"composite","name"),%ydboctocursor(cursorId,"keys",1,"composite","id0"),%ydboctocursor(cursorId,"keys",1,"composite","id1"),%ydboctocursor(cursorId,"keys",1,"composite","id2"))) QUIT:(%ydboctocursor(cursorId,"keys",1,"composite","id2")="")  DO
_ydboctoP*.m:    . . . . SET %ydboctocursor(cursorId,"keys",1,"composite","id3")=""
_ydboctoP*.m:    . . . . FOR  SET %ydboctocursor(cursorId,"keys",1,"composite","id3")=$ORDER(^%ydbAIMD81RGiDYaJwC0ntBPKi9H3H(0,%ydboctocursor(cursorId,"keys",1,"composite","name"),%ydboctocursor(cursorId,"keys",1,"composite","id0"),%ydboctocursor(cursorId,"keys",1,"composite","id1"),%ydboctocursor(cursorId,"keys",1,"composite","id2"),%ydboctocursor(cursorId,"keys",1,"composite","id3"))) QUIT:(%ydboctocursor(cursorId,"keys",1,"composite","id3")="")  DO
_ydboctoP*.m:    . . . . . SET %ydboctocursor(cursorId,"keys",1,"composite","id4")=""
_ydboctoP*.m:    . . . . . FOR  SET %ydboctocursor(cursorId,"keys",1,"composite","id4")=$ORDER(^%ydbAIMD81RGiDYaJwC0ntBPKi9H3H(0,%ydboctocursor(cursorId,"keys",1,"composite","name"),%ydboctocursor(cursorId,"keys",1,"composite","id0"),%ydboctocursor(cursorId,"keys",1,"composite","id1"),%ydboctocursor(cursorId,"keys",1,"composite","id2"),%ydboctocursor(cursorId,"keys",1,"composite","id3"),%ydboctocursor(cursorId,"keys",1,"composite","id4"))) QUIT:(%ydboctocursor(cursorId,"keys",1,"composite","id4")="")  DO
_ydboctoP*.m:    . . . . . . SET %ydboctocursor(cursorId,"keys",1,"composite","id5")=""
_ydboctoP*.m:    . . . . . . FOR  SET %ydboctocursor(cursorId,"keys",1,"composite","id5")=$ORDER(^%ydbAIMD81RGiDYaJwC0ntBPKi9H3H(0,%ydboctocursor(cursorId,"keys",1,"composite","name"),%ydboctocursor(cursorId,"keys",1,"composite","id0"),%ydboctocursor(cursorId,"keys",1,"composite","id1"),%ydboctocursor(cursorId,"keys",1,"composite","id2"),%ydboctocursor(cursorId,"keys",1,"composite","id3"),%ydboctocursor(cursorId,"keys",1,"composite","id4"),%ydboctocursor(cursorId,"keys",1,"composite","id5"))) QUIT:(%ydboctocursor(cursorId,"keys",1,"composite","id5")="")  DO
_ydboctoP*.m:    . . . . . . . SET %ydboctocursor(cursorId,"keys",1,"composite","id6")=""
_ydboctoP*.m:    . . . . . . . FOR  SET %ydboctocursor(cursorId,"keys",1,"composite","id6")=$ORDER(^%ydbAIMD81RGiDYaJwC0ntBPKi9H3H(0,%ydboctocursor(cursorId,"keys",1,"composite","name"),%ydboctocursor(cursorId,"keys",1,"composite","id0"),%ydboctocursor(cursorId,"keys",1,"composite","id1"),%ydboctocursor(cursorId,"keys",1,"composite","id2"),%ydboctocursor(cursorId,"keys",1,"composite","id3"),%ydboctocursor(cursorId,"keys",1,"composite","id4"),%ydboctocursor(cursorId,"keys",1,"composite","id5"),%ydboctocursor(cursorId,"keys",1,"composite","id6"))) QUIT:(%ydboctocursor(cursorId,"keys",1,"composite","id6")="")  DO
_ydboctoP*.m:    . . . . . . . . SET %ydboctocursor(cursorId,"keys",1,"composite","id7")=""
_ydboctoP*.m:    . . . . . . . . FOR  SET %ydboctocursor(cursorId,"keys",1,"composite","id7")=$ORDER(^%ydbAIMD81RGiDYaJwC0ntBPKi9H3H(0,%ydboctocursor(cursorId,"keys",1,"composite","name"),%ydboctocursor(cursorId,"keys",1,"composite","id0"),%ydboctocursor(cursorId,"keys",1,"composite","id1"),%ydboctocursor(cursorId,"keys",1,"composite","id2"),%ydboctocursor(cursorId,"keys",1,"composite","id3"),%ydboctocursor(cursorId,"keys",1,"composite","id4"),%ydboctocursor(cursorId,"keys",1,"composite","id5"),%ydboctocursor(cursorId,"keys",1,"composite","id6"),%ydboctocursor(cursorId,"keys",1,"composite","id7"))) QUIT:(%ydboctocursor(cursorId,"keys",1,"composite","id7")="")  DO
_ydboctoP*.m:    . . . . . . . . . . . . IF $INCREMENT(%ydboctocursor(cursorId,"RowCount")) ; Increment count of updated records
_ydboctoP*.m:octoPlan2(cursorId)
_ydboctoP*.m:    SET %ydboctocursor(cursorId,"keys",1,"composite","id0")=""
_ydboctoP*.m:    FOR  SET %ydboctocursor(cursorId,"keys",1,"composite","id0")=$ORDER(^composite(%ydboctocursor(cursorId,"keys",1,"composite","id0"))) QUIT:(%ydboctocursor(cursorId,"keys",1,"composite","id0")="")  DO
_ydboctoP*.m:    . SET %ydboctocursor(cursorId,"keys",1,"composite","id1")=""
_ydboctoP*.m:    . FOR  SET %ydboctocursor(cursorId,"keys",1,"composite","id1")=$ORDER(^composite(%ydboctocursor(cursorId,"keys",1,"composite","id0"),%ydboctocursor(cursorId,"keys",1,"composite","id1"))) QUIT:(%ydboctocursor(cursorId,"keys",1,"composite","id1")="")  DO
_ydboctoP*.m:    . . SET %ydboctocursor(cursorId,"keys",1,"composite","id2")=""
_ydboctoP*.m:    . . FOR  SET %ydboctocursor(cursorId,"keys",1,"composite","id2")=$ORDER(^composite(%ydboctocursor(cursorId,"keys",1,"composite","id0"),%ydboctocursor(cursorId,"keys",1,"composite","id1"),%ydboctocursor(cursorId,"keys",1,"composite","id2"))) QUIT:(%ydboctocursor(cursorId,"keys",1,"composite","id2")="")  DO
_ydboctoP*.m:    . . . SET %ydboctocursor(cursorId,"keys",1,"composite","id3")=""
_ydboctoP*.m:    . . . FOR  SET %ydboctocursor(cursorId,"keys",1,"composite","id3")=$ORDER(^composite(%ydboctocursor(cursorId,"keys",1,"composite","id0"),%ydboctocursor(cursorId,"keys",1,"composite","id1"),%ydboctocursor(cursorId,"keys",1,"composite","id2"),%ydboctocursor(cursorId,"keys",1,"composite","id3"))) QUIT:(%ydboctocursor(cursorId,"keys",1,"composite","id3")="")  DO
_ydboctoP*.m:    . . . . SET %ydboctocursor(cursorId,"keys",1,"composite","id4")=%ydboctoexpr IF '$ZYISSQLNULL(%ydboctocursor(cursorId,"keys",1,"composite","id4")) IF $DATA(^composite(%ydboctocursor(cursorId,"keys",1,"composite","id0"),%ydboctocursor(cursorId,"keys",1,"composite","id1"),%ydboctocursor(cursorId,"keys",1,"composite","id2"),%ydboctocursor(cursorId,"keys",1,"composite","id3"),%ydboctocursor(cursorId,"keys",1,"composite","id4"))) DO
_ydboctoP*.m:    . . . . . SET %ydboctocursor(cursorId,"keys",1,"composite","id5")=""
_ydboctoP*.m:    . . . . . FOR  SET %ydboctocursor(cursorId,"keys",1,"composite","id5")=$ORDER(^composite(%ydboctocursor(cursorId,"keys",1,"composite","id0"),%ydboctocursor(cursorId,"keys",1,"composite","id1"),%ydboctocursor(cursorId,"keys",1,"composite","id2"),%ydboctocursor(cursorId,"keys",1,"composite","id3"),%ydboctocursor(cursorId,"keys",1,"composite","id4"),%ydboctocursor(cursorId,"keys",1,"composite","id5"))) QUIT:(%ydboctocursor(cursorId,"keys",1,"composite","id5")="")  DO
_ydboctoP*.m:    . . . . . . SET %ydboctocursor(cursorId,"keys",1,"composite","id6")=""
_ydboctoP*.m:    . . . . . . FOR  SET %ydboctocursor(cursorId,"keys",1,"composite","id6")=$ORDER(^composite(%ydboctocursor(cursorId,"keys",1,"composite","id0"),%ydboctocursor(cursorId,"keys",1,"composite","id1"),%ydboctocursor(cursorId,"keys",1,"composite","id2"),%ydboctocursor(cursorId,"keys",1,"composite","id3"),%ydboctocursor(cursorId,"keys",1,"composite","id4"),%ydboctocursor(cursorId,"keys",1,"composite","id5"),%ydboctocursor(cursorId,"keys",1,"composite","id6"))) QUIT:(%ydboctocursor(cursorId,"keys",1,"composite","id6")="")  DO
_ydboctoP*.m:    . . . . . . . SET %ydboctocursor(cursorId,"keys",1,"composite","id7")=""
_ydboctoP*.m:    . . . . . . . FOR  SET %ydboctocursor(cursorId,"keys",1,"composite","id7")=$ORDER(^composite(%ydboctocursor(cursorId,"keys",1,"composite","id0"),%ydboctocursor(cursorId,"keys",1,"composite","id1"),%ydboctocursor(cursorId,"keys",1,"composite","id2"),%ydboctocursor(cursorId,"keys",1,"composite","id3"),%ydboctocursor(cursorId,"keys",1,"composite","id4"),%ydboctocursor(cursorId,"keys",1,"composite","id5"),%ydboctocursor(cursorId,"keys",1,"composite","id6"),%ydboctocursor(cursorId,"keys",1,"composite","id7"))) QUIT:(%ydboctocursor(cursorId,"keys",1,"composite","id7")="")  DO
_ydboctoP*.m:    . . . . . . . . . . IF $INCREMENT(%ydboctocursor(cursorId,"RowCount")) ; Increment count of updated records
_ydboctoP*.m:;; ---------------------------------------------------------
_ydboctoP*.m:;  UPDATE composite SET name = 'Name11' where name = 'Name9';
_ydboctoP*.m:;; ---------------------------------------------------------
_ydboctoP*.m:octoPlan0(cursorId,wrapInTp)
_ydboctoP*.m:octoPlan1(cursorId)
_ydboctoP*.m:    SET %ydboctocursor(cursorId,"RowCount")=0 ; Initialize count of updated records
_ydboctoP*.m:    SET %ydboctocursor(cursorId,"keys",1,"composite","name")=%ydboctoexpr IF '$ZYISSQLNULL(%ydboctocursor(cursorId,"keys",1,"composite","name")) IF $DATA(^%ydbAIMD81RGiDYaJwC0ntBPKi9H3H(0,%ydboctocursor(cursorId,"keys",1,"composite","name"))) DO
_ydboctoP*.m:    . SET %ydboctocursor(cursorId,"keys",1,"composite","id0")=""
_ydboctoP*.m:    . FOR  SET %ydboctocursor(cursorId,"keys",1,"composite","id0")=$ORDER(^%ydbAIMD81RGiDYaJwC0ntBPKi9H3H(0,%ydboctocursor(cursorId,"keys",1,"composite","name"),%ydboctocursor(cursorId,"keys",1,"composite","id0"))) QUIT:(%ydboctocursor(cursorId,"keys",1,"composite","id0")="")  DO
_ydboctoP*.m:    . . SET %ydboctocursor(cursorId,"keys",1,"composite","id1")=""
_ydboctoP*.m:    . . FOR  SET %ydboctocursor(cursorId,"keys",1,"composite","id1")=$ORDER(^%ydbAIMD81RGiDYaJwC0ntBPKi9H3H(0,%ydboctocursor(cursorId,"keys",1,"composite","name"),%ydboctocursor(cursorId,"keys",1,"composite","id0"),%ydboctocursor(cursorId,"keys",1,"composite","id1"))) QUIT:(%ydboctocursor(cursorId,"keys",1,"composite","id1")="")  DO
_ydboctoP*.m:    . . . SET %ydboctocursor(cursorId,"keys",1,"composite","id2")=""
_ydboctoP*.m:    . . . FOR  SET %ydboctocursor(cursorId,"keys",1,"composite","id2")=$ORDER(^%ydbAIMD81RGiDYaJwC0ntBPKi9H3H(0,%ydboctocursor(cursorId,"keys",1,"composite","name"),%ydboctocursor(cursorId,"keys",1,"composite","id0"),%ydboctocursor(cursorId,"keys",1,"composite","id1"),%ydboctocursor(cursorId,"keys",1,"composite","id2"))) QUIT:(%ydboctocursor(cursorId,"keys",1,"composite","id2")="")  DO
_ydboctoP*.m:    . . . . SET %ydboctocursor(cursorId,"keys",1,"composite","id3")=""
_ydboctoP*.m:    . . . . FOR  SET %ydboctocursor(cursorId,"keys",1,"composite","id3")=$ORDER(^%ydbAIMD81RGiDYaJwC0ntBPKi9H3H(0,%ydboctocursor(cursorId,"keys",1,"composite","name"),%ydboctocursor(cursorId,"keys",1,"composite","id0"),%ydboctocursor(cursorId,"keys",1,"composite","id1"),%ydboctocursor(cursorId,"keys",1,"composite","id2"),%ydboctocursor(cursorId,"keys",1,"composite","id3"))) QUIT:(%ydboctocursor(cursorId,"keys",1,"composite","id3")="")  DO
_ydboctoP*.m:    . . . . . SET %ydboctocursor(cursorId,"keys",1,"composite","id4")=""
_ydboctoP*.m:    . . . . . FOR  SET %ydboctocursor(cursorId,"keys",1,"composite","id4")=$ORDER(^%ydbAIMD81RGiDYaJwC0ntBPKi9H3H(0,%ydboctocursor(cursorId,"keys",1,"composite","name"),%ydboctocursor(cursorId,"keys",1,"composite","id0"),%ydboctocursor(cursorId,"keys",1,"composite","id1"),%ydboctocursor(cursorId,"keys",1,"composite","id2"),%ydboctocursor(cursorId,"keys",1,"composite","id3"),%ydboctocursor(cursorId,"keys",1,"composite","id4"))) QUIT:(%ydboctocursor(cursorId,"keys",1,"composite","id4")="")  DO
_ydboctoP*.m:    . . . . . . SET %ydboctocursor(cursorId,"keys",1,"composite","id5")=""
_ydboctoP*.m:    . . . . . . FOR  SET %ydboctocursor(cursorId,"keys",1,"composite","id5")=$ORDER(^%ydbAIMD81RGiDYaJwC0ntBPKi9H3H(0,%ydboctocursor(cursorId,"keys",1,"composite","name"),%ydboctocursor(cursorId,"keys",1,"composite","id0"),%ydboctocursor(cursorId,"keys",1,"composite","id1"),%ydboctocursor(cursorId,"keys",1,"composite","id2"),%ydboctocursor(cursorId,"keys",1,"composite","id3"),%ydboctocursor(cursorId,"keys",1,"composite","id4"),%ydboctocursor(cursorId,"keys",1,"composite","id5"))) QUIT:(%ydboctocursor(cursorId,"keys",1,"composite","id5")="")  DO
_ydboctoP*.m:    . . . . . . . SET %ydboctocursor(cursorId,"keys",1,"composite","id6")=""
_ydboctoP*.m:    . . . . . . . FOR  SET %ydboctocursor(cursorId,"keys",1,"composite","id6")=$ORDER(^%ydbAIMD81RGiDYaJwC0ntBPKi9H3H(0,%ydboctocursor(cursorId,"keys",1,"composite","name"),%ydboctocursor(cursorId,"keys",1,"composite","id0"),%ydboctocursor(cursorId,"keys",1,"composite","id1"),%ydboctocursor(cursorId,"keys",1,"composite","id2"),%ydboctocursor(cursorId,"keys",1,"composite","id3"),%ydboctocursor(cursorId,"keys",1,"composite","id4"),%ydboctocursor(cursorId,"keys",1,"composite","id5"),%ydboctocursor(cursorId,"keys",1,"composite","id6"))) QUIT:(%ydboctocursor(cursorId,"keys",1,"composite","id6")="")  DO
_ydboctoP*.m:    . . . . . . . . SET %ydboctocursor(cursorId,"keys",1,"composite","id7")=""
_ydboctoP*.m:    . . . . . . . . FOR  SET %ydboctocursor(cursorId,"keys",1,"composite","id7")=$ORDER(^%ydbAIMD81RGiDYaJwC0ntBPKi9H3H(0,%ydboctocursor(cursorId,"keys",1,"composite","name"),%ydboctocursor(cursorId,"keys",1,"composite","id0"),%ydboctocursor(cursorId,"keys",1,"composite","id1"),%ydboctocursor(cursorId,"keys",1,"composite","id2"),%ydboctocursor(cursorId,"keys",1,"composite","id3"),%ydboctocursor(cursorId,"keys",1,"composite","id4"),%ydboctocursor(cursorId,"keys",1,"composite","id5"),%ydboctocursor(cursorId,"keys",1,"composite","id6"),%ydboctocursor(cursorId,"keys",1,"composite","id7"))) QUIT:(%ydboctocursor(cursorId,"keys",1,"composite","id7")="")  DO
_ydboctoP*.m:    . . . . . . . . . . . IF $INCREMENT(%ydboctocursor(cursorId,"RowCount")) ; Increment count of updated records
_ydboctoP*.m:;; ---------------------------------------------------------
_ydboctoP*.m:;  UPDATE composite SET name = name || 'new3';
_ydboctoP*.m:;; ---------------------------------------------------------
_ydboctoP*.m:octoPlan0(cursorId,wrapInTp)
_ydboctoP*.m:octoPlan1(cursorId)
_ydboctoP*.m:    SET %ydboctocursor(cursorId,"RowCount")=0 ; Initialize count of updated records
_ydboctoP*.m:    SET %ydboctocursor(cursorId,"keys",1,"composite","id0")=""
_ydboctoP*.m:    FOR  SET %ydboctocursor(cursorId,"keys",1,"composite","id0")=$ORDER(^composite(%ydboctocursor(cursorId,"keys",1,"composite","id0"))) QUIT:(%ydboctocursor(cursorId,"keys",1,"composite","id0")="")  DO
_ydboctoP*.m:    . SET %ydboctocursor(cursorId,"keys",1,"composite","id1")=""
_ydboctoP*.m:    . FOR  SET %ydboctocursor(cursorId,"keys",1,"composite","id1")=$ORDER(^composite(%ydboctocursor(cursorId,"keys",1,"composite","id0"),%ydboctocursor(cursorId,"keys",1,"composite","id1"))) QUIT:(%ydboctocursor(cursorId,"keys",1,"composite","id1")="")  DO
_ydboctoP*.m:    . . SET %ydboctocursor(cursorId,"keys",1,"composite","id2")=""
_ydboctoP*.m:    . . FOR  SET %ydboctocursor(cursorId,"keys",1,"composite","id2")=$ORDER(^composite(%ydboctocursor(cursorId,"keys",1,"composite","id0"),%ydboctocursor(cursorId,"keys",1,"composite","id1"),%ydboctocursor(cursorId,"keys",1,"composite","id2"))) QUIT:(%ydboctocursor(cursorId,"keys",1,"composite","id2")="")  DO
_ydboctoP*.m:    . . . SET %ydboctocursor(cursorId,"keys",1,"composite","id3")=""
_ydboctoP*.m:    . . . FOR  SET %ydboctocursor(cursorId,"keys",1,"composite","id3")=$ORDER(^composite(%ydboctocursor(cursorId,"keys",1,"composite","id0"),%ydboctocursor(cursorId,"keys",1,"composite","id1"),%ydboctocursor(cursorId,"keys",1,"composite","id2"),%ydboctocursor(cursorId,"keys",1,"composite","id3"))) QUIT:(%ydboctocursor(cursorId,"keys",1,"composite","id3")="")  DO
_ydboctoP*.m:    . . . . SET %ydboctocursor(cursorId,"keys",1,"composite","id4")=""
_ydboctoP*.m:    . . . . FOR  SET %ydboctocursor(cursorId,"keys",1,"composite","id4")=$ORDER(^composite(%ydboctocursor(cursorId,"keys",1,"composite","id0"),%ydboctocursor(cursorId,"keys",1,"composite","id1"),%ydboctocursor(cursorId,"keys",1,"composite","id2"),%ydboctocursor(cursorId,"keys",1,"composite","id3"),%ydboctocursor(cursorId,"keys",1,"composite","id4"))) QUIT:(%ydboctocursor(cursorId,"keys",1,"composite","id4")="")  DO
_ydboctoP*.m:    . . . . . SET %ydboctocursor(cursorId,"keys",1,"composite","id5")=""
_ydboctoP*.m:    . . . . . FOR  SET %ydboctocursor(cursorId,"keys",1,"composite","id5")=$ORDER(^composite(%ydboctocursor(cursorId,"keys",1,"composite","id0"),%ydboctocursor(cursorId,"keys",1,"composite","id1"),%ydboctocursor(cursorId,"keys",1,"composite","id2"),%ydboctocursor(cursorId,"keys",1,"composite","id3"),%ydboctocursor(cursorId,"keys",1,"composite","id4"),%ydboctocursor(cursorId,"keys",1,"composite","id5"))) QUIT:(%ydboctocursor(cursorId,"keys",1,"composite","id5")="")  DO
_ydboctoP*.m:    . . . . . . SET %ydboctocursor(cursorId,"keys",1,"composite","id6")=""
_ydboctoP*.m:    . . . . . . FOR  SET %ydboctocursor(cursorId,"keys",1,"composite","id6")=$ORDER(^composite(%ydboctocursor(cursorId,"keys",1,"composite","id0"),%ydboctocursor(cursorId,"keys",1,"composite","id1"),%ydboctocursor(cursorId,"keys",1,"composite","id2"),%ydboctocursor(cursorId,"keys",1,"composite","id3"),%ydboctocursor(cursorId,"keys",1,"composite","id4"),%ydboctocursor(cursorId,"keys",1,"composite","id5"),%ydboctocursor(cursorId,"keys",1,"composite","id6"))) QUIT:(%ydboctocursor(cursorId,"keys",1,"composite","id6")="")  DO
_ydboctoP*.m:    . . . . . . . SET %ydboctocursor(cursorId,"keys",1,"composite","id7")=""
_ydboctoP*.m:    . . . . . . . FOR  SET %ydboctocursor(cursorId,"keys",1,"composite","id7")=$ORDER(^composite(%ydboctocursor(cursorId,"keys",1,"composite","id0"),%ydboctocursor(cursorId,"keys",1,"composite","id1"),%ydboctocursor(cursorId,"keys",1,"composite","id2"),%ydboctocursor(cursorId,"keys",1,"composite","id3"),%ydboctocursor(cursorId,"keys",1,"composite","id4"),%ydboctocursor(cursorId,"keys",1,"composite","id5"),%ydboctocursor(cursorId,"keys",1,"composite","id6"),%ydboctocursor(cursorId,"keys",1,"composite","id7"))) QUIT:(%ydboctocursor(cursorId,"keys",1,"composite","id7")="")  DO
_ydboctoP*.m:    . . . . . . . . . IF $INCREMENT(%ydboctocursor(cursorId,"RowCount")) ; Increment count of updated records
_ydboctoP*.m:;; ---------------------------------------------------------
_ydboctoP*.m:;  UPDATE composite SET name = name || 'new2' where id7 = 8;
_ydboctoP*.m:;; ---------------------------------------------------------
_ydboctoP*.m:octoPlan0(cursorId,wrapInTp)
_ydboctoP*.m:octoPlan1(cursorId)
_ydboctoP*.m:    SET %ydboctocursor(cursorId,"RowCount")=0 ; Initialize count of updated records
_ydboctoP*.m:    SET %ydboctocursor(cursorId,"keys",1,"composite","id0")=""
_ydboctoP*.m:    FOR  SET %ydboctocursor(cursorId,"keys",1,"composite","id0")=$ORDER(^composite(%ydboctocursor(cursorId,"keys",1,"composite","id0"))) QUIT:(%ydboctocursor(cursorId,"keys",1,"composite","id0")="")  DO
_ydboctoP*.m:    . SET %ydboctocursor(cursorId,"keys",1,"composite","id1")=""
_ydboctoP*.m:    . FOR  SET %ydboctocursor(cursorId,"keys",1,"composite","id1")=$ORDER(^composite(%ydboctocursor(cursorId,"keys",1,"composite","id0"),%ydboctocursor(cursorId,"keys",1,"composite","id1"))) QUIT:(%ydboctocursor(cursorId,"keys",1,"composite","id1")="")  DO
_ydboctoP*.m:    . . SET %ydboctocursor(cursorId,"keys",1,"composite","id2")=""
_ydboctoP*.m:    . . FOR  SET %ydboctocursor(cursorId,"keys",1,"composite","id2")=$ORDER(^composite(%ydboctocursor(cursorId,"keys",1,"composite","id0"),%ydboctocursor(cursorId,"keys",1,"composite","id1"),%ydboctocursor(cursorId,"keys",1,"composite","id2"))) QUIT:(%ydboctocursor(cursorId,"keys",1,"composite","id2")="")  DO
_ydboctoP*.m:    . . . SET %ydboctocursor(cursorId,"keys",1,"composite","id3")=""
_ydboctoP*.m:    . . . FOR  SET %ydboctocursor(cursorId,"keys",1,"composite","id3")=$ORDER(^composite(%ydboctocursor(cursorId,"keys",1,"composite","id0"),%ydboctocursor(cursorId,"keys",1,"composite","id1"),%ydboctocursor(cursorId,"keys",1,"composite","id2"),%ydboctocursor(cursorId,"keys",1,"composite","id3"))) QUIT:(%ydboctocursor(cursorId,"keys",1,"composite","id3")="")  DO
_ydboctoP*.m:    . . . . SET %ydboctocursor(cursorId,"keys",1,"composite","id4")=""
_ydboctoP*.m:    . . . . FOR  SET %ydboctocursor(cursorId,"keys",1,"composite","id4")=$ORDER(^composite(%ydboctocursor(cursorId,"keys",1,"composite","id0"),%ydboctocursor(cursorId,"keys",1,"composite","id1"),%ydboctocursor(cursorId,"keys",1,"composite","id2"),%ydboctocursor(cursorId,"keys",1,"composite","id3"),%ydboctocursor(cursorId,"keys",1,"composite","id4"))) QUIT:(%ydboctocursor(cursorId,"keys",1,"composite","id4")="")  DO
_ydboctoP*.m:    . . . . . SET %ydboctocursor(cursorId,"keys",1,"composite","id5")=""
_ydboctoP*.m:    . . . . . FOR  SET %ydboctocursor(cursorId,"keys",1,"composite","id5")=$ORDER(^composite(%ydboctocursor(cursorId,"keys",1,"composite","id0"),%ydboctocursor(cursorId,"keys",1,"composite","id1"),%ydboctocursor(cursorId,"keys",1,"composite","id2"),%ydboctocursor(cursorId,"keys",1,"composite","id3"),%ydboctocursor(cursorId,"keys",1,"composite","id4"),%ydboctocursor(cursorId,"keys",1,"composite","id5"))) QUIT:(%ydboctocursor(cursorId,"keys",1,"composite","id5")="")  DO
_ydboctoP*.m:    . . . . . . SET %ydboctocursor(cursorId,"keys",1,"composite","id6")=""
_ydboctoP*.m:    . . . . . . FOR  SET %ydboctocursor(cursorId,"keys",1,"composite","id6")=$ORDER(^composite(%ydboctocursor(cursorId,"keys",1,"composite","id0"),%ydboctocursor(cursorId,"keys",1,"composite","id1"),%ydboctocursor(cursorId,"keys",1,"composite","id2"),%ydboctocursor(cursorId,"keys",1,"composite","id3"),%ydboctocursor(cursorId,"keys",1,"composite","id4"),%ydboctocursor(cursorId,"keys",1,"composite","id5"),%ydboctocursor(cursorId,"keys",1,"composite","id6"))) QUIT:(%ydboctocursor(cursorId,"keys",1,"composite","id6")="")  DO
_ydboctoP*.m:    . . . . . . . SET %ydboctocursor(cursorId,"keys",1,"composite","id7")=%ydboctoexpr IF '$ZYISSQLNULL(%ydboctocursor(cursorId,"keys",1,"composite","id7")) IF $DATA(^composite(%ydboctocursor(cursorId,"keys",1,"composite","id0"),%ydboctocursor(cursorId,"keys",1,"composite","id1"),%ydboctocursor(cursorId,"keys",1,"composite","id2"),%ydboctocursor(cursorId,"keys",1,"composite","id3"),%ydboctocursor(cursorId,"keys",1,"composite","id4"),%ydboctocursor(cursorId,"keys",1,"composite","id5"),%ydboctocursor(cursorId,"keys",1,"composite","id6"),%ydboctocursor(cursorId,"keys",1,"composite","id7"))) DO
_ydboctoP*.m:    . . . . . . . . . IF $INCREMENT(%ydboctocursor(cursorId,"RowCount")) ; Increment count of updated records
_ydboctoP*.m:;; ---------------------------------------------------------
_ydboctoP*.m:;  SELECT * FROM composite;
_ydboctoP*.m:;; ---------------------------------------------------------
_ydboctoP*.m:octoPlan0(cursorId,wrapInTp)
_ydboctoP*.m:octoPlan1(cursorId)
_ydboctoP*.m:    SET %ydboctocursor(cursorId,"keys",1,"composite","id0")=""
_ydboctoP*.m:    FOR  SET %ydboctocursor(cursorId,"keys",1,"composite","id0")=$ORDER(^composite(%ydboctocursor(cursorId,"keys",1,"composite","id0"))) QUIT:(%ydboctocursor(cursorId,"keys",1,"composite","id0")="")  DO
_ydboctoP*.m:    . SET %ydboctocursor(cursorId,"keys",1,"composite","id1")=""
_ydboctoP*.m:    . FOR  SET %ydboctocursor(cursorId,"keys",1,"composite","id1")=$ORDER(^composite(%ydboctocursor(cursorId,"keys",1,"composite","id0"),%ydboctocursor(cursorId,"keys",1,"composite","id1"))) QUIT:(%ydboctocursor(cursorId,"keys",1,"composite","id1")="")  DO
_ydboctoP*.m:    . . SET %ydboctocursor(cursorId,"keys",1,"composite","id2")=""
_ydboctoP*.m:    . . FOR  SET %ydboctocursor(cursorId,"keys",1,"composite","id2")=$ORDER(^composite(%ydboctocursor(cursorId,"keys",1,"composite","id0"),%ydboctocursor(cursorId,"keys",1,"composite","id1"),%ydboctocursor(cursorId,"keys",1,"composite","id2"))) QUIT:(%ydboctocursor(cursorId,"keys",1,"composite","id2")="")  DO
_ydboctoP*.m:    . . . SET %ydboctocursor(cursorId,"keys",1,"composite","id3")=""
_ydboctoP*.m:    . . . FOR  SET %ydboctocursor(cursorId,"keys",1,"composite","id3")=$ORDER(^composite(%ydboctocursor(cursorId,"keys",1,"composite","id0"),%ydboctocursor(cursorId,"keys",1,"composite","id1"),%ydboctocursor(cursorId,"keys",1,"composite","id2"),%ydboctocursor(cursorId,"keys",1,"composite","id3"))) QUIT:(%ydboctocursor(cursorId,"keys",1,"composite","id3")="")  DO
_ydboctoP*.m:    . . . . SET %ydboctocursor(cursorId,"keys",1,"composite","id4")=""
_ydboctoP*.m:    . . . . FOR  SET %ydboctocursor(cursorId,"keys",1,"composite","id4")=$ORDER(^composite(%ydboctocursor(cursorId,"keys",1,"composite","id0"),%ydboctocursor(cursorId,"keys",1,"composite","id1"),%ydboctocursor(cursorId,"keys",1,"composite","id2"),%ydboctocursor(cursorId,"keys",1,"composite","id3"),%ydboctocursor(cursorId,"keys",1,"composite","id4"))) QUIT:(%ydboctocursor(cursorId,"keys",1,"composite","id4")="")  DO
_ydboctoP*.m:    . . . . . SET %ydboctocursor(cursorId,"keys",1,"composite","id5")=""
_ydboctoP*.m:    . . . . . FOR  SET %ydboctocursor(cursorId,"keys",1,"composite","id5")=$ORDER(^composite(%ydboctocursor(cursorId,"keys",1,"composite","id0"),%ydboctocursor(cursorId,"keys",1,"composite","id1"),%ydboctocursor(cursorId,"keys",1,"composite","id2"),%ydboctocursor(cursorId,"keys",1,"composite","id3"),%ydboctocursor(cursorId,"keys",1,"composite","id4"),%ydboctocursor(cursorId,"keys",1,"composite","id5"))) QUIT:(%ydboctocursor(cursorId,"keys",1,"composite","id5")="")  DO
_ydboctoP*.m:    . . . . . . SET %ydboctocursor(cursorId,"keys",1,"composite","id6")=""
_ydboctoP*.m:    . . . . . . FOR  SET %ydboctocursor(cursorId,"keys",1,"composite","id6")=$ORDER(^composite(%ydboctocursor(cursorId,"keys",1,"composite","id0"),%ydboctocursor(cursorId,"keys",1,"composite","id1"),%ydboctocursor(cursorId,"keys",1,"composite","id2"),%ydboctocursor(cursorId,"keys",1,"composite","id3"),%ydboctocursor(cursorId,"keys",1,"composite","id4"),%ydboctocursor(cursorId,"keys",1,"composite","id5"),%ydboctocursor(cursorId,"keys",1,"composite","id6"))) QUIT:(%ydboctocursor(cursorId,"keys",1,"composite","id6")="")  DO
_ydboctoP*.m:    . . . . . . . SET %ydboctocursor(cursorId,"keys",1,"composite","id7")=""
_ydboctoP*.m:    . . . . . . . FOR  SET %ydboctocursor(cursorId,"keys",1,"composite","id7")=$ORDER(^composite(%ydboctocursor(cursorId,"keys",1,"composite","id0"),%ydboctocursor(cursorId,"keys",1,"composite","id1"),%ydboctocursor(cursorId,"keys",1,"composite","id2"),%ydboctocursor(cursorId,"keys",1,"composite","id3"),%ydboctocursor(cursorId,"keys",1,"composite","id4"),%ydboctocursor(cursorId,"keys",1,"composite","id5"),%ydboctocursor(cursorId,"keys",1,"composite","id6"),%ydboctocursor(cursorId,"keys",1,"composite","id7"))) QUIT:(%ydboctocursor(cursorId,"keys",1,"composite","id7")="")  DO
_ydboctoP*.m:    . . . . . . . . . SET %ydboctocursor(cursorId,"keys",3,"","",%ydboctocursor(cursorId,"keys",3,"",""))=%ydboctoexpr
_ydboctoP*.m:;; ---------------------------------------------------------
_ydboctoP*.m:;  UPDATE composite SET name = name || 'new1' where id1 > 1;
_ydboctoP*.m:;; ---------------------------------------------------------
_ydboctoP*.m:octoPlan0(cursorId,wrapInTp)
_ydboctoP*.m:octoPlan1(cursorId)
_ydboctoP*.m:    SET %ydboctocursor(cursorId,"RowCount")=0 ; Initialize count of updated records
_ydboctoP*.m:    SET %ydboctocursor(cursorId,"keys",1,"composite","id0")=""
_ydboctoP*.m:    FOR  SET %ydboctocursor(cursorId,"keys",1,"composite","id0")=$ORDER(^composite(%ydboctocursor(cursorId,"keys",1,"composite","id0"))) QUIT:(%ydboctocursor(cursorId,"keys",1,"composite","id0")="")  DO
_ydboctoP*.m:    . SET %ydboctocursor(cursorId,"keys",1,"composite","id1")=""
_ydboctoP*.m:    . FOR  SET %ydboctocursor(cursorId,"keys",1,"composite","id1")=$ORDER(^composite(%ydboctocursor(cursorId,"keys",1,"composite","id0"),%ydboctocursor(cursorId,"keys",1,"composite","id1"))) QUIT:(%ydboctocursor(cursorId,"keys",1,"composite","id1")="")  DO
_ydboctoP*.m:    . . SET %ydboctocursor(cursorId,"keys",1,"composite","id2")=""
_ydboctoP*.m:    . . FOR  SET %ydboctocursor(cursorId,"keys",1,"composite","id2")=$ORDER(^composite(%ydboctocursor(cursorId,"keys",1,"composite","id0"),%ydboctocursor(cursorId,"keys",1,"composite","id1"),%ydboctocursor(cursorId,"keys",1,"composite","id2"))) QUIT:(%ydboctocursor(cursorId,"keys",1,"composite","id2")="")  DO
_ydboctoP*.m:    . . . SET %ydboctocursor(cursorId,"keys",1,"composite","id3")=""
_ydboctoP*.m:    . . . FOR  SET %ydboctocursor(cursorId,"keys",1,"composite","id3")=$ORDER(^composite(%ydboctocursor(cursorId,"keys",1,"composite","id0"),%ydboctocursor(cursorId,"keys",1,"composite","id1"),%ydboctocursor(cursorId,"keys",1,"composite","id2"),%ydboctocursor(cursorId,"keys",1,"composite","id3"))) QUIT:(%ydboctocursor(cursorId,"keys",1,"composite","id3")="")  DO
_ydboctoP*.m:    . . . . SET %ydboctocursor(cursorId,"keys",1,"composite","id4")=""
_ydboctoP*.m:    . . . . FOR  SET %ydboctocursor(cursorId,"keys",1,"composite","id4")=$ORDER(^composite(%ydboctocursor(cursorId,"keys",1,"composite","id0"),%ydboctocursor(cursorId,"keys",1,"composite","id1"),%ydboctocursor(cursorId,"keys",1,"composite","id2"),%ydboctocursor(cursorId,"keys",1,"composite","id3"),%ydboctocursor(cursorId,"keys",1,"composite","id4"))) QUIT:(%ydboctocursor(cursorId,"keys",1,"composite","id4")="")  DO
_ydboctoP*.m:    . . . . . SET %ydboctocursor(cursorId,"keys",1,"composite","id5")=""
_ydboctoP*.m:    . . . . . FOR  SET %ydboctocursor(cursorId,"keys",1,"composite","id5")=$ORDER(^composite(%ydboctocursor(cursorId,"keys",1,"composite","id0"),%ydboctocursor(cursorId,"keys",1,"composite","id1"),%ydboctocursor(cursorId,"keys",1,"composite","id2"),%ydboctocursor(cursorId,"keys",1,"composite","id3"),%ydboctocursor(cursorId,"keys",1,"composite","id4"),%ydboctocursor(cursorId,"keys",1,"composite","id5"))) QUIT:(%ydboctocursor(cursorId,"keys",1,"composite","id5")="")  DO
_ydboctoP*.m:    . . . . . . SET %ydboctocursor(cursorId,"keys",1,"composite","id6")=""
_ydboctoP*.m:    . . . . . . FOR  SET %ydboctocursor(cursorId,"keys",1,"composite","id6")=$ORDER(^composite(%ydboctocursor(cursorId,"keys",1,"composite","id0"),%ydboctocursor(cursorId,"keys",1,"composite","id1"),%ydboctocursor(cursorId,"keys",1,"composite","id2"),%ydboctocursor(cursorId,"keys",1,"composite","id3"),%ydboctocursor(cursorId,"keys",1,"composite","id4"),%ydboctocursor(cursorId,"keys",1,"composite","id5"),%ydboctocursor(cursorId,"keys",1,"composite","id6"))) QUIT:(%ydboctocursor(cursorId,"keys",1,"composite","id6")="")  DO
_ydboctoP*.m:    . . . . . . . SET %ydboctocursor(cursorId,"keys",1,"composite","id7")=""
_ydboctoP*.m:    . . . . . . . FOR  SET %ydboctocursor(cursorId,"keys",1,"composite","id7")=$ORDER(^composite(%ydboctocursor(cursorId,"keys",1,"composite","id0"),%ydboctocursor(cursorId,"keys",1,"composite","id1"),%ydboctocursor(cursorId,"keys",1,"composite","id2"),%ydboctocursor(cursorId,"keys",1,"composite","id3"),%ydboctocursor(cursorId,"keys",1,"composite","id4"),%ydboctocursor(cursorId,"keys",1,"composite","id5"),%ydboctocursor(cursorId,"keys",1,"composite","id6"),%ydboctocursor(cursorId,"keys",1,"composite","id7"))) QUIT:(%ydboctocursor(cursorId,"keys",1,"composite","id7")="")  DO
_ydboctoP*.m:    . . . . . . . . . IF $INCREMENT(%ydboctocursor(cursorId,"RowCount")) ; Increment count of updated records
_ydboctoX*.m:;; ---------------------------------------------------------
_ydboctoX*.m:;; Generated M code maintains cross reference for name column in composite table
_ydboctoX*.m:;; ---------------------------------------------------------
