
select * from nonexistanttable;

INDEX fake_index "^notaglobal(""fake_index"",fields(""name""),fields(""age""),keys(""ID""))";

select * from names;
[ INFO] PATH:LINENUM DATE TIME: INFO_LOADED_CONFIG: Loaded config from $PWD/octo.conf
[ INFO] PATH:LINENUM DATE TIME: INFO_RECORDING_ENV_VARS: # Recording pertinent ydb_* env var values at process startup
[ERROR] PATH:LINENUM DATE TIME: ERR_UNKNOWN_TABLE: Unknown table: nonexistanttable
LINE 2:1: select * from nonexistanttable;
                        ^^^^^^^^^^^^^^^^
[ INFO] PATH:LINENUM DATE TIME: INFO_PARSING_DONE: Parsing done for SQL command [select * from nonexistanttable;]
[ INFO] PATH:LINENUM DATE TIME: INFO_RETURNING_FAILURE: Returning failure from run_query
[ WARN] PATH:LINENUM DATE TIME: ERR_FEATURE_NOT_IMPLEMENTED: Feature not implemented: INDEX statements
[ INFO] PATH:LINENUM DATE TIME: INFO_PARSING_DONE: Parsing done for SQL command [INDEX fake_index "^notaglobal(""fake_index"",fields(""name""),fields(""age""),keys(""ID""))";]
[ INFO] PATH:LINENUM DATE TIME: INFO_CURSOR: Generating SQL for CURSOR_NUM
[ INFO] PATH:LINENUM DATE TIME: INFO_EXECUTION_DONE: SQL query/command execution complete
[ INFO] PATH:LINENUM DATE TIME: INFO_PARSING_DONE: Parsing done for SQL command [select * from names;]
[ INFO] PATH:LINENUM DATE TIME: INFO_CURSOR: Generating SQL for CURSOR_NUM
[ INFO] PATH:LINENUM DATE TIME: INFO_M_PLAN: Generating M file [$PWD/_ydboctoP*.m] (to execute SQL query)
[DEBUG] PATH:LINENUM DATE TIME: INFO_CURPLAN: LOGICAL_PLAN BEFORE optimize_logical_plan() follows 
LP_SELECT_QUERY: 
  LP_PROJECT: 
    LP_COLUMN_LIST: 
      LP_WHERE: 
        LP_COLUMN_ALIAS: names(1).id
        LP_COLUMN_LIST_ALIAS: 
        - type: INTEGER_LITERAL
        - alias: id
      LP_WHERE: 
        LP_COLUMN_ALIAS: names(1).firstname
        LP_COLUMN_LIST_ALIAS: 
        - type: STRING_LITERAL
        - alias: firstname
      LP_WHERE: 
        LP_COLUMN_ALIAS: names(1).lastname
        LP_COLUMN_LIST_ALIAS: 
        - type: STRING_LITERAL
        - alias: lastname
    LP_SELECT: 
      LP_TABLE_JOIN: 
        LP_TABLE: names(1)
      LP_CRITERIA: 
        LP_KEYS: 
        LP_SELECT_OPTIONS: 
          LP_WHERE: 
          LP_SELECT_MORE_OPTIONS: 
            LP_KEYWORDS: 
  LP_OUTPUT: 
    LP_KEY: 
    - table_name: 
    - column_name: 
    - unique_id: 3
    - method: LP_KEY_ADVANCE
    - xref_key: false
    - uses_xref_key: false

[DEBUG] PATH:LINENUM DATE TIME: INFO_CURPLAN: LOGICAL_PLAN AFTER optimize_logical_plan() follows 
LP_SELECT_QUERY: 
  LP_PROJECT: 
    LP_COLUMN_LIST: 
      LP_WHERE: 
        LP_COLUMN_ALIAS: names(1).id
        LP_COLUMN_LIST_ALIAS: 
        - type: INTEGER_LITERAL
        - alias: id
      LP_WHERE: 
        LP_COLUMN_ALIAS: names(1).firstname
        LP_COLUMN_LIST_ALIAS: 
        - type: STRING_LITERAL
        - alias: firstname
      LP_WHERE: 
        LP_COLUMN_ALIAS: names(1).lastname
        LP_COLUMN_LIST_ALIAS: 
        - type: STRING_LITERAL
        - alias: lastname
    LP_SELECT: 
      LP_TABLE_JOIN: 
        LP_TABLE: names(1)
      LP_CRITERIA: 
        LP_KEYS: 
          LP_KEY: 
          - table_name: names
          - column_name: id
          - unique_id: 1
          - method: LP_KEY_ADVANCE
          - xref_key: false
          - uses_xref_key: false
        LP_SELECT_OPTIONS: 
          LP_WHERE: 
          LP_SELECT_MORE_OPTIONS: 
            LP_KEYWORDS: 
  LP_OUTPUT: 
    LP_KEY: 
    - table_name: 
    - column_name: 
    - unique_id: 3
    - method: LP_KEY_ADVANCE
    - xref_key: false
    - uses_xref_key: false

[ INFO] PATH:LINENUM DATE TIME: INFO_ENTERING_FUNCTION: Entering print_temporary_table
id|firstname|lastname
0|Zero|Cool
1|Acid|Burn
2|Cereal|Killer
3|Lord|Nikon
4|Joey|
5|Zero|Cool
(6 rows)
[ INFO] PATH:LINENUM DATE TIME: INFO_EXECUTION_DONE: SQL query/command execution complete
[ INFO] PATH:LINENUM DATE TIME: INFO_PARSING_DONE: Parsing done for SQL command []
