
-- TWI08 : Multiple plans resulting from WHERE IN usage do not nest but instead thread

SELECT firstName FROM names WHERE firstName IN ('Zero', 'Acid', 'Cool');

firstname
Acid
Zero
Zero
(3 rows)
;; This is a generated file; do not modify. Generated M code corresponds to below SQL query
;; ---------------------------------------------------------
;  SELECT firstName FROM names WHERE firstName IN ('Zero', 'Acid', 'Cool');
;; ---------------------------------------------------------

octoPlan0(cursorId,wrapInTp)
    DO:'$GET(^%ydbAIMOctoCache("names","firstname","completed?")) xrefPlan^%ydboctoXbbukBmYFvqWyiOgMrJ5B3E(cursorId)
    NEW %ydboctop,%ydboctoexpr
    TSTART:wrapInTp ():(serial)
    DO octoPlan1(cursorId)
    TCOMMIT:wrapInTp
    QUIT

octoPlan1(cursorId)
    NEW %ydboctoz,%ydboctoexpr KILL %ydboctocursor(cursorId,"keys",3,"","")
    NEW %ydboctoin0
    DO
    . SET %ydboctoexpr=$GET(%ydboctocursor(cursorId,"parameters",1))
    SET %ydboctoin0(%ydboctoexpr)=""
    DO
    . SET %ydboctoexpr=$GET(%ydboctocursor(cursorId,"parameters",2))
    SET %ydboctoin0(%ydboctoexpr)=""
    DO
    . SET %ydboctoexpr=$GET(%ydboctocursor(cursorId,"parameters",3))
    SET %ydboctoin0(%ydboctoexpr)=""
    SET %ydboctoin0="" FOR  DO:$DATA(%ydboctoin0(%ydboctoin0))  SET %ydboctoin0=$ORDER(%ydboctoin0(%ydboctoin0)) QUIT:""=%ydboctoin0
    . SET %ydboctoexpr=%ydboctoin0
    . SET %ydboctocursor(cursorId,"keys",1,"names","firstname")=%ydboctoexpr IF '$ZYISSQLNULL(%ydboctocursor(cursorId,"keys",1,"names","firstname")) IF $DATA(^%ydbAIMDXtoXI8zgdGIqUuCoYeqwF6(1,%ydboctocursor(cursorId,"keys",1,"names","firstname"))) DO
    . . SET %ydboctocursor(cursorId,"keys",1,"names","id")=""
    . . FOR  SET %ydboctocursor(cursorId,"keys",1,"names","id")=$ORDER(^%ydbAIMDXtoXI8zgdGIqUuCoYeqwF6(1,%ydboctocursor(cursorId,"keys",1,"names","firstname"),%ydboctocursor(cursorId,"keys",1,"names","id"))) QUIT:(%ydboctocursor(cursorId,"keys",1,"names","id")="")  DO
    . . . SET %ydboctoexpr=1
    . . . DO:%ydboctoexpr
    . . . . SET:1&$INCREMENT(%ydboctocursor(cursorId,"keys",3,"","")) %ydboctoz=42
    . . . . SET %ydboctoexpr=%ydboctocursor(cursorId,"keys",1,"names","firstname")
    . . . . SET %ydboctoexpr=$$str2mval^%ydboctoplanhelpers(%ydboctoexpr)
    . . . . SET %ydboctocursor(cursorId,"keys",3,"","",%ydboctocursor(cursorId,"keys",3,"",""))=%ydboctoexpr
    ZKILL %ydboctocursor(cursorId,"keys",1,"names","id")
    ZKILL %ydboctocursor(cursorId,"keys",1,"names","firstname")
    QUIT
