
-- TWI03 : where IN references grandparent query

SELECT *
FROM names a
WHERE a.firstName IN (
    SELECT b.firstName
    FROM names b
    WHERE b.id IN (SELECT c.id
        FROM names c
        WHERE c.id = a.id)
);

id|firstname|lastname
0|Zero|Cool
1|Acid|Burn
2|Cereal|Killer
3|Lord|Nikon
4|Joey|
5|Zero|Cool
(6 rows)
;; This is a generated file; do not modify. Generated M code corresponds to below SQL query
;; ---------------------------------------------------------
;  SELECT *
;  FROM names a
;  WHERE a.firstName IN (
;      SELECT b.firstName
;      FROM names b
;      WHERE b.id IN (SELECT c.id
;          FROM names c
;          WHERE c.id = a.id)
;  );
;; ---------------------------------------------------------

octoPlan0(cursorId,wrapInTp)
    NEW %ydboctop,%ydboctoexpr
    TSTART:wrapInTp ():(serial)
    DO octoPlan1(cursorId)
    TCOMMIT:wrapInTp
    QUIT

octoPlan1(cursorId)
    NEW %ydboctoz,%ydboctoexpr KILL %ydboctocursor(cursorId,"keys",9,"","")
    SET %ydboctocursor(cursorId,"keys",1,"names","id")=""
    FOR  SET %ydboctocursor(cursorId,"keys",1,"names","id")=$ORDER(^names(%ydboctocursor(cursorId,"keys",1,"names","id"))) QUIT:(%ydboctocursor(cursorId,"keys",1,"names","id")="")  DO
    . SET %ydboctoexpr=1
    . SET %ydboctoexpr=$PIECE($GET(^names(%ydboctocursor(cursorId,"keys",1,"names","id"))),"|",1) SET:(""=%ydboctoexpr) %ydboctoexpr=$ZYSQLNULL
    . SET %ydboctoexpr(1)=%ydboctoexpr
    . SET %ydboctoexpr=$SELECT($ZYISSQLNULL(%ydboctoexpr(1)):$ZYSQLNULL,$$InvokeOctoPlan^%ydboctoplanhelpers("octoPlan3,"):0,$DATA(%ydboctocursor(cursorId,"keys",8,"","",%ydboctoexpr(1))):1,$DATA(%ydboctocursor(cursorId,"keys",8,"","",$ZYSQLNULL)):$ZYSQLNULL,1:0)
    . DO:%ydboctoexpr
    . . SET:1&$INCREMENT(%ydboctocursor(cursorId,"keys",9,"","")) %ydboctoz=42
    . . SET %ydboctoexpr=%ydboctocursor(cursorId,"keys",1,"names","id")
    . . SET %ydboctoexpr=$$str2mval^%ydboctoplanhelpers(%ydboctoexpr)
    . . SET %ydboctoexpr(0)=%ydboctoexpr
    . . SET %ydboctoexpr=$PIECE($GET(^names(%ydboctocursor(cursorId,"keys",1,"names","id"))),"|",1) SET:(""=%ydboctoexpr) %ydboctoexpr=$ZYSQLNULL
    . . SET %ydboctoexpr=$$str2mval^%ydboctoplanhelpers(%ydboctoexpr)
    . . SET %ydboctoexpr=%ydboctoexpr(0)_%ydboctoexpr
    . . SET %ydboctoexpr(0)=%ydboctoexpr
    . . SET %ydboctoexpr=$PIECE($GET(^names(%ydboctocursor(cursorId,"keys",1,"names","id"))),"|",2) SET:(""=%ydboctoexpr) %ydboctoexpr=$ZYSQLNULL
    . . SET %ydboctoexpr=$$str2mval^%ydboctoplanhelpers(%ydboctoexpr)
    . . SET %ydboctoexpr=%ydboctoexpr(0)_%ydboctoexpr
    . . SET %ydboctocursor(cursorId,"keys",9,"","",%ydboctocursor(cursorId,"keys",9,"",""))=%ydboctoexpr
    ZKILL %ydboctocursor(cursorId,"keys",1,"names","id")
    QUIT

octoPlan2(cursorId)
    NEW %ydboctoz,%ydboctoexpr KILL %ydboctocursor(cursorId,"keys",7,"","")
    DO
    . SET %ydboctoexpr=$SELECT('$DATA(%ydboctocursor(cursorId,"keys",1,"names","id")):$ZYSQLNULL,1:%ydboctocursor(cursorId,"keys",1,"names","id"))
    SET %ydboctocursor(cursorId,"keys",3,"names","id")=%ydboctoexpr IF '$ZYISSQLNULL(%ydboctocursor(cursorId,"keys",3,"names","id")) IF $DATA(^names(%ydboctocursor(cursorId,"keys",3,"names","id"))) DO
    . SET %ydboctoexpr=1
    . DO:%ydboctoexpr
    . . SET %ydboctoexpr=%ydboctocursor(cursorId,"keys",3,"names","id")
    . . IF $INCREMENT(%ydboctocursor(cursorId,"keys",7,"","",%ydboctoexpr))
    ZKILL %ydboctocursor(cursorId,"keys",3,"names","id")
    QUIT

octoPlan3(cursorId)
    NEW %ydboctoz,%ydboctoexpr KILL %ydboctocursor(cursorId,"keys",8,"","")
    SET %ydboctocursor(cursorId,"keys",2,"names","id")=""
    FOR  SET %ydboctocursor(cursorId,"keys",2,"names","id")=$ORDER(^names(%ydboctocursor(cursorId,"keys",2,"names","id"))) QUIT:(%ydboctocursor(cursorId,"keys",2,"names","id")="")  DO
    . SET %ydboctoexpr=1
    . SET %ydboctoexpr=%ydboctocursor(cursorId,"keys",2,"names","id")
    . SET %ydboctoexpr(1)=%ydboctoexpr
    . SET %ydboctoexpr=$SELECT($ZYISSQLNULL(%ydboctoexpr(1)):$ZYSQLNULL,$$InvokeOctoPlan^%ydboctoplanhelpers("octoPlan2,"):0,$DATA(%ydboctocursor(cursorId,"keys",7,"","",%ydboctoexpr(1))):1,$DATA(%ydboctocursor(cursorId,"keys",7,"","",$ZYSQLNULL)):$ZYSQLNULL,1:0)
    . DO:%ydboctoexpr
    . . SET %ydboctoexpr=$PIECE($GET(^names(%ydboctocursor(cursorId,"keys",2,"names","id"))),"|",1) SET:(""=%ydboctoexpr) %ydboctoexpr=$ZYSQLNULL
    . . IF $INCREMENT(%ydboctocursor(cursorId,"keys",8,"","",%ydboctoexpr))
    ZKILL %ydboctocursor(cursorId,"keys",2,"names","id")
    QUIT
