-- TWO17 : WHERE primary_key IS NOT NULL
SELECT id FROM names WHERE id IS NOT NULL;
[DEBUG] PATH:LINENUM DATE TIME: INFO_CURPLAN: LOGICAL_PLAN BEFORE optimize_logical_plan() follows 
LP_SELECT_QUERY: 
  LP_PROJECT: 
    LP_COLUMN_LIST: 
      LP_WHERE: 
        LP_COLUMN_ALIAS: names(1).id
        LP_COLUMN_LIST_ALIAS: 
        - type: INTEGER_LITERAL
        - alias: id
    LP_SELECT: 
      LP_TABLE_JOIN: 
        LP_TABLE: names(1)
      LP_CRITERIA: 
        LP_KEYS: 
        LP_SELECT_OPTIONS: 
          LP_WHERE: 
            LP_BOOLEAN_IS_NOT: 
              LP_COLUMN_ALIAS: names(1).id
              LP_VALUE: ''
          LP_SELECT_MORE_OPTIONS: 
            LP_KEYWORDS: 
  LP_OUTPUT: 
    LP_KEY: 
    - table_name: 
    - column_name: 
    - unique_id: 3
    - method: LP_KEY_ADVANCE
    - xref_key: false
    - uses_xref_key: false

[DEBUG] PATH:LINENUM DATE TIME: INFO_CURPLAN: LOGICAL_PLAN AFTER optimize_logical_plan() follows 
LP_SELECT_QUERY: 
  LP_PROJECT: 
    LP_COLUMN_LIST: 
      LP_WHERE: 
        LP_COLUMN_ALIAS: names(1).id
        LP_COLUMN_LIST_ALIAS: 
        - type: INTEGER_LITERAL
        - alias: id
    LP_SELECT: 
      LP_TABLE_JOIN: 
        LP_TABLE: names(1)
      LP_CRITERIA: 
        LP_KEYS: 
          LP_KEY: 
          - table_name: names
          - column_name: id
          - unique_id: 1
          - method: LP_KEY_ADVANCE
          - xref_key: false
          - uses_xref_key: false
        LP_SELECT_OPTIONS: 
          LP_WHERE: 
          LP_SELECT_MORE_OPTIONS: 
            LP_KEYWORDS: 
  LP_OUTPUT: 
    LP_KEY: 
    - table_name: 
    - column_name: 
    - unique_id: 3
    - method: LP_KEY_ADVANCE
    - xref_key: false
    - uses_xref_key: false

id
0
1
2
3
4
5
(6 rows)
# Make sure that there is no ZYSQLNULL check present
