# Load %YDBJNLF DDL Into Octo
# Extract journals
# Run queries on journal files
-- TYIO01 : Test %YDBJNLF Octo functionality

-- A lot of the tests just do COUNT etc as the contents of the data contains
--    user ids, machine names, and process ids, which vary.

\d;
SELECT label, jnlfilename, dbfilename FROM YDBJNLF;
SELECT COUNT(*) FROM YDBJNLFACTIVE;
SELECT COUNT(*) FROM YDBJNLFCOMPLETE;
SELECT * FROM YDBJNLFOPCOUNT WHERE occurs > 0;
SELECT RECTYPE, TBLTYPE FROM YDBJNLFRECTYPE;
-- This is the most common query that users will perform; rest are sanity checks for other tables
SELECT op,gvname,gvref,nodeval FROM YDBJNLFTYPE1 WHERE gvname='^pastas';
SELECT op,gvname,gvref,nodeval FROM YDBJNLFTYPE1 WHERE gvref='^%ydboctoocto("oid")';
SELECT op FROM YDBJNLFTYPE10;
SELECT op FROM YDBJNLFTYPE4;
SELECT op FROM YDBJNLFTYPE5;
SELECT op FROM YDBJNLFTYPE6;
Schema|Name|Type|Owner
public|information_schema.tables|table|octo
public|names|table|octo
public|names4|table|octo
public|nameswithages|table|octo
public|octoonerowtable|table|octo
public|pastas|table|octo
public|pg_aggregate|table|octo
public|pg_am|table|octo
public|pg_attrdef|table|octo
public|pg_attribute|table|octo
public|pg_catalog.pg_aggregate|table|octo
public|pg_catalog.pg_am|table|octo
public|pg_catalog.pg_attrdef|table|octo
public|pg_catalog.pg_attribute|table|octo
public|pg_catalog.pg_class|table|octo
public|pg_catalog.pg_constraint|table|octo
public|pg_catalog.pg_conversion|table|octo
public|pg_catalog.pg_database|table|octo
public|pg_catalog.pg_depend|table|octo
public|pg_catalog.pg_description|table|octo
public|pg_catalog.pg_enum|table|octo
public|pg_catalog.pg_index|table|octo
public|pg_catalog.pg_inherits|table|octo
public|pg_catalog.pg_language|table|octo
public|pg_catalog.pg_namespace|table|octo
public|pg_catalog.pg_policies|table|octo
public|pg_catalog.pg_proc|table|octo
public|pg_catalog.pg_range|table|octo
public|pg_catalog.pg_rewrite|table|octo
public|pg_catalog.pg_roles|table|octo
public|pg_catalog.pg_settings|table|octo
public|pg_catalog.pg_shdescription|table|octo
public|pg_catalog.pg_tablespace|table|octo
public|pg_catalog.pg_trigger|table|octo
public|pg_catalog.pg_type|table|octo
public|pg_catalog.pg_user|table|octo
public|pg_class|table|octo
public|pg_constraint|table|octo
public|pg_conversion|table|octo
public|pg_database|table|octo
public|pg_depend|table|octo
public|pg_description|table|octo
public|pg_enum|table|octo
public|pg_index|table|octo
public|pg_inherits|table|octo
public|pg_language|table|octo
public|pg_namespace|table|octo
public|pg_policies|table|octo
public|pg_proc|table|octo
public|pg_range|table|octo
public|pg_rewrite|table|octo
public|pg_roles|table|octo
public|pg_settings|table|octo
public|pg_shdescription|table|octo
public|pg_tablespace|table|octo
public|pg_trigger|table|octo
public|pg_type|table|octo
public|pg_user|table|octo
public|ydbjnlf|table|octo
public|ydbjnlfactive|table|octo
public|ydbjnlfcomplete|table|octo
public|ydbjnlfopcount|table|octo
public|ydbjnlfrectype|table|octo
public|ydbjnlftype1|table|octo
public|ydbjnlftype10|table|octo
public|ydbjnlftype11|table|octo
public|ydbjnlftype12|table|octo
public|ydbjnlftype13|table|octo
public|ydbjnlftype14|table|octo
public|ydbjnlftype2|table|octo
public|ydbjnlftype3|table|octo
public|ydbjnlftype4|table|octo
public|ydbjnlftype5|table|octo
public|ydbjnlftype6|table|octo
public|ydbjnlftype7|table|octo
public|ydbjnlftype8|table|octo
public|ydbjnlftype9|table|octo
(77 rows)
label|jnlfilename|dbfilename
default_region_label|$PWD/default.mjl|$PWD/mumps.dat
octo_region_label|$PWD/octo.mjl|$PWD/octo.dat
(2 rows)
count(*)
0
(1 row)
count(*)
8
(1 row)
label|opcode|occurs
default_region_label|EOF|1
default_region_label|EPOCH|3
default_region_label|PBLK|4
default_region_label|PFIN|3
default_region_label|PINI|3
default_region_label|SET|27
octo_region_label|EOF|1
octo_region_label|EPOCH|4
octo_region_label|INCTN|8
octo_region_label|PBLK|20
octo_region_label|PFIN|5
octo_region_label|PINI|5
octo_region_label|SET|4526
octo_region_label|TCOM|54
octo_region_label|TSET|54
(15 rows)
rectype|tbltype
AIMG|TYPE5
ALIGN|TYPE4
EOF|TYPE6
EPOCH|TYPE7
FKILL|TYPE1
FSET|TYPE1
FZKILL|TYPE1
GKILL|TYPE1
GSET|TYPE1
GZKILL|TYPE1
INCTN|TYPE8
KILL|TYPE1
NULL|TYPE9
PBLK|TYPE5
PFIN|TYPE4
PINI|TYPE10
SET|TYPE1
TCOM|TYPE11
TKILL|TYPE1
TLGTRIG|TYPE3
TSET|TYPE1
TSTART|TYPE12
TZKILL|TYPE1
TZTRIG|TYPE1
TZTWORM|TYPE2
UKILL|TYPE1
ULGTRIG|TYPE3
USET|TYPE1
UZKILL|TYPE1
UZTRIG|TYPE1
UZTWORM|TYPE2
ZKILL|TYPE1
ZTCOM|TYPE13
ZTRIG|TYPE1
ZTSTART|TYPE14
ZTWORM|TYPE2
(36 rows)
op|gvname|gvref|nodeval
SET|^pastas|^pastas(0)|"Fettucine"
SET|^pastas|^pastas(1)|"Cavatelli"
SET|^pastas|^pastas(2)|"Shells"
SET|^pastas|^pastas(3)|"Linguini"
SET|^pastas|^pastas(4)|"Spaghetti"
SET|^pastas|^pastas(5)|"Rotini"
SET|^pastas|^pastas(6)|"Penne"
SET|^pastas|^pastas(7)|"Orechiette"
SET|^pastas|^pastas(8)|"Lasagna"
SET|^pastas|^pastas(9)|"Pappardelle"
(10 rows)
op|gvname|gvref|nodeval
SET|^%ydboctoocto|^%ydboctoocto("oid")|"1"
SET|^%ydboctoocto|^%ydboctoocto("oid")|"2"
SET|^%ydboctoocto|^%ydboctoocto("oid")|"3"
SET|^%ydboctoocto|^%ydboctoocto("oid")|"4"
SET|^%ydboctoocto|^%ydboctoocto("oid")|"5"
SET|^%ydboctoocto|^%ydboctoocto("oid")|"6"
SET|^%ydboctoocto|^%ydboctoocto("oid")|"7"
SET|^%ydboctoocto|^%ydboctoocto("oid")|"8"
SET|^%ydboctoocto|^%ydboctoocto("oid")|"9"
SET|^%ydboctoocto|^%ydboctoocto("oid")|"10"
SET|^%ydboctoocto|^%ydboctoocto("oid")|"11"
SET|^%ydboctoocto|^%ydboctoocto("oid")|"12"
SET|^%ydboctoocto|^%ydboctoocto("oid")|"13"
SET|^%ydboctoocto|^%ydboctoocto("oid")|"14"
SET|^%ydboctoocto|^%ydboctoocto("oid")|"15"
SET|^%ydboctoocto|^%ydboctoocto("oid")|"16"
SET|^%ydboctoocto|^%ydboctoocto("oid")|"17"
SET|^%ydboctoocto|^%ydboctoocto("oid")|"18"
SET|^%ydboctoocto|^%ydboctoocto("oid")|"19"
SET|^%ydboctoocto|^%ydboctoocto("oid")|"20"
SET|^%ydboctoocto|^%ydboctoocto("oid")|"21"
SET|^%ydboctoocto|^%ydboctoocto("oid")|"22"
SET|^%ydboctoocto|^%ydboctoocto("oid")|"23"
SET|^%ydboctoocto|^%ydboctoocto("oid")|"24"
SET|^%ydboctoocto|^%ydboctoocto("oid")|"25"
SET|^%ydboctoocto|^%ydboctoocto("oid")|"26"
SET|^%ydboctoocto|^%ydboctoocto("oid")|"27"
SET|^%ydboctoocto|^%ydboctoocto("oid")|"28"
SET|^%ydboctoocto|^%ydboctoocto("oid")|"29"
SET|^%ydboctoocto|^%ydboctoocto("oid")|"30"
SET|^%ydboctoocto|^%ydboctoocto("oid")|"31"
SET|^%ydboctoocto|^%ydboctoocto("oid")|"32"
SET|^%ydboctoocto|^%ydboctoocto("oid")|"33"
SET|^%ydboctoocto|^%ydboctoocto("oid")|"34"
SET|^%ydboctoocto|^%ydboctoocto("oid")|"35"
SET|^%ydboctoocto|^%ydboctoocto("oid")|"36"
SET|^%ydboctoocto|^%ydboctoocto("oid")|"37"
SET|^%ydboctoocto|^%ydboctoocto("oid")|"38"
SET|^%ydboctoocto|^%ydboctoocto("oid")|"39"
SET|^%ydboctoocto|^%ydboctoocto("oid")|"40"
SET|^%ydboctoocto|^%ydboctoocto("oid")|"41"
SET|^%ydboctoocto|^%ydboctoocto("oid")|"42"
SET|^%ydboctoocto|^%ydboctoocto("oid")|"43"
SET|^%ydboctoocto|^%ydboctoocto("oid")|"44"
SET|^%ydboctoocto|^%ydboctoocto("oid")|"45"
SET|^%ydboctoocto|^%ydboctoocto("oid")|"46"
SET|^%ydboctoocto|^%ydboctoocto("oid")|"47"
SET|^%ydboctoocto|^%ydboctoocto("oid")|"48"
SET|^%ydboctoocto|^%ydboctoocto("oid")|"49"
SET|^%ydboctoocto|^%ydboctoocto("oid")|"50"
SET|^%ydboctoocto|^%ydboctoocto("oid")|"51"
SET|^%ydboctoocto|^%ydboctoocto("oid")|"52"
SET|^%ydboctoocto|^%ydboctoocto("oid")|"53"
SET|^%ydboctoocto|^%ydboctoocto("oid")|"54"
SET|^%ydboctoocto|^%ydboctoocto("oid")|"55"
SET|^%ydboctoocto|^%ydboctoocto("oid")|"56"
SET|^%ydboctoocto|^%ydboctoocto("oid")|"57"
SET|^%ydboctoocto|^%ydboctoocto("oid")|"58"
SET|^%ydboctoocto|^%ydboctoocto("oid")|"59"
SET|^%ydboctoocto|^%ydboctoocto("oid")|"60"
SET|^%ydboctoocto|^%ydboctoocto("oid")|"61"
SET|^%ydboctoocto|^%ydboctoocto("oid")|"62"
SET|^%ydboctoocto|^%ydboctoocto("oid")|"63"
SET|^%ydboctoocto|^%ydboctoocto("oid")|"64"
SET|^%ydboctoocto|^%ydboctoocto("oid")|"65"
SET|^%ydboctoocto|^%ydboctoocto("oid")|"66"
SET|^%ydboctoocto|^%ydboctoocto("oid")|"67"
SET|^%ydboctoocto|^%ydboctoocto("oid")|"68"
SET|^%ydboctoocto|^%ydboctoocto("oid")|"69"
SET|^%ydboctoocto|^%ydboctoocto("oid")|"70"
SET|^%ydboctoocto|^%ydboctoocto("oid")|"71"
SET|^%ydboctoocto|^%ydboctoocto("oid")|"72"
SET|^%ydboctoocto|^%ydboctoocto("oid")|"73"
SET|^%ydboctoocto|^%ydboctoocto("oid")|"74"
SET|^%ydboctoocto|^%ydboctoocto("oid")|"75"
SET|^%ydboctoocto|^%ydboctoocto("oid")|"76"
SET|^%ydboctoocto|^%ydboctoocto("oid")|"77"
SET|^%ydboctoocto|^%ydboctoocto("oid")|"78"
SET|^%ydboctoocto|^%ydboctoocto("oid")|"79"
SET|^%ydboctoocto|^%ydboctoocto("oid")|"80"
SET|^%ydboctoocto|^%ydboctoocto("oid")|"81"
SET|^%ydboctoocto|^%ydboctoocto("oid")|"82"
SET|^%ydboctoocto|^%ydboctoocto("oid")|"83"
SET|^%ydboctoocto|^%ydboctoocto("oid")|"84"
SET|^%ydboctoocto|^%ydboctoocto("oid")|"85"
SET|^%ydboctoocto|^%ydboctoocto("oid")|"86"
SET|^%ydboctoocto|^%ydboctoocto("oid")|"87"
SET|^%ydboctoocto|^%ydboctoocto("oid")|"88"
SET|^%ydboctoocto|^%ydboctoocto("oid")|"89"
SET|^%ydboctoocto|^%ydboctoocto("oid")|"90"
SET|^%ydboctoocto|^%ydboctoocto("oid")|"91"
SET|^%ydboctoocto|^%ydboctoocto("oid")|"92"
SET|^%ydboctoocto|^%ydboctoocto("oid")|"93"
SET|^%ydboctoocto|^%ydboctoocto("oid")|"94"
SET|^%ydboctoocto|^%ydboctoocto("oid")|"95"
SET|^%ydboctoocto|^%ydboctoocto("oid")|"96"
SET|^%ydboctoocto|^%ydboctoocto("oid")|"97"
SET|^%ydboctoocto|^%ydboctoocto("oid")|"98"
SET|^%ydboctoocto|^%ydboctoocto("oid")|"99"
SET|^%ydboctoocto|^%ydboctoocto("oid")|"100"
SET|^%ydboctoocto|^%ydboctoocto("oid")|"101"
SET|^%ydboctoocto|^%ydboctoocto("oid")|"102"
SET|^%ydboctoocto|^%ydboctoocto("oid")|"103"
SET|^%ydboctoocto|^%ydboctoocto("oid")|"104"
SET|^%ydboctoocto|^%ydboctoocto("oid")|"105"
SET|^%ydboctoocto|^%ydboctoocto("oid")|"106"
SET|^%ydboctoocto|^%ydboctoocto("oid")|"107"
SET|^%ydboctoocto|^%ydboctoocto("oid")|"108"
SET|^%ydboctoocto|^%ydboctoocto("oid")|"109"
SET|^%ydboctoocto|^%ydboctoocto("oid")|"110"
SET|^%ydboctoocto|^%ydboctoocto("oid")|"111"
SET|^%ydboctoocto|^%ydboctoocto("oid")|"112"
SET|^%ydboctoocto|^%ydboctoocto("oid")|"113"
SET|^%ydboctoocto|^%ydboctoocto("oid")|"114"
SET|^%ydboctoocto|^%ydboctoocto("oid")|"115"
SET|^%ydboctoocto|^%ydboctoocto("oid")|"116"
SET|^%ydboctoocto|^%ydboctoocto("oid")|"117"
SET|^%ydboctoocto|^%ydboctoocto("oid")|"118"
SET|^%ydboctoocto|^%ydboctoocto("oid")|"119"
SET|^%ydboctoocto|^%ydboctoocto("oid")|"120"
SET|^%ydboctoocto|^%ydboctoocto("oid")|"121"
SET|^%ydboctoocto|^%ydboctoocto("oid")|"122"
SET|^%ydboctoocto|^%ydboctoocto("oid")|"123"
SET|^%ydboctoocto|^%ydboctoocto("oid")|"124"
SET|^%ydboctoocto|^%ydboctoocto("oid")|"125"
SET|^%ydboctoocto|^%ydboctoocto("oid")|"126"
SET|^%ydboctoocto|^%ydboctoocto("oid")|"127"
SET|^%ydboctoocto|^%ydboctoocto("oid")|"128"
SET|^%ydboctoocto|^%ydboctoocto("oid")|"129"
SET|^%ydboctoocto|^%ydboctoocto("oid")|"130"
SET|^%ydboctoocto|^%ydboctoocto("oid")|"131"
SET|^%ydboctoocto|^%ydboctoocto("oid")|"132"
SET|^%ydboctoocto|^%ydboctoocto("oid")|"133"
SET|^%ydboctoocto|^%ydboctoocto("oid")|"134"
SET|^%ydboctoocto|^%ydboctoocto("oid")|"135"
SET|^%ydboctoocto|^%ydboctoocto("oid")|"136"
SET|^%ydboctoocto|^%ydboctoocto("oid")|"137"
SET|^%ydboctoocto|^%ydboctoocto("oid")|"138"
SET|^%ydboctoocto|^%ydboctoocto("oid")|"139"
SET|^%ydboctoocto|^%ydboctoocto("oid")|"140"
SET|^%ydboctoocto|^%ydboctoocto("oid")|"141"
SET|^%ydboctoocto|^%ydboctoocto("oid")|"142"
SET|^%ydboctoocto|^%ydboctoocto("oid")|"143"
SET|^%ydboctoocto|^%ydboctoocto("oid")|"144"
SET|^%ydboctoocto|^%ydboctoocto("oid")|"145"
SET|^%ydboctoocto|^%ydboctoocto("oid")|"146"
SET|^%ydboctoocto|^%ydboctoocto("oid")|"147"
SET|^%ydboctoocto|^%ydboctoocto("oid")|"148"
SET|^%ydboctoocto|^%ydboctoocto("oid")|"149"
SET|^%ydboctoocto|^%ydboctoocto("oid")|"150"
SET|^%ydboctoocto|^%ydboctoocto("oid")|"151"
SET|^%ydboctoocto|^%ydboctoocto("oid")|"152"
SET|^%ydboctoocto|^%ydboctoocto("oid")|"153"
SET|^%ydboctoocto|^%ydboctoocto("oid")|"154"
SET|^%ydboctoocto|^%ydboctoocto("oid")|"155"
SET|^%ydboctoocto|^%ydboctoocto("oid")|"156"
SET|^%ydboctoocto|^%ydboctoocto("oid")|"157"
SET|^%ydboctoocto|^%ydboctoocto("oid")|"158"
SET|^%ydboctoocto|^%ydboctoocto("oid")|"159"
SET|^%ydboctoocto|^%ydboctoocto("oid")|"160"
SET|^%ydboctoocto|^%ydboctoocto("oid")|"161"
SET|^%ydboctoocto|^%ydboctoocto("oid")|"162"
SET|^%ydboctoocto|^%ydboctoocto("oid")|"163"
SET|^%ydboctoocto|^%ydboctoocto("oid")|"164"
SET|^%ydboctoocto|^%ydboctoocto("oid")|"165"
SET|^%ydboctoocto|^%ydboctoocto("oid")|"166"
SET|^%ydboctoocto|^%ydboctoocto("oid")|"167"
SET|^%ydboctoocto|^%ydboctoocto("oid")|"168"
SET|^%ydboctoocto|^%ydboctoocto("oid")|"169"
SET|^%ydboctoocto|^%ydboctoocto("oid")|"170"
SET|^%ydboctoocto|^%ydboctoocto("oid")|"171"
SET|^%ydboctoocto|^%ydboctoocto("oid")|"172"
SET|^%ydboctoocto|^%ydboctoocto("oid")|"173"
SET|^%ydboctoocto|^%ydboctoocto("oid")|"174"
SET|^%ydboctoocto|^%ydboctoocto("oid")|"175"
SET|^%ydboctoocto|^%ydboctoocto("oid")|"176"
SET|^%ydboctoocto|^%ydboctoocto("oid")|"177"
SET|^%ydboctoocto|^%ydboctoocto("oid")|"178"
SET|^%ydboctoocto|^%ydboctoocto("oid")|"179"
SET|^%ydboctoocto|^%ydboctoocto("oid")|"180"
SET|^%ydboctoocto|^%ydboctoocto("oid")|"181"
SET|^%ydboctoocto|^%ydboctoocto("oid")|"182"
SET|^%ydboctoocto|^%ydboctoocto("oid")|"183"
SET|^%ydboctoocto|^%ydboctoocto("oid")|"184"
SET|^%ydboctoocto|^%ydboctoocto("oid")|"185"
SET|^%ydboctoocto|^%ydboctoocto("oid")|"186"
SET|^%ydboctoocto|^%ydboctoocto("oid")|"187"
SET|^%ydboctoocto|^%ydboctoocto("oid")|"188"
SET|^%ydboctoocto|^%ydboctoocto("oid")|"189"
SET|^%ydboctoocto|^%ydboctoocto("oid")|"190"
SET|^%ydboctoocto|^%ydboctoocto("oid")|"191"
SET|^%ydboctoocto|^%ydboctoocto("oid")|"192"
SET|^%ydboctoocto|^%ydboctoocto("oid")|"193"
SET|^%ydboctoocto|^%ydboctoocto("oid")|"194"
SET|^%ydboctoocto|^%ydboctoocto("oid")|"195"
SET|^%ydboctoocto|^%ydboctoocto("oid")|"196"
SET|^%ydboctoocto|^%ydboctoocto("oid")|"197"
SET|^%ydboctoocto|^%ydboctoocto("oid")|"198"
SET|^%ydboctoocto|^%ydboctoocto("oid")|"199"
SET|^%ydboctoocto|^%ydboctoocto("oid")|"200"
SET|^%ydboctoocto|^%ydboctoocto("oid")|"201"
SET|^%ydboctoocto|^%ydboctoocto("oid")|"202"
SET|^%ydboctoocto|^%ydboctoocto("oid")|"203"
SET|^%ydboctoocto|^%ydboctoocto("oid")|"204"
SET|^%ydboctoocto|^%ydboctoocto("oid")|"205"
SET|^%ydboctoocto|^%ydboctoocto("oid")|"206"
SET|^%ydboctoocto|^%ydboctoocto("oid")|"207"
SET|^%ydboctoocto|^%ydboctoocto("oid")|"208"
SET|^%ydboctoocto|^%ydboctoocto("oid")|"209"
SET|^%ydboctoocto|^%ydboctoocto("oid")|"210"
SET|^%ydboctoocto|^%ydboctoocto("oid")|"211"
SET|^%ydboctoocto|^%ydboctoocto("oid")|"212"
SET|^%ydboctoocto|^%ydboctoocto("oid")|"213"
SET|^%ydboctoocto|^%ydboctoocto("oid")|"214"
SET|^%ydboctoocto|^%ydboctoocto("oid")|"215"
SET|^%ydboctoocto|^%ydboctoocto("oid")|"216"
SET|^%ydboctoocto|^%ydboctoocto("oid")|"217"
SET|^%ydboctoocto|^%ydboctoocto("oid")|"218"
SET|^%ydboctoocto|^%ydboctoocto("oid")|"219"
SET|^%ydboctoocto|^%ydboctoocto("oid")|"220"
SET|^%ydboctoocto|^%ydboctoocto("oid")|"221"
SET|^%ydboctoocto|^%ydboctoocto("oid")|"222"
SET|^%ydboctoocto|^%ydboctoocto("oid")|"223"
SET|^%ydboctoocto|^%ydboctoocto("oid")|"224"
SET|^%ydboctoocto|^%ydboctoocto("oid")|"225"
SET|^%ydboctoocto|^%ydboctoocto("oid")|"226"
SET|^%ydboctoocto|^%ydboctoocto("oid")|"227"
SET|^%ydboctoocto|^%ydboctoocto("oid")|"228"
SET|^%ydboctoocto|^%ydboctoocto("oid")|"229"
SET|^%ydboctoocto|^%ydboctoocto("oid")|"230"
SET|^%ydboctoocto|^%ydboctoocto("oid")|"231"
SET|^%ydboctoocto|^%ydboctoocto("oid")|"232"
SET|^%ydboctoocto|^%ydboctoocto("oid")|"233"
SET|^%ydboctoocto|^%ydboctoocto("oid")|"234"
SET|^%ydboctoocto|^%ydboctoocto("oid")|"235"
SET|^%ydboctoocto|^%ydboctoocto("oid")|"236"
SET|^%ydboctoocto|^%ydboctoocto("oid")|"237"
SET|^%ydboctoocto|^%ydboctoocto("oid")|"238"
SET|^%ydboctoocto|^%ydboctoocto("oid")|"239"
SET|^%ydboctoocto|^%ydboctoocto("oid")|"240"
SET|^%ydboctoocto|^%ydboctoocto("oid")|"241"
SET|^%ydboctoocto|^%ydboctoocto("oid")|"242"
SET|^%ydboctoocto|^%ydboctoocto("oid")|"243"
SET|^%ydboctoocto|^%ydboctoocto("oid")|"244"
SET|^%ydboctoocto|^%ydboctoocto("oid")|"245"
SET|^%ydboctoocto|^%ydboctoocto("oid")|"246"
SET|^%ydboctoocto|^%ydboctoocto("oid")|"247"
SET|^%ydboctoocto|^%ydboctoocto("oid")|"248"
SET|^%ydboctoocto|^%ydboctoocto("oid")|"249"
SET|^%ydboctoocto|^%ydboctoocto("oid")|"250"
SET|^%ydboctoocto|^%ydboctoocto("oid")|"251"
SET|^%ydboctoocto|^%ydboctoocto("oid")|"252"
SET|^%ydboctoocto|^%ydboctoocto("oid")|"253"
SET|^%ydboctoocto|^%ydboctoocto("oid")|"254"
SET|^%ydboctoocto|^%ydboctoocto("oid")|"255"
SET|^%ydboctoocto|^%ydboctoocto("oid")|"256"
SET|^%ydboctoocto|^%ydboctoocto("oid")|"257"
SET|^%ydboctoocto|^%ydboctoocto("oid")|"258"
SET|^%ydboctoocto|^%ydboctoocto("oid")|"259"
SET|^%ydboctoocto|^%ydboctoocto("oid")|"260"
SET|^%ydboctoocto|^%ydboctoocto("oid")|"261"
SET|^%ydboctoocto|^%ydboctoocto("oid")|"262"
SET|^%ydboctoocto|^%ydboctoocto("oid")|"263"
SET|^%ydboctoocto|^%ydboctoocto("oid")|"264"
SET|^%ydboctoocto|^%ydboctoocto("oid")|"265"
SET|^%ydboctoocto|^%ydboctoocto("oid")|"266"
SET|^%ydboctoocto|^%ydboctoocto("oid")|"267"
SET|^%ydboctoocto|^%ydboctoocto("oid")|"268"
SET|^%ydboctoocto|^%ydboctoocto("oid")|"269"
SET|^%ydboctoocto|^%ydboctoocto("oid")|"270"
SET|^%ydboctoocto|^%ydboctoocto("oid")|"271"
SET|^%ydboctoocto|^%ydboctoocto("oid")|"272"
SET|^%ydboctoocto|^%ydboctoocto("oid")|"273"
SET|^%ydboctoocto|^%ydboctoocto("oid")|"274"
SET|^%ydboctoocto|^%ydboctoocto("oid")|"275"
SET|^%ydboctoocto|^%ydboctoocto("oid")|"276"
SET|^%ydboctoocto|^%ydboctoocto("oid")|"277"
SET|^%ydboctoocto|^%ydboctoocto("oid")|"278"
SET|^%ydboctoocto|^%ydboctoocto("oid")|"279"
SET|^%ydboctoocto|^%ydboctoocto("oid")|"280"
SET|^%ydboctoocto|^%ydboctoocto("oid")|"281"
SET|^%ydboctoocto|^%ydboctoocto("oid")|"282"
SET|^%ydboctoocto|^%ydboctoocto("oid")|"283"
SET|^%ydboctoocto|^%ydboctoocto("oid")|"284"
SET|^%ydboctoocto|^%ydboctoocto("oid")|"285"
SET|^%ydboctoocto|^%ydboctoocto("oid")|"286"
SET|^%ydboctoocto|^%ydboctoocto("oid")|"287"
SET|^%ydboctoocto|^%ydboctoocto("oid")|"288"
SET|^%ydboctoocto|^%ydboctoocto("oid")|"289"
SET|^%ydboctoocto|^%ydboctoocto("oid")|"290"
SET|^%ydboctoocto|^%ydboctoocto("oid")|"291"
SET|^%ydboctoocto|^%ydboctoocto("oid")|"292"
SET|^%ydboctoocto|^%ydboctoocto("oid")|"293"
SET|^%ydboctoocto|^%ydboctoocto("oid")|"294"
SET|^%ydboctoocto|^%ydboctoocto("oid")|"295"
SET|^%ydboctoocto|^%ydboctoocto("oid")|"296"
SET|^%ydboctoocto|^%ydboctoocto("oid")|"297"
SET|^%ydboctoocto|^%ydboctoocto("oid")|"298"
SET|^%ydboctoocto|^%ydboctoocto("oid")|"299"
SET|^%ydboctoocto|^%ydboctoocto("oid")|"300"
SET|^%ydboctoocto|^%ydboctoocto("oid")|"301"
SET|^%ydboctoocto|^%ydboctoocto("oid")|"302"
SET|^%ydboctoocto|^%ydboctoocto("oid")|"303"
SET|^%ydboctoocto|^%ydboctoocto("oid")|"304"
SET|^%ydboctoocto|^%ydboctoocto("oid")|"305"
SET|^%ydboctoocto|^%ydboctoocto("oid")|"306"
SET|^%ydboctoocto|^%ydboctoocto("oid")|"307"
SET|^%ydboctoocto|^%ydboctoocto("oid")|"308"
SET|^%ydboctoocto|^%ydboctoocto("oid")|"309"
SET|^%ydboctoocto|^%ydboctoocto("oid")|"310"
SET|^%ydboctoocto|^%ydboctoocto("oid")|"311"
SET|^%ydboctoocto|^%ydboctoocto("oid")|"312"
SET|^%ydboctoocto|^%ydboctoocto("oid")|"313"
SET|^%ydboctoocto|^%ydboctoocto("oid")|"314"
SET|^%ydboctoocto|^%ydboctoocto("oid")|"315"
SET|^%ydboctoocto|^%ydboctoocto("oid")|"316"
SET|^%ydboctoocto|^%ydboctoocto("oid")|"317"
SET|^%ydboctoocto|^%ydboctoocto("oid")|"318"
SET|^%ydboctoocto|^%ydboctoocto("oid")|"319"
SET|^%ydboctoocto|^%ydboctoocto("oid")|"320"
SET|^%ydboctoocto|^%ydboctoocto("oid")|"321"
SET|^%ydboctoocto|^%ydboctoocto("oid")|"322"
SET|^%ydboctoocto|^%ydboctoocto("oid")|"323"
SET|^%ydboctoocto|^%ydboctoocto("oid")|"324"
SET|^%ydboctoocto|^%ydboctoocto("oid")|"325"
SET|^%ydboctoocto|^%ydboctoocto("oid")|"326"
SET|^%ydboctoocto|^%ydboctoocto("oid")|"327"
SET|^%ydboctoocto|^%ydboctoocto("oid")|"328"
SET|^%ydboctoocto|^%ydboctoocto("oid")|"329"
SET|^%ydboctoocto|^%ydboctoocto("oid")|"330"
SET|^%ydboctoocto|^%ydboctoocto("oid")|"331"
SET|^%ydboctoocto|^%ydboctoocto("oid")|"332"
SET|^%ydboctoocto|^%ydboctoocto("oid")|"333"
SET|^%ydboctoocto|^%ydboctoocto("oid")|"334"
SET|^%ydboctoocto|^%ydboctoocto("oid")|"335"
SET|^%ydboctoocto|^%ydboctoocto("oid")|"336"
SET|^%ydboctoocto|^%ydboctoocto("oid")|"337"
SET|^%ydboctoocto|^%ydboctoocto("oid")|"338"
SET|^%ydboctoocto|^%ydboctoocto("oid")|"339"
SET|^%ydboctoocto|^%ydboctoocto("oid")|"340"
SET|^%ydboctoocto|^%ydboctoocto("oid")|"341"
SET|^%ydboctoocto|^%ydboctoocto("oid")|"342"
SET|^%ydboctoocto|^%ydboctoocto("oid")|"343"
SET|^%ydboctoocto|^%ydboctoocto("oid")|"344"
SET|^%ydboctoocto|^%ydboctoocto("oid")|"345"
SET|^%ydboctoocto|^%ydboctoocto("oid")|"346"
SET|^%ydboctoocto|^%ydboctoocto("oid")|"347"
SET|^%ydboctoocto|^%ydboctoocto("oid")|"348"
SET|^%ydboctoocto|^%ydboctoocto("oid")|"349"
SET|^%ydboctoocto|^%ydboctoocto("oid")|"350"
SET|^%ydboctoocto|^%ydboctoocto("oid")|"351"
SET|^%ydboctoocto|^%ydboctoocto("oid")|"352"
SET|^%ydboctoocto|^%ydboctoocto("oid")|"353"
SET|^%ydboctoocto|^%ydboctoocto("oid")|"354"
SET|^%ydboctoocto|^%ydboctoocto("oid")|"355"
SET|^%ydboctoocto|^%ydboctoocto("oid")|"356"
SET|^%ydboctoocto|^%ydboctoocto("oid")|"357"
SET|^%ydboctoocto|^%ydboctoocto("oid")|"358"
SET|^%ydboctoocto|^%ydboctoocto("oid")|"359"
SET|^%ydboctoocto|^%ydboctoocto("oid")|"360"
SET|^%ydboctoocto|^%ydboctoocto("oid")|"361"
SET|^%ydboctoocto|^%ydboctoocto("oid")|"362"
SET|^%ydboctoocto|^%ydboctoocto("oid")|"363"
SET|^%ydboctoocto|^%ydboctoocto("oid")|"364"
SET|^%ydboctoocto|^%ydboctoocto("oid")|"365"
SET|^%ydboctoocto|^%ydboctoocto("oid")|"366"
SET|^%ydboctoocto|^%ydboctoocto("oid")|"367"
SET|^%ydboctoocto|^%ydboctoocto("oid")|"368"
SET|^%ydboctoocto|^%ydboctoocto("oid")|"369"
SET|^%ydboctoocto|^%ydboctoocto("oid")|"370"
SET|^%ydboctoocto|^%ydboctoocto("oid")|"371"
SET|^%ydboctoocto|^%ydboctoocto("oid")|"372"
SET|^%ydboctoocto|^%ydboctoocto("oid")|"373"
SET|^%ydboctoocto|^%ydboctoocto("oid")|"374"
SET|^%ydboctoocto|^%ydboctoocto("oid")|"375"
SET|^%ydboctoocto|^%ydboctoocto("oid")|"376"
SET|^%ydboctoocto|^%ydboctoocto("oid")|"377"
SET|^%ydboctoocto|^%ydboctoocto("oid")|"378"
SET|^%ydboctoocto|^%ydboctoocto("oid")|"379"
SET|^%ydboctoocto|^%ydboctoocto("oid")|"380"
SET|^%ydboctoocto|^%ydboctoocto("oid")|"381"
SET|^%ydboctoocto|^%ydboctoocto("oid")|"382"
SET|^%ydboctoocto|^%ydboctoocto("oid")|"383"
SET|^%ydboctoocto|^%ydboctoocto("oid")|"384"
SET|^%ydboctoocto|^%ydboctoocto("oid")|"385"
SET|^%ydboctoocto|^%ydboctoocto("oid")|"386"
SET|^%ydboctoocto|^%ydboctoocto("oid")|"387"
SET|^%ydboctoocto|^%ydboctoocto("oid")|"388"
SET|^%ydboctoocto|^%ydboctoocto("oid")|"389"
SET|^%ydboctoocto|^%ydboctoocto("oid")|"390"
SET|^%ydboctoocto|^%ydboctoocto("oid")|"391"
SET|^%ydboctoocto|^%ydboctoocto("oid")|"392"
SET|^%ydboctoocto|^%ydboctoocto("oid")|"393"
SET|^%ydboctoocto|^%ydboctoocto("oid")|"394"
SET|^%ydboctoocto|^%ydboctoocto("oid")|"395"
SET|^%ydboctoocto|^%ydboctoocto("oid")|"396"
SET|^%ydboctoocto|^%ydboctoocto("oid")|"397"
SET|^%ydboctoocto|^%ydboctoocto("oid")|"398"
SET|^%ydboctoocto|^%ydboctoocto("oid")|"399"
SET|^%ydboctoocto|^%ydboctoocto("oid")|"400"
SET|^%ydboctoocto|^%ydboctoocto("oid")|"401"
SET|^%ydboctoocto|^%ydboctoocto("oid")|"402"
SET|^%ydboctoocto|^%ydboctoocto("oid")|"403"
SET|^%ydboctoocto|^%ydboctoocto("oid")|"404"
SET|^%ydboctoocto|^%ydboctoocto("oid")|"405"
SET|^%ydboctoocto|^%ydboctoocto("oid")|"406"
SET|^%ydboctoocto|^%ydboctoocto("oid")|"407"
SET|^%ydboctoocto|^%ydboctoocto("oid")|"408"
SET|^%ydboctoocto|^%ydboctoocto("oid")|"409"
SET|^%ydboctoocto|^%ydboctoocto("oid")|"410"
SET|^%ydboctoocto|^%ydboctoocto("oid")|"411"
SET|^%ydboctoocto|^%ydboctoocto("oid")|"412"
SET|^%ydboctoocto|^%ydboctoocto("oid")|"413"
SET|^%ydboctoocto|^%ydboctoocto("oid")|"414"
SET|^%ydboctoocto|^%ydboctoocto("oid")|"415"
SET|^%ydboctoocto|^%ydboctoocto("oid")|"416"
SET|^%ydboctoocto|^%ydboctoocto("oid")|"417"
SET|^%ydboctoocto|^%ydboctoocto("oid")|"418"
SET|^%ydboctoocto|^%ydboctoocto("oid")|"419"
SET|^%ydboctoocto|^%ydboctoocto("oid")|"420"
SET|^%ydboctoocto|^%ydboctoocto("oid")|"421"
SET|^%ydboctoocto|^%ydboctoocto("oid")|"422"
SET|^%ydboctoocto|^%ydboctoocto("oid")|"423"
SET|^%ydboctoocto|^%ydboctoocto("oid")|"424"
SET|^%ydboctoocto|^%ydboctoocto("oid")|"425"
SET|^%ydboctoocto|^%ydboctoocto("oid")|"426"
SET|^%ydboctoocto|^%ydboctoocto("oid")|"427"
SET|^%ydboctoocto|^%ydboctoocto("oid")|"428"
SET|^%ydboctoocto|^%ydboctoocto("oid")|"429"
SET|^%ydboctoocto|^%ydboctoocto("oid")|"430"
SET|^%ydboctoocto|^%ydboctoocto("oid")|"431"
SET|^%ydboctoocto|^%ydboctoocto("oid")|"432"
SET|^%ydboctoocto|^%ydboctoocto("oid")|"433"
SET|^%ydboctoocto|^%ydboctoocto("oid")|"434"
SET|^%ydboctoocto|^%ydboctoocto("oid")|"435"
SET|^%ydboctoocto|^%ydboctoocto("oid")|"436"
SET|^%ydboctoocto|^%ydboctoocto("oid")|"437"
SET|^%ydboctoocto|^%ydboctoocto("oid")|"438"
SET|^%ydboctoocto|^%ydboctoocto("oid")|"439"
SET|^%ydboctoocto|^%ydboctoocto("oid")|"440"
SET|^%ydboctoocto|^%ydboctoocto("oid")|"441"
SET|^%ydboctoocto|^%ydboctoocto("oid")|"442"
SET|^%ydboctoocto|^%ydboctoocto("oid")|"443"
SET|^%ydboctoocto|^%ydboctoocto("oid")|"444"
SET|^%ydboctoocto|^%ydboctoocto("oid")|"445"
SET|^%ydboctoocto|^%ydboctoocto("oid")|"446"
SET|^%ydboctoocto|^%ydboctoocto("oid")|"447"
SET|^%ydboctoocto|^%ydboctoocto("oid")|"448"
SET|^%ydboctoocto|^%ydboctoocto("oid")|"449"
SET|^%ydboctoocto|^%ydboctoocto("oid")|"450"
SET|^%ydboctoocto|^%ydboctoocto("oid")|"451"
SET|^%ydboctoocto|^%ydboctoocto("oid")|"452"
SET|^%ydboctoocto|^%ydboctoocto("oid")|"453"
SET|^%ydboctoocto|^%ydboctoocto("oid")|"454"
SET|^%ydboctoocto|^%ydboctoocto("oid")|"455"
SET|^%ydboctoocto|^%ydboctoocto("oid")|"456"
SET|^%ydboctoocto|^%ydboctoocto("oid")|"457"
SET|^%ydboctoocto|^%ydboctoocto("oid")|"458"
SET|^%ydboctoocto|^%ydboctoocto("oid")|"459"
SET|^%ydboctoocto|^%ydboctoocto("oid")|"460"
SET|^%ydboctoocto|^%ydboctoocto("oid")|"461"
SET|^%ydboctoocto|^%ydboctoocto("oid")|"462"
SET|^%ydboctoocto|^%ydboctoocto("oid")|"463"
SET|^%ydboctoocto|^%ydboctoocto("oid")|"464"
SET|^%ydboctoocto|^%ydboctoocto("oid")|"465"
SET|^%ydboctoocto|^%ydboctoocto("oid")|"466"
SET|^%ydboctoocto|^%ydboctoocto("oid")|"467"
SET|^%ydboctoocto|^%ydboctoocto("oid")|"468"
SET|^%ydboctoocto|^%ydboctoocto("oid")|"469"
SET|^%ydboctoocto|^%ydboctoocto("oid")|"470"
SET|^%ydboctoocto|^%ydboctoocto("oid")|"471"
SET|^%ydboctoocto|^%ydboctoocto("oid")|"472"
SET|^%ydboctoocto|^%ydboctoocto("oid")|"473"
SET|^%ydboctoocto|^%ydboctoocto("oid")|"474"
SET|^%ydboctoocto|^%ydboctoocto("oid")|"475"
SET|^%ydboctoocto|^%ydboctoocto("oid")|"476"
SET|^%ydboctoocto|^%ydboctoocto("oid")|"477"
SET|^%ydboctoocto|^%ydboctoocto("oid")|"478"
SET|^%ydboctoocto|^%ydboctoocto("oid")|"479"
SET|^%ydboctoocto|^%ydboctoocto("oid")|"480"
SET|^%ydboctoocto|^%ydboctoocto("oid")|"481"
SET|^%ydboctoocto|^%ydboctoocto("oid")|"482"
SET|^%ydboctoocto|^%ydboctoocto("oid")|"483"
SET|^%ydboctoocto|^%ydboctoocto("oid")|"484"
SET|^%ydboctoocto|^%ydboctoocto("oid")|"485"
SET|^%ydboctoocto|^%ydboctoocto("oid")|"486"
SET|^%ydboctoocto|^%ydboctoocto("oid")|"487"
SET|^%ydboctoocto|^%ydboctoocto("oid")|"488"
SET|^%ydboctoocto|^%ydboctoocto("oid")|"489"
SET|^%ydboctoocto|^%ydboctoocto("oid")|"490"
SET|^%ydboctoocto|^%ydboctoocto("oid")|"491"
SET|^%ydboctoocto|^%ydboctoocto("oid")|"492"
SET|^%ydboctoocto|^%ydboctoocto("oid")|"493"
SET|^%ydboctoocto|^%ydboctoocto("oid")|"494"
SET|^%ydboctoocto|^%ydboctoocto("oid")|"495"
SET|^%ydboctoocto|^%ydboctoocto("oid")|"496"
SET|^%ydboctoocto|^%ydboctoocto("oid")|"497"
SET|^%ydboctoocto|^%ydboctoocto("oid")|"498"
SET|^%ydboctoocto|^%ydboctoocto("oid")|"499"
SET|^%ydboctoocto|^%ydboctoocto("oid")|"500"
SET|^%ydboctoocto|^%ydboctoocto("oid")|"501"
SET|^%ydboctoocto|^%ydboctoocto("oid")|"502"
SET|^%ydboctoocto|^%ydboctoocto("oid")|"503"
SET|^%ydboctoocto|^%ydboctoocto("oid")|"504"
SET|^%ydboctoocto|^%ydboctoocto("oid")|"505"
SET|^%ydboctoocto|^%ydboctoocto("oid")|"506"
SET|^%ydboctoocto|^%ydboctoocto("oid")|"507"
SET|^%ydboctoocto|^%ydboctoocto("oid")|"508"
SET|^%ydboctoocto|^%ydboctoocto("oid")|"509"
SET|^%ydboctoocto|^%ydboctoocto("oid")|"510"
SET|^%ydboctoocto|^%ydboctoocto("oid")|"511"
SET|^%ydboctoocto|^%ydboctoocto("oid")|"512"
SET|^%ydboctoocto|^%ydboctoocto("oid")|"513"
SET|^%ydboctoocto|^%ydboctoocto("oid")|"514"
SET|^%ydboctoocto|^%ydboctoocto("oid")|"515"
SET|^%ydboctoocto|^%ydboctoocto("oid")|"516"
SET|^%ydboctoocto|^%ydboctoocto("oid")|"517"
SET|^%ydboctoocto|^%ydboctoocto("oid")|"518"
SET|^%ydboctoocto|^%ydboctoocto("oid")|"519"
SET|^%ydboctoocto|^%ydboctoocto("oid")|"520"
SET|^%ydboctoocto|^%ydboctoocto("oid")|"521"
SET|^%ydboctoocto|^%ydboctoocto("oid")|"522"
SET|^%ydboctoocto|^%ydboctoocto("oid")|"523"
SET|^%ydboctoocto|^%ydboctoocto("oid")|"524"
SET|^%ydboctoocto|^%ydboctoocto("oid")|"525"
SET|^%ydboctoocto|^%ydboctoocto("oid")|"526"
SET|^%ydboctoocto|^%ydboctoocto("oid")|"527"
SET|^%ydboctoocto|^%ydboctoocto("oid")|"528"
SET|^%ydboctoocto|^%ydboctoocto("oid")|"529"
SET|^%ydboctoocto|^%ydboctoocto("oid")|"530"
SET|^%ydboctoocto|^%ydboctoocto("oid")|"531"
SET|^%ydboctoocto|^%ydboctoocto("oid")|"532"
SET|^%ydboctoocto|^%ydboctoocto("oid")|"533"
SET|^%ydboctoocto|^%ydboctoocto("oid")|"534"
SET|^%ydboctoocto|^%ydboctoocto("oid")|"535"
SET|^%ydboctoocto|^%ydboctoocto("oid")|"536"
SET|^%ydboctoocto|^%ydboctoocto("oid")|"537"
SET|^%ydboctoocto|^%ydboctoocto("oid")|"538"
SET|^%ydboctoocto|^%ydboctoocto("oid")|"539"
SET|^%ydboctoocto|^%ydboctoocto("oid")|"540"
SET|^%ydboctoocto|^%ydboctoocto("oid")|"541"
SET|^%ydboctoocto|^%ydboctoocto("oid")|"542"
SET|^%ydboctoocto|^%ydboctoocto("oid")|"543"
SET|^%ydboctoocto|^%ydboctoocto("oid")|"544"
SET|^%ydboctoocto|^%ydboctoocto("oid")|"545"
SET|^%ydboctoocto|^%ydboctoocto("oid")|"546"
SET|^%ydboctoocto|^%ydboctoocto("oid")|"547"
SET|^%ydboctoocto|^%ydboctoocto("oid")|"548"
SET|^%ydboctoocto|^%ydboctoocto("oid")|"549"
SET|^%ydboctoocto|^%ydboctoocto("oid")|"550"
SET|^%ydboctoocto|^%ydboctoocto("oid")|"551"
SET|^%ydboctoocto|^%ydboctoocto("oid")|"552"
SET|^%ydboctoocto|^%ydboctoocto("oid")|"553"
SET|^%ydboctoocto|^%ydboctoocto("oid")|"554"
SET|^%ydboctoocto|^%ydboctoocto("oid")|"555"
SET|^%ydboctoocto|^%ydboctoocto("oid")|"556"
SET|^%ydboctoocto|^%ydboctoocto("oid")|"557"
SET|^%ydboctoocto|^%ydboctoocto("oid")|"558"
SET|^%ydboctoocto|^%ydboctoocto("oid")|"559"
SET|^%ydboctoocto|^%ydboctoocto("oid")|"560"
SET|^%ydboctoocto|^%ydboctoocto("oid")|"561"
SET|^%ydboctoocto|^%ydboctoocto("oid")|"562"
SET|^%ydboctoocto|^%ydboctoocto("oid")|"563"
SET|^%ydboctoocto|^%ydboctoocto("oid")|"564"
SET|^%ydboctoocto|^%ydboctoocto("oid")|"565"
SET|^%ydboctoocto|^%ydboctoocto("oid")|"566"
SET|^%ydboctoocto|^%ydboctoocto("oid")|"567"
SET|^%ydboctoocto|^%ydboctoocto("oid")|"568"
SET|^%ydboctoocto|^%ydboctoocto("oid")|"569"
SET|^%ydboctoocto|^%ydboctoocto("oid")|"570"
SET|^%ydboctoocto|^%ydboctoocto("oid")|"571"
SET|^%ydboctoocto|^%ydboctoocto("oid")|"572"
SET|^%ydboctoocto|^%ydboctoocto("oid")|"573"
SET|^%ydboctoocto|^%ydboctoocto("oid")|"574"
SET|^%ydboctoocto|^%ydboctoocto("oid")|"575"
SET|^%ydboctoocto|^%ydboctoocto("oid")|"576"
SET|^%ydboctoocto|^%ydboctoocto("oid")|"577"
SET|^%ydboctoocto|^%ydboctoocto("oid")|"578"
SET|^%ydboctoocto|^%ydboctoocto("oid")|"579"
SET|^%ydboctoocto|^%ydboctoocto("oid")|"580"
SET|^%ydboctoocto|^%ydboctoocto("oid")|"581"
SET|^%ydboctoocto|^%ydboctoocto("oid")|"582"
SET|^%ydboctoocto|^%ydboctoocto("oid")|"583"
SET|^%ydboctoocto|^%ydboctoocto("oid")|"584"
SET|^%ydboctoocto|^%ydboctoocto("oid")|"585"
SET|^%ydboctoocto|^%ydboctoocto("oid")|"586"
SET|^%ydboctoocto|^%ydboctoocto("oid")|"587"
SET|^%ydboctoocto|^%ydboctoocto("oid")|"588"
SET|^%ydboctoocto|^%ydboctoocto("oid")|"589"
SET|^%ydboctoocto|^%ydboctoocto("oid")|"590"
SET|^%ydboctoocto|^%ydboctoocto("oid")|"591"
SET|^%ydboctoocto|^%ydboctoocto("oid")|"592"
SET|^%ydboctoocto|^%ydboctoocto("oid")|"593"
SET|^%ydboctoocto|^%ydboctoocto("oid")|"594"
SET|^%ydboctoocto|^%ydboctoocto("oid")|"595"
SET|^%ydboctoocto|^%ydboctoocto("oid")|"596"
SET|^%ydboctoocto|^%ydboctoocto("oid")|"597"
SET|^%ydboctoocto|^%ydboctoocto("oid")|"598"
SET|^%ydboctoocto|^%ydboctoocto("oid")|"599"
SET|^%ydboctoocto|^%ydboctoocto("oid")|"600"
SET|^%ydboctoocto|^%ydboctoocto("oid")|"601"
SET|^%ydboctoocto|^%ydboctoocto("oid")|"602"
SET|^%ydboctoocto|^%ydboctoocto("oid")|"603"
SET|^%ydboctoocto|^%ydboctoocto("oid")|"604"
SET|^%ydboctoocto|^%ydboctoocto("oid")|"605"
SET|^%ydboctoocto|^%ydboctoocto("oid")|"606"
SET|^%ydboctoocto|^%ydboctoocto("oid")|"607"
SET|^%ydboctoocto|^%ydboctoocto("oid")|"608"
SET|^%ydboctoocto|^%ydboctoocto("oid")|"609"
SET|^%ydboctoocto|^%ydboctoocto("oid")|"610"
SET|^%ydboctoocto|^%ydboctoocto("oid")|"611"
SET|^%ydboctoocto|^%ydboctoocto("oid")|"612"
SET|^%ydboctoocto|^%ydboctoocto("oid")|"613"
SET|^%ydboctoocto|^%ydboctoocto("oid")|"614"
SET|^%ydboctoocto|^%ydboctoocto("oid")|"615"
SET|^%ydboctoocto|^%ydboctoocto("oid")|"616"
SET|^%ydboctoocto|^%ydboctoocto("oid")|"617"
SET|^%ydboctoocto|^%ydboctoocto("oid")|"618"
SET|^%ydboctoocto|^%ydboctoocto("oid")|"619"
SET|^%ydboctoocto|^%ydboctoocto("oid")|"620"
SET|^%ydboctoocto|^%ydboctoocto("oid")|"621"
SET|^%ydboctoocto|^%ydboctoocto("oid")|"622"
SET|^%ydboctoocto|^%ydboctoocto("oid")|"623"
SET|^%ydboctoocto|^%ydboctoocto("oid")|"624"
SET|^%ydboctoocto|^%ydboctoocto("oid")|"625"
SET|^%ydboctoocto|^%ydboctoocto("oid")|"626"
SET|^%ydboctoocto|^%ydboctoocto("oid")|"627"
SET|^%ydboctoocto|^%ydboctoocto("oid")|"628"
SET|^%ydboctoocto|^%ydboctoocto("oid")|"629"
SET|^%ydboctoocto|^%ydboctoocto("oid")|"630"
SET|^%ydboctoocto|^%ydboctoocto("oid")|"631"
SET|^%ydboctoocto|^%ydboctoocto("oid")|"632"
SET|^%ydboctoocto|^%ydboctoocto("oid")|"633"
SET|^%ydboctoocto|^%ydboctoocto("oid")|"634"
SET|^%ydboctoocto|^%ydboctoocto("oid")|"635"
SET|^%ydboctoocto|^%ydboctoocto("oid")|"636"
SET|^%ydboctoocto|^%ydboctoocto("oid")|"637"
SET|^%ydboctoocto|^%ydboctoocto("oid")|"638"
SET|^%ydboctoocto|^%ydboctoocto("oid")|"639"
SET|^%ydboctoocto|^%ydboctoocto("oid")|"640"
SET|^%ydboctoocto|^%ydboctoocto("oid")|"641"
SET|^%ydboctoocto|^%ydboctoocto("oid")|"642"
SET|^%ydboctoocto|^%ydboctoocto("oid")|"643"
SET|^%ydboctoocto|^%ydboctoocto("oid")|"644"
SET|^%ydboctoocto|^%ydboctoocto("oid")|"645"
SET|^%ydboctoocto|^%ydboctoocto("oid")|"646"
SET|^%ydboctoocto|^%ydboctoocto("oid")|"647"
SET|^%ydboctoocto|^%ydboctoocto("oid")|"648"
SET|^%ydboctoocto|^%ydboctoocto("oid")|"649"
SET|^%ydboctoocto|^%ydboctoocto("oid")|"650"
SET|^%ydboctoocto|^%ydboctoocto("oid")|"651"
SET|^%ydboctoocto|^%ydboctoocto("oid")|"652"
SET|^%ydboctoocto|^%ydboctoocto("oid")|"653"
SET|^%ydboctoocto|^%ydboctoocto("oid")|"654"
SET|^%ydboctoocto|^%ydboctoocto("oid")|"655"
SET|^%ydboctoocto|^%ydboctoocto("oid")|"656"
SET|^%ydboctoocto|^%ydboctoocto("oid")|"657"
SET|^%ydboctoocto|^%ydboctoocto("oid")|"658"
SET|^%ydboctoocto|^%ydboctoocto("oid")|"659"
SET|^%ydboctoocto|^%ydboctoocto("oid")|"660"
SET|^%ydboctoocto|^%ydboctoocto("oid")|"661"
SET|^%ydboctoocto|^%ydboctoocto("oid")|"662"
SET|^%ydboctoocto|^%ydboctoocto("oid")|"663"
SET|^%ydboctoocto|^%ydboctoocto("oid")|"664"
SET|^%ydboctoocto|^%ydboctoocto("oid")|"665"
SET|^%ydboctoocto|^%ydboctoocto("oid")|"666"
SET|^%ydboctoocto|^%ydboctoocto("oid")|"667"
SET|^%ydboctoocto|^%ydboctoocto("oid")|"668"
SET|^%ydboctoocto|^%ydboctoocto("oid")|"669"
SET|^%ydboctoocto|^%ydboctoocto("oid")|"670"
SET|^%ydboctoocto|^%ydboctoocto("oid")|"671"
SET|^%ydboctoocto|^%ydboctoocto("oid")|"672"
SET|^%ydboctoocto|^%ydboctoocto("oid")|"673"
SET|^%ydboctoocto|^%ydboctoocto("oid")|"674"
SET|^%ydboctoocto|^%ydboctoocto("oid")|"675"
SET|^%ydboctoocto|^%ydboctoocto("oid")|"676"
SET|^%ydboctoocto|^%ydboctoocto("oid")|"677"
SET|^%ydboctoocto|^%ydboctoocto("oid")|"678"
SET|^%ydboctoocto|^%ydboctoocto("oid")|"679"
SET|^%ydboctoocto|^%ydboctoocto("oid")|"680"
SET|^%ydboctoocto|^%ydboctoocto("oid")|"681"
SET|^%ydboctoocto|^%ydboctoocto("oid")|"682"
SET|^%ydboctoocto|^%ydboctoocto("oid")|"683"
SET|^%ydboctoocto|^%ydboctoocto("oid")|"684"
SET|^%ydboctoocto|^%ydboctoocto("oid")|"685"
SET|^%ydboctoocto|^%ydboctoocto("oid")|"686"
SET|^%ydboctoocto|^%ydboctoocto("oid")|"687"
SET|^%ydboctoocto|^%ydboctoocto("oid")|"688"
SET|^%ydboctoocto|^%ydboctoocto("oid")|"689"
SET|^%ydboctoocto|^%ydboctoocto("oid")|"690"
SET|^%ydboctoocto|^%ydboctoocto("oid")|"691"
SET|^%ydboctoocto|^%ydboctoocto("oid")|"692"
SET|^%ydboctoocto|^%ydboctoocto("oid")|"693"
SET|^%ydboctoocto|^%ydboctoocto("oid")|"694"
SET|^%ydboctoocto|^%ydboctoocto("oid")|"695"
SET|^%ydboctoocto|^%ydboctoocto("oid")|"696"
SET|^%ydboctoocto|^%ydboctoocto("oid")|"697"
SET|^%ydboctoocto|^%ydboctoocto("oid")|"698"
SET|^%ydboctoocto|^%ydboctoocto("oid")|"699"
SET|^%ydboctoocto|^%ydboctoocto("oid")|"700"
SET|^%ydboctoocto|^%ydboctoocto("oid")|"701"
SET|^%ydboctoocto|^%ydboctoocto("oid")|"702"
SET|^%ydboctoocto|^%ydboctoocto("oid")|"703"
SET|^%ydboctoocto|^%ydboctoocto("oid")|"704"
SET|^%ydboctoocto|^%ydboctoocto("oid")|"705"
SET|^%ydboctoocto|^%ydboctoocto("oid")|"706"
SET|^%ydboctoocto|^%ydboctoocto("oid")|"707"
SET|^%ydboctoocto|^%ydboctoocto("oid")|"708"
SET|^%ydboctoocto|^%ydboctoocto("oid")|"709"
SET|^%ydboctoocto|^%ydboctoocto("oid")|"710"
SET|^%ydboctoocto|^%ydboctoocto("oid")|"711"
SET|^%ydboctoocto|^%ydboctoocto("oid")|"712"
SET|^%ydboctoocto|^%ydboctoocto("oid")|"713"
SET|^%ydboctoocto|^%ydboctoocto("oid")|"714"
SET|^%ydboctoocto|^%ydboctoocto("oid")|"715"
SET|^%ydboctoocto|^%ydboctoocto("oid")|"716"
SET|^%ydboctoocto|^%ydboctoocto("oid")|"717"
SET|^%ydboctoocto|^%ydboctoocto("oid")|"718"
SET|^%ydboctoocto|^%ydboctoocto("oid")|"719"
SET|^%ydboctoocto|^%ydboctoocto("oid")|"720"
SET|^%ydboctoocto|^%ydboctoocto("oid")|"721"
SET|^%ydboctoocto|^%ydboctoocto("oid")|"722"
SET|^%ydboctoocto|^%ydboctoocto("oid")|"723"
SET|^%ydboctoocto|^%ydboctoocto("oid")|"724"
SET|^%ydboctoocto|^%ydboctoocto("oid")|"725"
SET|^%ydboctoocto|^%ydboctoocto("oid")|"726"
SET|^%ydboctoocto|^%ydboctoocto("oid")|"727"
SET|^%ydboctoocto|^%ydboctoocto("oid")|"728"
SET|^%ydboctoocto|^%ydboctoocto("oid")|"729"
SET|^%ydboctoocto|^%ydboctoocto("oid")|"730"
SET|^%ydboctoocto|^%ydboctoocto("oid")|"731"
SET|^%ydboctoocto|^%ydboctoocto("oid")|"732"
SET|^%ydboctoocto|^%ydboctoocto("oid")|"733"
SET|^%ydboctoocto|^%ydboctoocto("oid")|"734"
SET|^%ydboctoocto|^%ydboctoocto("oid")|"735"
SET|^%ydboctoocto|^%ydboctoocto("oid")|"736"
SET|^%ydboctoocto|^%ydboctoocto("oid")|"737"
SET|^%ydboctoocto|^%ydboctoocto("oid")|"738"
SET|^%ydboctoocto|^%ydboctoocto("oid")|"739"
SET|^%ydboctoocto|^%ydboctoocto("oid")|"740"
SET|^%ydboctoocto|^%ydboctoocto("oid")|"741"
SET|^%ydboctoocto|^%ydboctoocto("oid")|"742"
SET|^%ydboctoocto|^%ydboctoocto("oid")|"743"
SET|^%ydboctoocto|^%ydboctoocto("oid")|"744"
SET|^%ydboctoocto|^%ydboctoocto("oid")|"745"
SET|^%ydboctoocto|^%ydboctoocto("oid")|"746"
SET|^%ydboctoocto|^%ydboctoocto("oid")|"747"
SET|^%ydboctoocto|^%ydboctoocto("oid")|"748"
SET|^%ydboctoocto|^%ydboctoocto("oid")|"749"
SET|^%ydboctoocto|^%ydboctoocto("oid")|"750"
SET|^%ydboctoocto|^%ydboctoocto("oid")|"751"
SET|^%ydboctoocto|^%ydboctoocto("oid")|"752"
SET|^%ydboctoocto|^%ydboctoocto("oid")|"753"
SET|^%ydboctoocto|^%ydboctoocto("oid")|"754"
SET|^%ydboctoocto|^%ydboctoocto("oid")|"755"
SET|^%ydboctoocto|^%ydboctoocto("oid")|"756"
SET|^%ydboctoocto|^%ydboctoocto("oid")|"757"
SET|^%ydboctoocto|^%ydboctoocto("oid")|"758"
SET|^%ydboctoocto|^%ydboctoocto("oid")|"759"
SET|^%ydboctoocto|^%ydboctoocto("oid")|"760"
SET|^%ydboctoocto|^%ydboctoocto("oid")|"761"
SET|^%ydboctoocto|^%ydboctoocto("oid")|"762"
SET|^%ydboctoocto|^%ydboctoocto("oid")|"763"
SET|^%ydboctoocto|^%ydboctoocto("oid")|"764"
SET|^%ydboctoocto|^%ydboctoocto("oid")|"765"
SET|^%ydboctoocto|^%ydboctoocto("oid")|"766"
SET|^%ydboctoocto|^%ydboctoocto("oid")|"767"
SET|^%ydboctoocto|^%ydboctoocto("oid")|"768"
SET|^%ydboctoocto|^%ydboctoocto("oid")|"769"
SET|^%ydboctoocto|^%ydboctoocto("oid")|"770"
SET|^%ydboctoocto|^%ydboctoocto("oid")|"771"
SET|^%ydboctoocto|^%ydboctoocto("oid")|"772"
SET|^%ydboctoocto|^%ydboctoocto("oid")|"773"
SET|^%ydboctoocto|^%ydboctoocto("oid")|"774"
SET|^%ydboctoocto|^%ydboctoocto("oid")|"775"
SET|^%ydboctoocto|^%ydboctoocto("oid")|"776"
SET|^%ydboctoocto|^%ydboctoocto("oid")|"777"
SET|^%ydboctoocto|^%ydboctoocto("oid")|"778"
SET|^%ydboctoocto|^%ydboctoocto("oid")|"779"
SET|^%ydboctoocto|^%ydboctoocto("oid")|"780"
SET|^%ydboctoocto|^%ydboctoocto("oid")|"781"
SET|^%ydboctoocto|^%ydboctoocto("oid")|"782"
SET|^%ydboctoocto|^%ydboctoocto("oid")|"783"
SET|^%ydboctoocto|^%ydboctoocto("oid")|"784"
SET|^%ydboctoocto|^%ydboctoocto("oid")|"785"
SET|^%ydboctoocto|^%ydboctoocto("oid")|"786"
SET|^%ydboctoocto|^%ydboctoocto("oid")|"787"
SET|^%ydboctoocto|^%ydboctoocto("oid")|"788"
SET|^%ydboctoocto|^%ydboctoocto("oid")|"789"
SET|^%ydboctoocto|^%ydboctoocto("oid")|"790"
SET|^%ydboctoocto|^%ydboctoocto("oid")|"791"
SET|^%ydboctoocto|^%ydboctoocto("oid")|"792"
SET|^%ydboctoocto|^%ydboctoocto("oid")|"793"
SET|^%ydboctoocto|^%ydboctoocto("oid")|"794"
SET|^%ydboctoocto|^%ydboctoocto("oid")|"795"
SET|^%ydboctoocto|^%ydboctoocto("oid")|"796"
SET|^%ydboctoocto|^%ydboctoocto("oid")|"797"
SET|^%ydboctoocto|^%ydboctoocto("oid")|"798"
SET|^%ydboctoocto|^%ydboctoocto("oid")|"799"
SET|^%ydboctoocto|^%ydboctoocto("oid")|"800"
SET|^%ydboctoocto|^%ydboctoocto("oid")|"801"
SET|^%ydboctoocto|^%ydboctoocto("oid")|"802"
SET|^%ydboctoocto|^%ydboctoocto("oid")|"803"
SET|^%ydboctoocto|^%ydboctoocto("oid")|"804"
SET|^%ydboctoocto|^%ydboctoocto("oid")|"805"
SET|^%ydboctoocto|^%ydboctoocto("oid")|"806"
SET|^%ydboctoocto|^%ydboctoocto("oid")|"807"
SET|^%ydboctoocto|^%ydboctoocto("oid")|"808"
SET|^%ydboctoocto|^%ydboctoocto("oid")|"809"
SET|^%ydboctoocto|^%ydboctoocto("oid")|"810"
SET|^%ydboctoocto|^%ydboctoocto("oid")|"811"
SET|^%ydboctoocto|^%ydboctoocto("oid")|"812"
SET|^%ydboctoocto|^%ydboctoocto("oid")|"813"
SET|^%ydboctoocto|^%ydboctoocto("oid")|"814"
SET|^%ydboctoocto|^%ydboctoocto("oid")|"815"
SET|^%ydboctoocto|^%ydboctoocto("oid")|"816"
SET|^%ydboctoocto|^%ydboctoocto("oid")|"817"
SET|^%ydboctoocto|^%ydboctoocto("oid")|"818"
SET|^%ydboctoocto|^%ydboctoocto("oid")|"819"
SET|^%ydboctoocto|^%ydboctoocto("oid")|"820"
SET|^%ydboctoocto|^%ydboctoocto("oid")|"821"
SET|^%ydboctoocto|^%ydboctoocto("oid")|"822"
SET|^%ydboctoocto|^%ydboctoocto("oid")|"823"
SET|^%ydboctoocto|^%ydboctoocto("oid")|"824"
SET|^%ydboctoocto|^%ydboctoocto("oid")|"825"
SET|^%ydboctoocto|^%ydboctoocto("oid")|"826"
SET|^%ydboctoocto|^%ydboctoocto("oid")|"827"
SET|^%ydboctoocto|^%ydboctoocto("oid")|"828"
SET|^%ydboctoocto|^%ydboctoocto("oid")|"829"
SET|^%ydboctoocto|^%ydboctoocto("oid")|"830"
SET|^%ydboctoocto|^%ydboctoocto("oid")|"831"
SET|^%ydboctoocto|^%ydboctoocto("oid")|"832"
SET|^%ydboctoocto|^%ydboctoocto("oid")|"833"
SET|^%ydboctoocto|^%ydboctoocto("oid")|"834"
SET|^%ydboctoocto|^%ydboctoocto("oid")|"835"
SET|^%ydboctoocto|^%ydboctoocto("oid")|"836"
SET|^%ydboctoocto|^%ydboctoocto("oid")|"837"
SET|^%ydboctoocto|^%ydboctoocto("oid")|"838"
SET|^%ydboctoocto|^%ydboctoocto("oid")|"839"
SET|^%ydboctoocto|^%ydboctoocto("oid")|"840"
SET|^%ydboctoocto|^%ydboctoocto("oid")|"841"
SET|^%ydboctoocto|^%ydboctoocto("oid")|"842"
SET|^%ydboctoocto|^%ydboctoocto("oid")|"843"
SET|^%ydboctoocto|^%ydboctoocto("oid")|"844"
SET|^%ydboctoocto|^%ydboctoocto("oid")|"845"
SET|^%ydboctoocto|^%ydboctoocto("oid")|"846"
SET|^%ydboctoocto|^%ydboctoocto("oid")|"847"
SET|^%ydboctoocto|^%ydboctoocto("oid")|"848"
SET|^%ydboctoocto|^%ydboctoocto("oid")|"849"
SET|^%ydboctoocto|^%ydboctoocto("oid")|"850"
SET|^%ydboctoocto|^%ydboctoocto("oid")|"851"
SET|^%ydboctoocto|^%ydboctoocto("oid")|"852"
SET|^%ydboctoocto|^%ydboctoocto("oid")|"853"
SET|^%ydboctoocto|^%ydboctoocto("oid")|"854"
SET|^%ydboctoocto|^%ydboctoocto("oid")|"855"
SET|^%ydboctoocto|^%ydboctoocto("oid")|"856"
SET|^%ydboctoocto|^%ydboctoocto("oid")|"857"
SET|^%ydboctoocto|^%ydboctoocto("oid")|"858"
SET|^%ydboctoocto|^%ydboctoocto("oid")|"859"
SET|^%ydboctoocto|^%ydboctoocto("oid")|"860"
SET|^%ydboctoocto|^%ydboctoocto("oid")|"861"
SET|^%ydboctoocto|^%ydboctoocto("oid")|"862"
SET|^%ydboctoocto|^%ydboctoocto("oid")|"863"
SET|^%ydboctoocto|^%ydboctoocto("oid")|"864"
SET|^%ydboctoocto|^%ydboctoocto("oid")|"865"
SET|^%ydboctoocto|^%ydboctoocto("oid")|"866"
SET|^%ydboctoocto|^%ydboctoocto("oid")|"867"
SET|^%ydboctoocto|^%ydboctoocto("oid")|"868"
SET|^%ydboctoocto|^%ydboctoocto("oid")|"869"
SET|^%ydboctoocto|^%ydboctoocto("oid")|"870"
SET|^%ydboctoocto|^%ydboctoocto("oid")|"871"
SET|^%ydboctoocto|^%ydboctoocto("oid")|"872"
SET|^%ydboctoocto|^%ydboctoocto("oid")|"873"
SET|^%ydboctoocto|^%ydboctoocto("oid")|"874"
SET|^%ydboctoocto|^%ydboctoocto("oid")|"875"
SET|^%ydboctoocto|^%ydboctoocto("oid")|"876"
SET|^%ydboctoocto|^%ydboctoocto("oid")|"877"
SET|^%ydboctoocto|^%ydboctoocto("oid")|"878"
SET|^%ydboctoocto|^%ydboctoocto("oid")|"879"
SET|^%ydboctoocto|^%ydboctoocto("oid")|"880"
SET|^%ydboctoocto|^%ydboctoocto("oid")|"881"
SET|^%ydboctoocto|^%ydboctoocto("oid")|"882"
SET|^%ydboctoocto|^%ydboctoocto("oid")|"883"
SET|^%ydboctoocto|^%ydboctoocto("oid")|"884"
SET|^%ydboctoocto|^%ydboctoocto("oid")|"885"
SET|^%ydboctoocto|^%ydboctoocto("oid")|"886"
SET|^%ydboctoocto|^%ydboctoocto("oid")|"887"
SET|^%ydboctoocto|^%ydboctoocto("oid")|"888"
SET|^%ydboctoocto|^%ydboctoocto("oid")|"889"
SET|^%ydboctoocto|^%ydboctoocto("oid")|"890"
SET|^%ydboctoocto|^%ydboctoocto("oid")|"891"
SET|^%ydboctoocto|^%ydboctoocto("oid")|"892"
SET|^%ydboctoocto|^%ydboctoocto("oid")|"893"
SET|^%ydboctoocto|^%ydboctoocto("oid")|"894"
SET|^%ydboctoocto|^%ydboctoocto("oid")|"895"
SET|^%ydboctoocto|^%ydboctoocto("oid")|"896"
SET|^%ydboctoocto|^%ydboctoocto("oid")|"897"
SET|^%ydboctoocto|^%ydboctoocto("oid")|"898"
SET|^%ydboctoocto|^%ydboctoocto("oid")|"899"
SET|^%ydboctoocto|^%ydboctoocto("oid")|"900"
SET|^%ydboctoocto|^%ydboctoocto("oid")|"901"
SET|^%ydboctoocto|^%ydboctoocto("oid")|"902"
SET|^%ydboctoocto|^%ydboctoocto("oid")|"903"
SET|^%ydboctoocto|^%ydboctoocto("oid")|"904"
SET|^%ydboctoocto|^%ydboctoocto("oid")|"905"
SET|^%ydboctoocto|^%ydboctoocto("oid")|"906"
SET|^%ydboctoocto|^%ydboctoocto("oid")|"907"
SET|^%ydboctoocto|^%ydboctoocto("oid")|"908"
SET|^%ydboctoocto|^%ydboctoocto("oid")|"909"
SET|^%ydboctoocto|^%ydboctoocto("oid")|"910"
SET|^%ydboctoocto|^%ydboctoocto("oid")|"911"
SET|^%ydboctoocto|^%ydboctoocto("oid")|"912"
SET|^%ydboctoocto|^%ydboctoocto("oid")|"913"
SET|^%ydboctoocto|^%ydboctoocto("oid")|"914"
SET|^%ydboctoocto|^%ydboctoocto("oid")|"915"
SET|^%ydboctoocto|^%ydboctoocto("oid")|"916"
SET|^%ydboctoocto|^%ydboctoocto("oid")|"917"
SET|^%ydboctoocto|^%ydboctoocto("oid")|"918"
SET|^%ydboctoocto|^%ydboctoocto("oid")|"919"
SET|^%ydboctoocto|^%ydboctoocto("oid")|"920"
SET|^%ydboctoocto|^%ydboctoocto("oid")|"921"
SET|^%ydboctoocto|^%ydboctoocto("oid")|"922"
SET|^%ydboctoocto|^%ydboctoocto("oid")|"923"
SET|^%ydboctoocto|^%ydboctoocto("oid")|"924"
SET|^%ydboctoocto|^%ydboctoocto("oid")|"925"
SET|^%ydboctoocto|^%ydboctoocto("oid")|"926"
SET|^%ydboctoocto|^%ydboctoocto("oid")|"927"
SET|^%ydboctoocto|^%ydboctoocto("oid")|"928"
SET|^%ydboctoocto|^%ydboctoocto("oid")|"929"
SET|^%ydboctoocto|^%ydboctoocto("oid")|"930"
SET|^%ydboctoocto|^%ydboctoocto("oid")|"931"
SET|^%ydboctoocto|^%ydboctoocto("oid")|"932"
SET|^%ydboctoocto|^%ydboctoocto("oid")|"933"
SET|^%ydboctoocto|^%ydboctoocto("oid")|"934"
SET|^%ydboctoocto|^%ydboctoocto("oid")|"935"
SET|^%ydboctoocto|^%ydboctoocto("oid")|"936"
SET|^%ydboctoocto|^%ydboctoocto("oid")|"937"
SET|^%ydboctoocto|^%ydboctoocto("oid")|"938"
SET|^%ydboctoocto|^%ydboctoocto("oid")|"939"
SET|^%ydboctoocto|^%ydboctoocto("oid")|"940"
SET|^%ydboctoocto|^%ydboctoocto("oid")|"941"
SET|^%ydboctoocto|^%ydboctoocto("oid")|"942"
SET|^%ydboctoocto|^%ydboctoocto("oid")|"943"
SET|^%ydboctoocto|^%ydboctoocto("oid")|"944"
SET|^%ydboctoocto|^%ydboctoocto("oid")|"945"
SET|^%ydboctoocto|^%ydboctoocto("oid")|"946"
SET|^%ydboctoocto|^%ydboctoocto("oid")|"947"
SET|^%ydboctoocto|^%ydboctoocto("oid")|"948"
SET|^%ydboctoocto|^%ydboctoocto("oid")|"949"
SET|^%ydboctoocto|^%ydboctoocto("oid")|"950"
SET|^%ydboctoocto|^%ydboctoocto("oid")|"951"
SET|^%ydboctoocto|^%ydboctoocto("oid")|"952"
SET|^%ydboctoocto|^%ydboctoocto("oid")|"953"
SET|^%ydboctoocto|^%ydboctoocto("oid")|"954"
SET|^%ydboctoocto|^%ydboctoocto("oid")|"955"
SET|^%ydboctoocto|^%ydboctoocto("oid")|"956"
SET|^%ydboctoocto|^%ydboctoocto("oid")|"957"
SET|^%ydboctoocto|^%ydboctoocto("oid")|"958"
SET|^%ydboctoocto|^%ydboctoocto("oid")|"959"
SET|^%ydboctoocto|^%ydboctoocto("oid")|"960"
SET|^%ydboctoocto|^%ydboctoocto("oid")|"961"
SET|^%ydboctoocto|^%ydboctoocto("oid")|"962"
SET|^%ydboctoocto|^%ydboctoocto("oid")|"963"
SET|^%ydboctoocto|^%ydboctoocto("oid")|"964"
SET|^%ydboctoocto|^%ydboctoocto("oid")|"965"
SET|^%ydboctoocto|^%ydboctoocto("oid")|"966"
SET|^%ydboctoocto|^%ydboctoocto("oid")|"967"
SET|^%ydboctoocto|^%ydboctoocto("oid")|"968"
SET|^%ydboctoocto|^%ydboctoocto("oid")|"969"
SET|^%ydboctoocto|^%ydboctoocto("oid")|"970"
SET|^%ydboctoocto|^%ydboctoocto("oid")|"971"
SET|^%ydboctoocto|^%ydboctoocto("oid")|"972"
SET|^%ydboctoocto|^%ydboctoocto("oid")|"973"
SET|^%ydboctoocto|^%ydboctoocto("oid")|"974"
SET|^%ydboctoocto|^%ydboctoocto("oid")|"975"
SET|^%ydboctoocto|^%ydboctoocto("oid")|"976"
SET|^%ydboctoocto|^%ydboctoocto("oid")|"977"
SET|^%ydboctoocto|^%ydboctoocto("oid")|"978"
SET|^%ydboctoocto|^%ydboctoocto("oid")|"979"
SET|^%ydboctoocto|^%ydboctoocto("oid")|"980"
SET|^%ydboctoocto|^%ydboctoocto("oid")|"981"
SET|^%ydboctoocto|^%ydboctoocto("oid")|"982"
SET|^%ydboctoocto|^%ydboctoocto("oid")|"983"
SET|^%ydboctoocto|^%ydboctoocto("oid")|"984"
SET|^%ydboctoocto|^%ydboctoocto("oid")|"985"
SET|^%ydboctoocto|^%ydboctoocto("oid")|"986"
SET|^%ydboctoocto|^%ydboctoocto("oid")|"987"
SET|^%ydboctoocto|^%ydboctoocto("oid")|"988"
SET|^%ydboctoocto|^%ydboctoocto("oid")|"989"
SET|^%ydboctoocto|^%ydboctoocto("oid")|"990"
SET|^%ydboctoocto|^%ydboctoocto("oid")|"991"
SET|^%ydboctoocto|^%ydboctoocto("oid")|"992"
SET|^%ydboctoocto|^%ydboctoocto("oid")|"993"
SET|^%ydboctoocto|^%ydboctoocto("oid")|"994"
SET|^%ydboctoocto|^%ydboctoocto("oid")|"995"
SET|^%ydboctoocto|^%ydboctoocto("oid")|"996"
SET|^%ydboctoocto|^%ydboctoocto("oid")|"997"
SET|^%ydboctoocto|^%ydboctoocto("oid")|"998"
SET|^%ydboctoocto|^%ydboctoocto("oid")|"999"
SET|^%ydboctoocto|^%ydboctoocto("oid")|"1000"
SET|^%ydboctoocto|^%ydboctoocto("oid")|"1001"
SET|^%ydboctoocto|^%ydboctoocto("oid")|"1002"
SET|^%ydboctoocto|^%ydboctoocto("oid")|"1003"
SET|^%ydboctoocto|^%ydboctoocto("oid")|"1004"
SET|^%ydboctoocto|^%ydboctoocto("oid")|"1005"
SET|^%ydboctoocto|^%ydboctoocto("oid")|"1006"
SET|^%ydboctoocto|^%ydboctoocto("oid")|"1007"
SET|^%ydboctoocto|^%ydboctoocto("oid")|"1008"
SET|^%ydboctoocto|^%ydboctoocto("oid")|"1009"
SET|^%ydboctoocto|^%ydboctoocto("oid")|"1010"
SET|^%ydboctoocto|^%ydboctoocto("oid")|"1011"
SET|^%ydboctoocto|^%ydboctoocto("oid")|"1012"
SET|^%ydboctoocto|^%ydboctoocto("oid")|"1013"
SET|^%ydboctoocto|^%ydboctoocto("oid")|"1014"
SET|^%ydboctoocto|^%ydboctoocto("oid")|"1015"
SET|^%ydboctoocto|^%ydboctoocto("oid")|"1016"
SET|^%ydboctoocto|^%ydboctoocto("oid")|"1017"
SET|^%ydboctoocto|^%ydboctoocto("oid")|"1018"
SET|^%ydboctoocto|^%ydboctoocto("oid")|"1019"
SET|^%ydboctoocto|^%ydboctoocto("oid")|"1020"
SET|^%ydboctoocto|^%ydboctoocto("oid")|"1021"
SET|^%ydboctoocto|^%ydboctoocto("oid")|"1022"
SET|^%ydboctoocto|^%ydboctoocto("oid")|"1023"
SET|^%ydboctoocto|^%ydboctoocto("oid")|"1024"
SET|^%ydboctoocto|^%ydboctoocto("oid")|"1025"
SET|^%ydboctoocto|^%ydboctoocto("oid")|"1026"
SET|^%ydboctoocto|^%ydboctoocto("oid")|"1027"
SET|^%ydboctoocto|^%ydboctoocto("oid")|"1028"
SET|^%ydboctoocto|^%ydboctoocto("oid")|"1029"
SET|^%ydboctoocto|^%ydboctoocto("oid")|"1030"
SET|^%ydboctoocto|^%ydboctoocto("oid")|"1031"
SET|^%ydboctoocto|^%ydboctoocto("oid")|"1032"
SET|^%ydboctoocto|^%ydboctoocto("oid")|"1033"
SET|^%ydboctoocto|^%ydboctoocto("oid")|"1034"
SET|^%ydboctoocto|^%ydboctoocto("oid")|"1035"
SET|^%ydboctoocto|^%ydboctoocto("oid")|"1036"
SET|^%ydboctoocto|^%ydboctoocto("oid")|"1037"
SET|^%ydboctoocto|^%ydboctoocto("oid")|"1038"
SET|^%ydboctoocto|^%ydboctoocto("oid")|"1039"
SET|^%ydboctoocto|^%ydboctoocto("oid")|"1040"
SET|^%ydboctoocto|^%ydboctoocto("oid")|"1041"
SET|^%ydboctoocto|^%ydboctoocto("oid")|"1042"
SET|^%ydboctoocto|^%ydboctoocto("oid")|"1043"
SET|^%ydboctoocto|^%ydboctoocto("oid")|"1044"
SET|^%ydboctoocto|^%ydboctoocto("oid")|"1045"
SET|^%ydboctoocto|^%ydboctoocto("oid")|"1046"
SET|^%ydboctoocto|^%ydboctoocto("oid")|"1047"
SET|^%ydboctoocto|^%ydboctoocto("oid")|"1048"
SET|^%ydboctoocto|^%ydboctoocto("oid")|"1049"
SET|^%ydboctoocto|^%ydboctoocto("oid")|"1050"
SET|^%ydboctoocto|^%ydboctoocto("oid")|"1051"
SET|^%ydboctoocto|^%ydboctoocto("oid")|"1052"
SET|^%ydboctoocto|^%ydboctoocto("oid")|"1053"
SET|^%ydboctoocto|^%ydboctoocto("oid")|"1054"
SET|^%ydboctoocto|^%ydboctoocto("oid")|"1055"
SET|^%ydboctoocto|^%ydboctoocto("oid")|"1056"
SET|^%ydboctoocto|^%ydboctoocto("oid")|"1057"
SET|^%ydboctoocto|^%ydboctoocto("oid")|"1058"
SET|^%ydboctoocto|^%ydboctoocto("oid")|"1059"
SET|^%ydboctoocto|^%ydboctoocto("oid")|"1060"
SET|^%ydboctoocto|^%ydboctoocto("oid")|"1061"
SET|^%ydboctoocto|^%ydboctoocto("oid")|"1062"
SET|^%ydboctoocto|^%ydboctoocto("oid")|"1063"
SET|^%ydboctoocto|^%ydboctoocto("oid")|"1064"
SET|^%ydboctoocto|^%ydboctoocto("oid")|"1065"
SET|^%ydboctoocto|^%ydboctoocto("oid")|"1066"
SET|^%ydboctoocto|^%ydboctoocto("oid")|"1067"
SET|^%ydboctoocto|^%ydboctoocto("oid")|"1068"
SET|^%ydboctoocto|^%ydboctoocto("oid")|"1069"
SET|^%ydboctoocto|^%ydboctoocto("oid")|"1070"
SET|^%ydboctoocto|^%ydboctoocto("oid")|"1071"
SET|^%ydboctoocto|^%ydboctoocto("oid")|"1072"
SET|^%ydboctoocto|^%ydboctoocto("oid")|"1073"
SET|^%ydboctoocto|^%ydboctoocto("oid")|"1074"
SET|^%ydboctoocto|^%ydboctoocto("oid")|"1075"
SET|^%ydboctoocto|^%ydboctoocto("oid")|"1076"
SET|^%ydboctoocto|^%ydboctoocto("oid")|"1077"
SET|^%ydboctoocto|^%ydboctoocto("oid")|"1078"
SET|^%ydboctoocto|^%ydboctoocto("oid")|"1079"
SET|^%ydboctoocto|^%ydboctoocto("oid")|"1080"
SET|^%ydboctoocto|^%ydboctoocto("oid")|"1081"
SET|^%ydboctoocto|^%ydboctoocto("oid")|"1082"
SET|^%ydboctoocto|^%ydboctoocto("oid")|"1083"
SET|^%ydboctoocto|^%ydboctoocto("oid")|"1084"
SET|^%ydboctoocto|^%ydboctoocto("oid")|"1085"
SET|^%ydboctoocto|^%ydboctoocto("oid")|"1086"
SET|^%ydboctoocto|^%ydboctoocto("oid")|"1087"
SET|^%ydboctoocto|^%ydboctoocto("oid")|"1088"
SET|^%ydboctoocto|^%ydboctoocto("oid")|"1089"
SET|^%ydboctoocto|^%ydboctoocto("oid")|"1090"
SET|^%ydboctoocto|^%ydboctoocto("oid")|"1091"
SET|^%ydboctoocto|^%ydboctoocto("oid")|"1092"
SET|^%ydboctoocto|^%ydboctoocto("oid")|"1093"
SET|^%ydboctoocto|^%ydboctoocto("oid")|"1094"
SET|^%ydboctoocto|^%ydboctoocto("oid")|"1095"
SET|^%ydboctoocto|^%ydboctoocto("oid")|"1096"
SET|^%ydboctoocto|^%ydboctoocto("oid")|"1097"
SET|^%ydboctoocto|^%ydboctoocto("oid")|"1098"
SET|^%ydboctoocto|^%ydboctoocto("oid")|"1099"
SET|^%ydboctoocto|^%ydboctoocto("oid")|"1100"
SET|^%ydboctoocto|^%ydboctoocto("oid")|"1101"
SET|^%ydboctoocto|^%ydboctoocto("oid")|"1102"
SET|^%ydboctoocto|^%ydboctoocto("oid")|"1103"
SET|^%ydboctoocto|^%ydboctoocto("oid")|"1104"
SET|^%ydboctoocto|^%ydboctoocto("oid")|"1105"
SET|^%ydboctoocto|^%ydboctoocto("oid")|"1106"
SET|^%ydboctoocto|^%ydboctoocto("oid")|"1107"
SET|^%ydboctoocto|^%ydboctoocto("oid")|"1108"
SET|^%ydboctoocto|^%ydboctoocto("oid")|"1109"
SET|^%ydboctoocto|^%ydboctoocto("oid")|"1110"
SET|^%ydboctoocto|^%ydboctoocto("oid")|"1111"
SET|^%ydboctoocto|^%ydboctoocto("oid")|"1112"
SET|^%ydboctoocto|^%ydboctoocto("oid")|"1113"
SET|^%ydboctoocto|^%ydboctoocto("oid")|"1114"
SET|^%ydboctoocto|^%ydboctoocto("oid")|"1115"
SET|^%ydboctoocto|^%ydboctoocto("oid")|"1116"
SET|^%ydboctoocto|^%ydboctoocto("oid")|"1117"
SET|^%ydboctoocto|^%ydboctoocto("oid")|"1118"
SET|^%ydboctoocto|^%ydboctoocto("oid")|"1119"
SET|^%ydboctoocto|^%ydboctoocto("oid")|"1120"
SET|^%ydboctoocto|^%ydboctoocto("oid")|"1121"
SET|^%ydboctoocto|^%ydboctoocto("oid")|"1122"
SET|^%ydboctoocto|^%ydboctoocto("oid")|"1123"
SET|^%ydboctoocto|^%ydboctoocto("oid")|"1124"
SET|^%ydboctoocto|^%ydboctoocto("oid")|"1125"
SET|^%ydboctoocto|^%ydboctoocto("oid")|"1126"
SET|^%ydboctoocto|^%ydboctoocto("oid")|"1127"
SET|^%ydboctoocto|^%ydboctoocto("oid")|"1128"
SET|^%ydboctoocto|^%ydboctoocto("oid")|"1129"
SET|^%ydboctoocto|^%ydboctoocto("oid")|"1130"
SET|^%ydboctoocto|^%ydboctoocto("oid")|"1131"
(1131 rows)
op
PINI
PINI
PINI
PINI
PINI
PINI
PINI
PINI
(8 rows)
op
PFIN
PFIN
PFIN
PFIN
PFIN
PFIN
PFIN
PFIN
(8 rows)
op
PBLK
PBLK
PBLK
PBLK
PBLK
PBLK
PBLK
PBLK
PBLK
PBLK
PBLK
PBLK
PBLK
PBLK
PBLK
PBLK
PBLK
PBLK
PBLK
PBLK
PBLK
PBLK
PBLK
PBLK
(24 rows)
op
EOF
EOF
(2 rows)
